//Maya ASCII 2017ff05 scene
//Name: RuinBrickLargerHalf.ma
//Last modified: Tue, Nov 07, 2017 05:46:53 PM
//Codeset: 1252
requires maya "2017ff05";
currentUnit -l centimeter -a degree -t film;
fileInfo "application" "maya";
fileInfo "product" "Maya 2017";
fileInfo "version" "2017";
fileInfo "cutIdentifier" "201706020738-1017329";
fileInfo "osv" "Microsoft Windows 8 Home Premium Edition, 64-bit  (Build 9200)\n";
fileInfo "license" "student";
createNode transform -s -n "persp";
	rename -uid "86CF1273-416D-06D7-14E5-80A22AFE3816";
	setAttr ".v" no;
	setAttr ".t" -type "double3" -4.735775482316396 -3.71445022639463 -2.3403543484795919 ;
	setAttr ".r" -type "double3" 145.4616472700061 -292.99999999995953 0 ;
createNode camera -s -n "perspShape" -p "persp";
	rename -uid "18058B05-434B-8AF9-CAA7-0FADD7017F91";
	setAttr -k off ".v" no;
	setAttr ".fl" 34.999999999999993;
	setAttr ".coi" 6.5661315173195378;
	setAttr ".imn" -type "string" "persp";
	setAttr ".den" -type "string" "persp_depth";
	setAttr ".man" -type "string" "persp_mask";
	setAttr ".hc" -type "string" "viewSet -p %camera";
createNode transform -s -n "top";
	rename -uid "A32350C5-4FDF-2C93-C786-22981357546C";
	setAttr ".v" no;
	setAttr ".t" -type "double3" 0 1000.1 0 ;
	setAttr ".r" -type "double3" -89.999999999999986 0 0 ;
createNode camera -s -n "topShape" -p "top";
	rename -uid "616FBDD3-44EE-EBB9-49AC-2C9AE19BBD68";
	setAttr -k off ".v" no;
	setAttr ".rnd" no;
	setAttr ".coi" 1000.1;
	setAttr ".ow" 30;
	setAttr ".imn" -type "string" "top";
	setAttr ".den" -type "string" "top_depth";
	setAttr ".man" -type "string" "top_mask";
	setAttr ".hc" -type "string" "viewSet -t %camera";
	setAttr ".o" yes;
createNode transform -s -n "front";
	rename -uid "DF13D2F8-49BF-3A73-2E82-A9873E12EF7E";
	setAttr ".v" no;
	setAttr ".t" -type "double3" 0 0 1000.1 ;
createNode camera -s -n "frontShape" -p "front";
	rename -uid "DFE48EC4-43BB-CCEC-7E79-2889464690DA";
	setAttr -k off ".v" no;
	setAttr ".rnd" no;
	setAttr ".coi" 1000.1;
	setAttr ".ow" 30;
	setAttr ".imn" -type "string" "front";
	setAttr ".den" -type "string" "front_depth";
	setAttr ".man" -type "string" "front_mask";
	setAttr ".hc" -type "string" "viewSet -f %camera";
	setAttr ".o" yes;
createNode transform -s -n "side";
	rename -uid "7526472C-4A73-0DAA-0354-2B9EE160793A";
	setAttr ".v" no;
	setAttr ".t" -type "double3" 1000.1 0 0 ;
	setAttr ".r" -type "double3" 0 89.999999999999986 0 ;
createNode camera -s -n "sideShape" -p "side";
	rename -uid "E326ECF6-41D5-F420-8F05-D79F71768BA9";
	setAttr -k off ".v" no;
	setAttr ".rnd" no;
	setAttr ".coi" 1000.1;
	setAttr ".ow" 30;
	setAttr ".imn" -type "string" "side";
	setAttr ".den" -type "string" "side_depth";
	setAttr ".man" -type "string" "side_mask";
	setAttr ".hc" -type "string" "viewSet -s %camera";
	setAttr ".o" yes;
createNode transform -n "pCube1";
	rename -uid "488FF784-4355-DD26-7534-88A9866290BA";
	setAttr ".s" -type "double3" 1 1 1.7754920057353665 ;
createNode transform -n "polySurface1" -p "pCube1";
	rename -uid "2FD42FD6-4388-1EA7-0BA4-A2BED3549016";
createNode mesh -n "polySurfaceShape1" -p "polySurface1";
	rename -uid "807D4396-4BDF-D1F5-D1D7-C1A198AB5E00";
	setAttr -k off ".v";
	setAttr -s 2 ".iog[0].og";
	setAttr ".vir" yes;
	setAttr ".vif" yes;
	setAttr ".uvst[0].uvsn" -type "string" "map1";
	setAttr ".cuvs" -type "string" "map1";
	setAttr ".dcc" -type "string" "Ambient+Diffuse";
	setAttr ".covm[0]"  0 1 1;
	setAttr ".cdvm[0]"  0 1 1;
createNode transform -n "transform1" -p "pCube1";
	rename -uid "6ACC624F-4EDE-2B4F-EA0A-A3B1D85ABB71";
	setAttr ".v" no;
createNode mesh -n "pCubeShape1" -p "transform1";
	rename -uid "2BB99787-4108-9C7F-C714-0F9B56187DF7";
	setAttr -k off ".v";
	setAttr ".io" yes;
	setAttr -s 2 ".iog[0].og";
	setAttr ".vir" yes;
	setAttr ".vif" yes;
	setAttr ".pv" -type "double2" 0.76770865917205811 0.21900898218154907 ;
	setAttr ".uvst[0].uvsn" -type "string" "map1";
	setAttr ".cuvs" -type "string" "map1";
	setAttr ".dcc" -type "string" "Ambient+Diffuse";
	setAttr ".covm[0]"  0 1 1;
	setAttr ".cdvm[0]"  0 1 1;
	setAttr -s 6 ".pt";
	setAttr ".pt[46]" -type "float3" 0 0 -0.021371156 ;
	setAttr ".pt[48]" -type "float3" 0 0.011754638 0.016976008 ;
	setAttr ".pt[49]" -type "float3" 0 0 -0.019616386 ;
	setAttr ".pt[50]" -type "float3" 0 0 -0.03590693 ;
	setAttr ".pt[61]" -type "float3" 0.1921525 0 -0.012724571 ;
	setAttr ".pt[62]" -type "float3" -0.1921525 0 -0.012724571 ;
createNode lightLinker -s -n "lightLinker1";
	rename -uid "F39921AE-4B57-A27A-2BFF-70B2E9D1C3B1";
	setAttr -s 2 ".lnk";
	setAttr -s 2 ".slnk";
createNode shapeEditorManager -n "shapeEditorManager";
	rename -uid "2E09306F-43EA-CCF6-BCF8-3794AD2EFF00";
createNode poseInterpolatorManager -n "poseInterpolatorManager";
	rename -uid "556B2B75-45CD-0C6B-98B5-B495E9873FFE";
createNode displayLayerManager -n "layerManager";
	rename -uid "3906B28F-4183-CCB0-F847-ADB15F82D112";
createNode displayLayer -n "defaultLayer";
	rename -uid "9163E701-4C91-BA9D-3905-ADA52F6BC37B";
createNode renderLayerManager -n "renderLayerManager";
	rename -uid "22DB39D4-4841-B029-4DD5-2B914FE1C0A8";
createNode renderLayer -n "defaultRenderLayer";
	rename -uid "C6EC5579-430B-637C-5393-82B94C8F5C65";
	setAttr ".g" yes;
createNode polyCube -n "polyCube1";
	rename -uid "21F9161B-4051-318D-ACA7-389B466E5E9B";
	setAttr ".cuv" 4;
createNode polyExtrudeVertex -n "polyChamfer1";
	rename -uid "5C9787FB-4546-E959-CAC9-30AC7B9EE6B9";
	setAttr ".ics" -type "componentList" 1 "vtx[3]";
	setAttr ".ix" -type "matrix" 1 0 0 0 0 1 0 0 0 0 1.7754920057353665 0 0 0 0 1;
	setAttr -l on ".l";
	setAttr ".w" 0.25;
	setAttr -l on ".d";
createNode deleteComponent -n "deleteComponent1";
	rename -uid "D01534A0-4800-D68D-A109-A3B969933FE3";
	setAttr ".dc" -type "componentList" 2 "e[7]" "e[12:13]";
createNode polyExtrudeVertex -n "polyChamfer2";
	rename -uid "1EB2D832-403F-6C4D-0F49-2C8F72D69EA7";
	setAttr ".ics" -type "componentList" 3 "vtx[2]" "vtx[4]" "vtx[6]";
	setAttr ".ix" -type "matrix" 1 0 0 0 0 1 0 0 0 0 1.7754920057353665 0 0 0 0 1;
	setAttr -l on ".l";
	setAttr ".w" 0.10000000149011612;
	setAttr -l on ".d";
createNode deleteComponent -n "deleteComponent2";
	rename -uid "E5ABBB6D-452A-65AF-A763-4E9A27140279";
	setAttr ".dc" -type "componentList" 7 "e[1]" "e[6]" "e[8]" "e[10]" "e[16:18]" "e[21]" "e[23]";
createNode polySoftEdge -n "polySoftEdge1";
	rename -uid "A636E4BE-427D-EFD0-7B8B-63A7B4CEE5A7";
	setAttr ".uopa" yes;
	setAttr ".ics" -type "componentList" 1 "e[*]";
	setAttr ".ix" -type "matrix" 1 0 0 0 0 1 0 0 0 0 1.7754920057353665 0 0 0 0 1;
	setAttr ".a" 0;
createNode polyExtrudeVertex -n "polyChamfer3";
	rename -uid "456CFC46-4252-E5A4-43DA-538A68134AB0";
	setAttr ".ics" -type "componentList" 1 "vtx[0:3]";
	setAttr ".ix" -type "matrix" 1 0 0 0 0 1 0 0 0 0 1.7754920057353665 0 0 0 0 1;
	setAttr -l on ".l";
	setAttr ".w" 0.15000000596046448;
	setAttr -l on ".d";
createNode deleteComponent -n "deleteComponent3";
	rename -uid "84805ABD-4F78-9F41-5587-ACB10CFCEAB3";
	setAttr ".dc" -type "componentList" 4 "e[0:6]" "e[25]" "e[31]" "e[33:35]";
createNode polySoftEdge -n "polySoftEdge2";
	rename -uid "BFB695D1-42AB-1330-2EE8-FC82C6A1AF7E";
	setAttr ".uopa" yes;
	setAttr ".ics" -type "componentList" 1 "e[*]";
	setAttr ".ix" -type "matrix" 1 0 0 0 0 1 0 0 0 0 1.7754920057353665 0 0 0 0 1;
	setAttr ".a" 0;
createNode polyBevel3 -n "polyBevel1";
	rename -uid "694C424D-43B9-69F7-7725-138FD1FC4330";
	setAttr ".uopa" yes;
	setAttr ".ics" -type "componentList" 3 "e[0]" "e[4]" "e[7]";
	setAttr ".ix" -type "matrix" 1 0 0 0 0 1 0 0 0 0 1.7754920057353665 0 0 0 0 1;
	setAttr ".ws" yes;
	setAttr ".oaf" yes;
	setAttr ".at" 180;
	setAttr ".sn" yes;
	setAttr ".mv" yes;
	setAttr ".mvt" 0.0001;
	setAttr ".sa" 30;
createNode polyBevel3 -n "polyBevel2";
	rename -uid "B2DC94B3-4123-831C-5EE5-E1A87C2CFF5D";
	setAttr ".uopa" yes;
	setAttr ".ics" -type "componentList" 3 "e[1:2]" "e[9:11]" "e[13]";
	setAttr ".ix" -type "matrix" 1 0 0 0 0 1 0 0 0 0 1.7754920057353665 0 0 0 0 1;
	setAttr ".ws" yes;
	setAttr ".oaf" yes;
	setAttr ".at" 180;
	setAttr ".sn" yes;
	setAttr ".mv" yes;
	setAttr ".mvt" 0.0001;
	setAttr ".sa" 30;
createNode polyBevel3 -n "polyBevel3";
	rename -uid "77C2B19B-479C-DA29-632E-84AFBB0B6C4B";
	setAttr ".uopa" yes;
	setAttr ".ics" -type "componentList" 1 "e[3]";
	setAttr ".ix" -type "matrix" 1 0 0 0 0 1 0 0 0 0 1.7754920057353665 0 0 0 0 1;
	setAttr ".ws" yes;
	setAttr ".oaf" yes;
	setAttr ".f" 0.7;
	setAttr ".at" 180;
	setAttr ".sn" yes;
	setAttr ".mv" yes;
	setAttr ".mvt" 0.0001;
	setAttr ".sa" 30;
createNode polySoftEdge -n "polySoftEdge3";
	rename -uid "C94BA874-4977-F80C-0C22-3B862F2081EE";
	setAttr ".uopa" yes;
	setAttr ".ics" -type "componentList" 1 "e[*]";
	setAttr ".ix" -type "matrix" 1 0 0 0 0 1 0 0 0 0 1.7754920057353665 0 0 0 0 1;
	setAttr ".a" 0;
createNode polySplit -n "polySplit1";
	rename -uid "22BBF2C0-431C-FB2E-582F-C6966E0ECCFA";
	setAttr -s 2 ".e[0:1]"  1 0;
	setAttr -s 2 ".d[0:1]"  -2147483642 -2147483603;
	setAttr ".sma" 180;
	setAttr ".m2015" yes;
createNode polySplit -n "polySplit2";
	rename -uid "128AC980-4771-03DC-D473-FC82D5339950";
	setAttr -s 2 ".e[0:1]"  1 1;
	setAttr -s 2 ".d[0:1]"  -2147483631 -2147483601;
	setAttr ".sma" 180;
	setAttr ".m2015" yes;
createNode polySplit -n "polySplit3";
	rename -uid "8873ED5E-4B4B-BD72-390F-ED9786D10955";
	setAttr -s 2 ".e[0:1]"  0 1;
	setAttr -s 2 ".d[0:1]"  -2147483615 -2147483645;
	setAttr ".sma" 180;
	setAttr ".m2015" yes;
createNode polySplit -n "polySplit4";
	rename -uid "273E1B4C-4A72-2910-7E86-7E977C0C7E8B";
	setAttr -s 2 ".e[0:1]"  1 0;
	setAttr -s 2 ".d[0:1]"  -2147483648 -2147483623;
	setAttr ".sma" 180;
	setAttr ".m2015" yes;
createNode polySplit -n "polySplit5";
	rename -uid "F0D73A17-4569-C252-AB1C-E8BA6E641A9F";
	setAttr -s 2 ".e[0:1]"  1 1;
	setAttr -s 2 ".d[0:1]"  -2147483621 -2147483609;
	setAttr ".sma" 180;
	setAttr ".m2015" yes;
createNode polySplit -n "polySplit6";
	rename -uid "B9D47098-4207-A2FB-C110-C882C12393C7";
	setAttr -s 2 ".e[0:1]"  1 0;
	setAttr -s 2 ".d[0:1]"  -2147483605 -2147483587;
	setAttr ".sma" 180;
	setAttr ".m2015" yes;
createNode polySplit -n "polySplit7";
	rename -uid "34E0F748-4193-00C4-327B-C9A28156BEEB";
	setAttr -s 2 ".e[0:1]"  1 0;
	setAttr -s 2 ".d[0:1]"  -2147483634 -2147483617;
	setAttr ".sma" 180;
	setAttr ".m2015" yes;
createNode polySplit -n "polySplit8";
	rename -uid "1E444AA5-4A7B-A0B0-50E4-43858AC8DCC0";
	setAttr -s 2 ".e[0:1]"  1 1;
	setAttr -s 2 ".d[0:1]"  -2147483640 -2147483611;
	setAttr ".sma" 180;
	setAttr ".m2015" yes;
createNode script -n "uiConfigurationScriptNode";
	rename -uid "ED203228-4DCD-1BFF-A6BA-418BD6035210";
	setAttr ".b" -type "string" (
		"// Maya Mel UI Configuration File.\n//\n//  This script is machine generated.  Edit at your own risk.\n//\n//\n\nglobal string $gMainPane;\nif (`paneLayout -exists $gMainPane`) {\n\n\tglobal int $gUseScenePanelConfig;\n\tint    $useSceneConfig = $gUseScenePanelConfig;\n\tint    $menusOkayInPanels = `optionVar -q allowMenusInPanels`;\tint    $nVisPanes = `paneLayout -q -nvp $gMainPane`;\n\tint    $nPanes = 0;\n\tstring $editorName;\n\tstring $panelName;\n\tstring $itemFilterName;\n\tstring $panelConfig;\n\n\t//\n\t//  get current state of the UI\n\t//\n\tsceneUIReplacement -update $gMainPane;\n\n\t$panelName = `sceneUIReplacement -getNextPanel \"modelPanel\" (localizedPanelLabel(\"Top View\")) `;\n\tif (\"\" != $panelName) {\n\t\t$label = `panel -q -label $panelName`;\n\t\tmodelPanel -edit -l (localizedPanelLabel(\"Top View\")) -mbv $menusOkayInPanels  $panelName;\n\t\t$editorName = $panelName;\n        modelEditor -e \n            -camera \"top\" \n            -useInteractiveMode 0\n            -displayLights \"default\" \n            -displayAppearance \"smoothShaded\" \n            -activeOnly 0\n"
		+ "            -ignorePanZoom 0\n            -wireframeOnShaded 0\n            -headsUpDisplay 1\n            -holdOuts 1\n            -selectionHiliteDisplay 1\n            -useDefaultMaterial 0\n            -bufferMode \"double\" \n            -twoSidedLighting 0\n            -backfaceCulling 0\n            -xray 0\n            -jointXray 0\n            -activeComponentsXray 0\n            -displayTextures 0\n            -smoothWireframe 0\n            -lineWidth 1\n            -textureAnisotropic 0\n            -textureHilight 1\n            -textureSampling 2\n            -textureDisplay \"modulate\" \n            -textureMaxSize 16384\n            -fogging 0\n            -fogSource \"fragment\" \n            -fogMode \"linear\" \n            -fogStart 0\n            -fogEnd 100\n            -fogDensity 0.1\n            -fogColor 0.5 0.5 0.5 1 \n            -depthOfFieldPreview 1\n            -maxConstantTransparency 1\n            -rendererName \"vp2Renderer\" \n            -objectFilterShowInHUD 1\n            -isFiltered 0\n            -colorResolution 256 256 \n"
		+ "            -bumpResolution 512 512 \n            -textureCompression 0\n            -transparencyAlgorithm \"frontAndBackCull\" \n            -transpInShadows 0\n            -cullingOverride \"none\" \n            -lowQualityLighting 0\n            -maximumNumHardwareLights 1\n            -occlusionCulling 0\n            -shadingModel 0\n            -useBaseRenderer 0\n            -useReducedRenderer 0\n            -smallObjectCulling 0\n            -smallObjectThreshold -1 \n            -interactiveDisableShadows 0\n            -interactiveBackFaceCull 0\n            -sortTransparent 1\n            -nurbsCurves 1\n            -nurbsSurfaces 1\n            -polymeshes 1\n            -subdivSurfaces 1\n            -planes 1\n            -lights 1\n            -cameras 1\n            -controlVertices 1\n            -hulls 1\n            -grid 1\n            -imagePlane 1\n            -joints 1\n            -ikHandles 1\n            -deformers 1\n            -dynamics 1\n            -particleInstancers 1\n            -fluids 1\n            -hairSystems 1\n"
		+ "            -follicles 1\n            -nCloths 1\n            -nParticles 1\n            -nRigids 1\n            -dynamicConstraints 1\n            -locators 1\n            -manipulators 1\n            -pluginShapes 1\n            -dimensions 1\n            -handles 1\n            -pivots 1\n            -textures 1\n            -strokes 1\n            -motionTrails 1\n            -clipGhosts 1\n            -greasePencils 1\n            -shadows 0\n            -captureSequenceNumber -1\n            -width 1\n            -height 1\n            -sceneRenderFilter 0\n            $editorName;\n        modelEditor -e -viewSelected 0 $editorName;\n\t\tif (!$useSceneConfig) {\n\t\t\tpanel -e -l $label $panelName;\n\t\t}\n\t}\n\n\n\t$panelName = `sceneUIReplacement -getNextPanel \"modelPanel\" (localizedPanelLabel(\"Side View\")) `;\n\tif (\"\" != $panelName) {\n\t\t$label = `panel -q -label $panelName`;\n\t\tmodelPanel -edit -l (localizedPanelLabel(\"Side View\")) -mbv $menusOkayInPanels  $panelName;\n\t\t$editorName = $panelName;\n        modelEditor -e \n            -camera \"side\" \n"
		+ "            -useInteractiveMode 0\n            -displayLights \"default\" \n            -displayAppearance \"smoothShaded\" \n            -activeOnly 0\n            -ignorePanZoom 0\n            -wireframeOnShaded 0\n            -headsUpDisplay 1\n            -holdOuts 1\n            -selectionHiliteDisplay 1\n            -useDefaultMaterial 0\n            -bufferMode \"double\" \n            -twoSidedLighting 0\n            -backfaceCulling 0\n            -xray 0\n            -jointXray 0\n            -activeComponentsXray 0\n            -displayTextures 0\n            -smoothWireframe 0\n            -lineWidth 1\n            -textureAnisotropic 0\n            -textureHilight 1\n            -textureSampling 2\n            -textureDisplay \"modulate\" \n            -textureMaxSize 16384\n            -fogging 0\n            -fogSource \"fragment\" \n            -fogMode \"linear\" \n            -fogStart 0\n            -fogEnd 100\n            -fogDensity 0.1\n            -fogColor 0.5 0.5 0.5 1 \n            -depthOfFieldPreview 1\n            -maxConstantTransparency 1\n"
		+ "            -rendererName \"vp2Renderer\" \n            -objectFilterShowInHUD 1\n            -isFiltered 0\n            -colorResolution 256 256 \n            -bumpResolution 512 512 \n            -textureCompression 0\n            -transparencyAlgorithm \"frontAndBackCull\" \n            -transpInShadows 0\n            -cullingOverride \"none\" \n            -lowQualityLighting 0\n            -maximumNumHardwareLights 1\n            -occlusionCulling 0\n            -shadingModel 0\n            -useBaseRenderer 0\n            -useReducedRenderer 0\n            -smallObjectCulling 0\n            -smallObjectThreshold -1 \n            -interactiveDisableShadows 0\n            -interactiveBackFaceCull 0\n            -sortTransparent 1\n            -nurbsCurves 1\n            -nurbsSurfaces 1\n            -polymeshes 1\n            -subdivSurfaces 1\n            -planes 1\n            -lights 1\n            -cameras 1\n            -controlVertices 1\n            -hulls 1\n            -grid 1\n            -imagePlane 1\n            -joints 1\n            -ikHandles 1\n"
		+ "            -deformers 1\n            -dynamics 1\n            -particleInstancers 1\n            -fluids 1\n            -hairSystems 1\n            -follicles 1\n            -nCloths 1\n            -nParticles 1\n            -nRigids 1\n            -dynamicConstraints 1\n            -locators 1\n            -manipulators 1\n            -pluginShapes 1\n            -dimensions 1\n            -handles 1\n            -pivots 1\n            -textures 1\n            -strokes 1\n            -motionTrails 1\n            -clipGhosts 1\n            -greasePencils 1\n            -shadows 0\n            -captureSequenceNumber -1\n            -width 1\n            -height 1\n            -sceneRenderFilter 0\n            $editorName;\n        modelEditor -e -viewSelected 0 $editorName;\n\t\tif (!$useSceneConfig) {\n\t\t\tpanel -e -l $label $panelName;\n\t\t}\n\t}\n\n\n\t$panelName = `sceneUIReplacement -getNextPanel \"modelPanel\" (localizedPanelLabel(\"Front View\")) `;\n\tif (\"\" != $panelName) {\n\t\t$label = `panel -q -label $panelName`;\n\t\tmodelPanel -edit -l (localizedPanelLabel(\"Front View\")) -mbv $menusOkayInPanels  $panelName;\n"
		+ "\t\t$editorName = $panelName;\n        modelEditor -e \n            -camera \"front\" \n            -useInteractiveMode 0\n            -displayLights \"default\" \n            -displayAppearance \"smoothShaded\" \n            -activeOnly 0\n            -ignorePanZoom 0\n            -wireframeOnShaded 0\n            -headsUpDisplay 1\n            -holdOuts 1\n            -selectionHiliteDisplay 1\n            -useDefaultMaterial 0\n            -bufferMode \"double\" \n            -twoSidedLighting 0\n            -backfaceCulling 0\n            -xray 0\n            -jointXray 0\n            -activeComponentsXray 0\n            -displayTextures 0\n            -smoothWireframe 0\n            -lineWidth 1\n            -textureAnisotropic 0\n            -textureHilight 1\n            -textureSampling 2\n            -textureDisplay \"modulate\" \n            -textureMaxSize 16384\n            -fogging 0\n            -fogSource \"fragment\" \n            -fogMode \"linear\" \n            -fogStart 0\n            -fogEnd 100\n            -fogDensity 0.1\n            -fogColor 0.5 0.5 0.5 1 \n"
		+ "            -depthOfFieldPreview 1\n            -maxConstantTransparency 1\n            -rendererName \"vp2Renderer\" \n            -objectFilterShowInHUD 1\n            -isFiltered 0\n            -colorResolution 256 256 \n            -bumpResolution 512 512 \n            -textureCompression 0\n            -transparencyAlgorithm \"frontAndBackCull\" \n            -transpInShadows 0\n            -cullingOverride \"none\" \n            -lowQualityLighting 0\n            -maximumNumHardwareLights 1\n            -occlusionCulling 0\n            -shadingModel 0\n            -useBaseRenderer 0\n            -useReducedRenderer 0\n            -smallObjectCulling 0\n            -smallObjectThreshold -1 \n            -interactiveDisableShadows 0\n            -interactiveBackFaceCull 0\n            -sortTransparent 1\n            -nurbsCurves 1\n            -nurbsSurfaces 1\n            -polymeshes 1\n            -subdivSurfaces 1\n            -planes 1\n            -lights 1\n            -cameras 1\n            -controlVertices 1\n            -hulls 1\n            -grid 1\n"
		+ "            -imagePlane 1\n            -joints 1\n            -ikHandles 1\n            -deformers 1\n            -dynamics 1\n            -particleInstancers 1\n            -fluids 1\n            -hairSystems 1\n            -follicles 1\n            -nCloths 1\n            -nParticles 1\n            -nRigids 1\n            -dynamicConstraints 1\n            -locators 1\n            -manipulators 1\n            -pluginShapes 1\n            -dimensions 1\n            -handles 1\n            -pivots 1\n            -textures 1\n            -strokes 1\n            -motionTrails 1\n            -clipGhosts 1\n            -greasePencils 1\n            -shadows 0\n            -captureSequenceNumber -1\n            -width 1\n            -height 1\n            -sceneRenderFilter 0\n            $editorName;\n        modelEditor -e -viewSelected 0 $editorName;\n\t\tif (!$useSceneConfig) {\n\t\t\tpanel -e -l $label $panelName;\n\t\t}\n\t}\n\n\n\t$panelName = `sceneUIReplacement -getNextPanel \"modelPanel\" (localizedPanelLabel(\"Persp View\")) `;\n\tif (\"\" != $panelName) {\n"
		+ "\t\t$label = `panel -q -label $panelName`;\n\t\tmodelPanel -edit -l (localizedPanelLabel(\"Persp View\")) -mbv $menusOkayInPanels  $panelName;\n\t\t$editorName = $panelName;\n        modelEditor -e \n            -camera \"persp\" \n            -useInteractiveMode 0\n            -displayLights \"default\" \n            -displayAppearance \"smoothShaded\" \n            -activeOnly 0\n            -ignorePanZoom 0\n            -wireframeOnShaded 0\n            -headsUpDisplay 1\n            -holdOuts 1\n            -selectionHiliteDisplay 1\n            -useDefaultMaterial 0\n            -bufferMode \"double\" \n            -twoSidedLighting 0\n            -backfaceCulling 0\n            -xray 0\n            -jointXray 0\n            -activeComponentsXray 0\n            -displayTextures 0\n            -smoothWireframe 0\n            -lineWidth 1\n            -textureAnisotropic 0\n            -textureHilight 1\n            -textureSampling 2\n            -textureDisplay \"modulate\" \n            -textureMaxSize 16384\n            -fogging 0\n            -fogSource \"fragment\" \n"
		+ "            -fogMode \"linear\" \n            -fogStart 0\n            -fogEnd 100\n            -fogDensity 0.1\n            -fogColor 0.5 0.5 0.5 1 \n            -depthOfFieldPreview 1\n            -maxConstantTransparency 1\n            -rendererName \"vp2Renderer\" \n            -objectFilterShowInHUD 1\n            -isFiltered 0\n            -colorResolution 256 256 \n            -bumpResolution 512 512 \n            -textureCompression 0\n            -transparencyAlgorithm \"frontAndBackCull\" \n            -transpInShadows 0\n            -cullingOverride \"none\" \n            -lowQualityLighting 0\n            -maximumNumHardwareLights 1\n            -occlusionCulling 0\n            -shadingModel 0\n            -useBaseRenderer 0\n            -useReducedRenderer 0\n            -smallObjectCulling 0\n            -smallObjectThreshold -1 \n            -interactiveDisableShadows 0\n            -interactiveBackFaceCull 0\n            -sortTransparent 1\n            -nurbsCurves 1\n            -nurbsSurfaces 1\n            -polymeshes 1\n            -subdivSurfaces 1\n"
		+ "            -planes 1\n            -lights 1\n            -cameras 1\n            -controlVertices 1\n            -hulls 1\n            -grid 1\n            -imagePlane 1\n            -joints 1\n            -ikHandles 1\n            -deformers 1\n            -dynamics 1\n            -particleInstancers 1\n            -fluids 1\n            -hairSystems 1\n            -follicles 1\n            -nCloths 1\n            -nParticles 1\n            -nRigids 1\n            -dynamicConstraints 1\n            -locators 1\n            -manipulators 1\n            -pluginShapes 1\n            -dimensions 1\n            -handles 1\n            -pivots 1\n            -textures 1\n            -strokes 1\n            -motionTrails 1\n            -clipGhosts 1\n            -greasePencils 1\n            -shadows 0\n            -captureSequenceNumber -1\n            -width 1337\n            -height 708\n            -sceneRenderFilter 0\n            $editorName;\n        modelEditor -e -viewSelected 0 $editorName;\n\t\tif (!$useSceneConfig) {\n\t\t\tpanel -e -l $label $panelName;\n"
		+ "\t\t}\n\t}\n\n\n\t$panelName = `sceneUIReplacement -getNextPanel \"outlinerPanel\" (localizedPanelLabel(\"ToggledOutliner\")) `;\n\tif (\"\" != $panelName) {\n\t\t$label = `panel -q -label $panelName`;\n\t\toutlinerPanel -edit -l (localizedPanelLabel(\"ToggledOutliner\")) -mbv $menusOkayInPanels  $panelName;\n\t\t$editorName = $panelName;\n        outlinerEditor -e \n            -showShapes 0\n            -showAssignedMaterials 0\n            -showTimeEditor 1\n            -showReferenceNodes 0\n            -showReferenceMembers 0\n            -showAttributes 0\n            -showConnected 0\n            -showAnimCurvesOnly 0\n            -showMuteInfo 0\n            -organizeByLayer 1\n            -showAnimLayerWeight 1\n            -autoExpandLayers 1\n            -autoExpand 0\n            -showDagOnly 1\n            -showAssets 1\n            -showContainedOnly 1\n            -showPublishedAsConnected 0\n            -showContainerContents 1\n            -ignoreDagHierarchy 0\n            -expandConnections 0\n            -showUpstreamCurves 1\n            -showUnitlessCurves 1\n"
		+ "            -showCompounds 1\n            -showLeafs 1\n            -showNumericAttrsOnly 0\n            -highlightActive 1\n            -autoSelectNewObjects 0\n            -doNotSelectNewObjects 0\n            -dropIsParent 1\n            -transmitFilters 0\n            -setFilter \"defaultSetFilter\" \n            -showSetMembers 1\n            -allowMultiSelection 1\n            -alwaysToggleSelect 0\n            -directSelect 0\n            -isSet 0\n            -isSetMember 0\n            -displayMode \"DAG\" \n            -expandObjects 0\n            -setsIgnoreFilters 1\n            -containersIgnoreFilters 0\n            -editAttrName 0\n            -showAttrValues 0\n            -highlightSecondary 0\n            -showUVAttrsOnly 0\n            -showTextureNodesOnly 0\n            -attrAlphaOrder \"default\" \n            -animLayerFilterOptions \"allAffecting\" \n            -sortOrder \"none\" \n            -longNames 0\n            -niceNames 1\n            -showNamespace 1\n            -showPinIcons 0\n            -mapMotionTrails 0\n            -ignoreHiddenAttribute 0\n"
		+ "            -ignoreOutlinerColor 0\n            -renderFilterVisible 0\n            -renderFilterIndex 0\n            -selectionOrder \"chronological\" \n            -expandAttribute 0\n            $editorName;\n\t\tif (!$useSceneConfig) {\n\t\t\tpanel -e -l $label $panelName;\n\t\t}\n\t}\n\n\n\t$panelName = `sceneUIReplacement -getNextPanel \"outlinerPanel\" (localizedPanelLabel(\"Outliner\")) `;\n\tif (\"\" != $panelName) {\n\t\t$label = `panel -q -label $panelName`;\n\t\toutlinerPanel -edit -l (localizedPanelLabel(\"Outliner\")) -mbv $menusOkayInPanels  $panelName;\n\t\t$editorName = $panelName;\n        outlinerEditor -e \n            -showShapes 0\n            -showAssignedMaterials 0\n            -showTimeEditor 1\n            -showReferenceNodes 0\n            -showReferenceMembers 0\n            -showAttributes 0\n            -showConnected 0\n            -showAnimCurvesOnly 0\n            -showMuteInfo 0\n            -organizeByLayer 1\n            -showAnimLayerWeight 1\n            -autoExpandLayers 1\n            -autoExpand 0\n            -showDagOnly 1\n"
		+ "            -showAssets 1\n            -showContainedOnly 1\n            -showPublishedAsConnected 0\n            -showContainerContents 1\n            -ignoreDagHierarchy 0\n            -expandConnections 0\n            -showUpstreamCurves 1\n            -showUnitlessCurves 1\n            -showCompounds 1\n            -showLeafs 1\n            -showNumericAttrsOnly 0\n            -highlightActive 1\n            -autoSelectNewObjects 0\n            -doNotSelectNewObjects 0\n            -dropIsParent 1\n            -transmitFilters 0\n            -setFilter \"defaultSetFilter\" \n            -showSetMembers 1\n            -allowMultiSelection 1\n            -alwaysToggleSelect 0\n            -directSelect 0\n            -displayMode \"DAG\" \n            -expandObjects 0\n            -setsIgnoreFilters 1\n            -containersIgnoreFilters 0\n            -editAttrName 0\n            -showAttrValues 0\n            -highlightSecondary 0\n            -showUVAttrsOnly 0\n            -showTextureNodesOnly 0\n            -attrAlphaOrder \"default\" \n"
		+ "            -animLayerFilterOptions \"allAffecting\" \n            -sortOrder \"none\" \n            -longNames 0\n            -niceNames 1\n            -showNamespace 1\n            -showPinIcons 0\n            -mapMotionTrails 0\n            -ignoreHiddenAttribute 0\n            -ignoreOutlinerColor 0\n            -renderFilterVisible 0\n            $editorName;\n\t\tif (!$useSceneConfig) {\n\t\t\tpanel -e -l $label $panelName;\n\t\t}\n\t}\n\n\n\t$panelName = `sceneUIReplacement -getNextScriptedPanel \"graphEditor\" (localizedPanelLabel(\"Graph Editor\")) `;\n\tif (\"\" != $panelName) {\n\t\t$label = `panel -q -label $panelName`;\n\t\tscriptedPanel -edit -l (localizedPanelLabel(\"Graph Editor\")) -mbv $menusOkayInPanels  $panelName;\n\n\t\t\t$editorName = ($panelName+\"OutlineEd\");\n            outlinerEditor -e \n                -showShapes 1\n                -showAssignedMaterials 0\n                -showTimeEditor 1\n                -showReferenceNodes 0\n                -showReferenceMembers 0\n                -showAttributes 1\n                -showConnected 1\n                -showAnimCurvesOnly 1\n"
		+ "                -showMuteInfo 0\n                -organizeByLayer 1\n                -showAnimLayerWeight 1\n                -autoExpandLayers 1\n                -autoExpand 1\n                -showDagOnly 0\n                -showAssets 1\n                -showContainedOnly 0\n                -showPublishedAsConnected 0\n                -showContainerContents 0\n                -ignoreDagHierarchy 0\n                -expandConnections 1\n                -showUpstreamCurves 1\n                -showUnitlessCurves 1\n                -showCompounds 0\n                -showLeafs 1\n                -showNumericAttrsOnly 1\n                -highlightActive 0\n                -autoSelectNewObjects 1\n                -doNotSelectNewObjects 0\n                -dropIsParent 1\n                -transmitFilters 1\n                -setFilter \"0\" \n                -showSetMembers 0\n                -allowMultiSelection 1\n                -alwaysToggleSelect 0\n                -directSelect 0\n                -displayMode \"DAG\" \n                -expandObjects 0\n"
		+ "                -setsIgnoreFilters 1\n                -containersIgnoreFilters 0\n                -editAttrName 0\n                -showAttrValues 0\n                -highlightSecondary 0\n                -showUVAttrsOnly 0\n                -showTextureNodesOnly 0\n                -attrAlphaOrder \"default\" \n                -animLayerFilterOptions \"allAffecting\" \n                -sortOrder \"none\" \n                -longNames 0\n                -niceNames 1\n                -showNamespace 1\n                -showPinIcons 1\n                -mapMotionTrails 1\n                -ignoreHiddenAttribute 0\n                -ignoreOutlinerColor 0\n                -renderFilterVisible 0\n                $editorName;\n\n\t\t\t$editorName = ($panelName+\"GraphEd\");\n            animCurveEditor -e \n                -displayKeys 1\n                -displayTangents 0\n                -displayActiveKeys 0\n                -displayActiveKeyTangents 1\n                -displayInfinities 0\n                -displayValues 0\n                -autoFit 1\n                -snapTime \"integer\" \n"
		+ "                -snapValue \"none\" \n                -showResults \"off\" \n                -showBufferCurves \"off\" \n                -smoothness \"fine\" \n                -resultSamples 1\n                -resultScreenSamples 0\n                -resultUpdate \"delayed\" \n                -showUpstreamCurves 1\n                -showCurveNames 0\n                -showActiveCurveNames 0\n                -stackedCurves 0\n                -stackedCurvesMin -1\n                -stackedCurvesMax 1\n                -stackedCurvesSpace 0.2\n                -displayNormalized 0\n                -preSelectionHighlight 0\n                -constrainDrag 0\n                -classicMode 1\n                -valueLinesToggle 0\n                $editorName;\n\t\tif (!$useSceneConfig) {\n\t\t\tpanel -e -l $label $panelName;\n\t\t}\n\t}\n\n\n\t$panelName = `sceneUIReplacement -getNextScriptedPanel \"dopeSheetPanel\" (localizedPanelLabel(\"Dope Sheet\")) `;\n\tif (\"\" != $panelName) {\n\t\t$label = `panel -q -label $panelName`;\n\t\tscriptedPanel -edit -l (localizedPanelLabel(\"Dope Sheet\")) -mbv $menusOkayInPanels  $panelName;\n"
		+ "\n\t\t\t$editorName = ($panelName+\"OutlineEd\");\n            outlinerEditor -e \n                -showShapes 1\n                -showAssignedMaterials 0\n                -showTimeEditor 1\n                -showReferenceNodes 0\n                -showReferenceMembers 0\n                -showAttributes 1\n                -showConnected 1\n                -showAnimCurvesOnly 1\n                -showMuteInfo 0\n                -organizeByLayer 1\n                -showAnimLayerWeight 1\n                -autoExpandLayers 1\n                -autoExpand 0\n                -showDagOnly 0\n                -showAssets 1\n                -showContainedOnly 0\n                -showPublishedAsConnected 0\n                -showContainerContents 0\n                -ignoreDagHierarchy 0\n                -expandConnections 1\n                -showUpstreamCurves 1\n                -showUnitlessCurves 0\n                -showCompounds 1\n                -showLeafs 1\n                -showNumericAttrsOnly 1\n                -highlightActive 0\n                -autoSelectNewObjects 0\n"
		+ "                -doNotSelectNewObjects 1\n                -dropIsParent 1\n                -transmitFilters 0\n                -setFilter \"0\" \n                -showSetMembers 0\n                -allowMultiSelection 1\n                -alwaysToggleSelect 0\n                -directSelect 0\n                -displayMode \"DAG\" \n                -expandObjects 0\n                -setsIgnoreFilters 1\n                -containersIgnoreFilters 0\n                -editAttrName 0\n                -showAttrValues 0\n                -highlightSecondary 0\n                -showUVAttrsOnly 0\n                -showTextureNodesOnly 0\n                -attrAlphaOrder \"default\" \n                -animLayerFilterOptions \"allAffecting\" \n                -sortOrder \"none\" \n                -longNames 0\n                -niceNames 1\n                -showNamespace 1\n                -showPinIcons 0\n                -mapMotionTrails 1\n                -ignoreHiddenAttribute 0\n                -ignoreOutlinerColor 0\n                -renderFilterVisible 0\n                $editorName;\n"
		+ "\n\t\t\t$editorName = ($panelName+\"DopeSheetEd\");\n            dopeSheetEditor -e \n                -displayKeys 1\n                -displayTangents 0\n                -displayActiveKeys 0\n                -displayActiveKeyTangents 0\n                -displayInfinities 0\n                -displayValues 0\n                -autoFit 0\n                -snapTime \"integer\" \n                -snapValue \"none\" \n                -outliner \"dopeSheetPanel1OutlineEd\" \n                -showSummary 1\n                -showScene 0\n                -hierarchyBelow 0\n                -showTicks 1\n                -selectionWindow 0 0 0 0 \n                $editorName;\n\t\tif (!$useSceneConfig) {\n\t\t\tpanel -e -l $label $panelName;\n\t\t}\n\t}\n\n\n\t$panelName = `sceneUIReplacement -getNextScriptedPanel \"timeEditorPanel\" (localizedPanelLabel(\"Time Editor\")) `;\n\tif (\"\" != $panelName) {\n\t\t$label = `panel -q -label $panelName`;\n\t\tscriptedPanel -edit -l (localizedPanelLabel(\"Time Editor\")) -mbv $menusOkayInPanels  $panelName;\n\t\tif (!$useSceneConfig) {\n\t\t\tpanel -e -l $label $panelName;\n"
		+ "\t\t}\n\t}\n\n\n\t$panelName = `sceneUIReplacement -getNextScriptedPanel \"clipEditorPanel\" (localizedPanelLabel(\"Trax Editor\")) `;\n\tif (\"\" != $panelName) {\n\t\t$label = `panel -q -label $panelName`;\n\t\tscriptedPanel -edit -l (localizedPanelLabel(\"Trax Editor\")) -mbv $menusOkayInPanels  $panelName;\n\n\t\t\t$editorName = clipEditorNameFromPanel($panelName);\n            clipEditor -e \n                -displayKeys 0\n                -displayTangents 0\n                -displayActiveKeys 0\n                -displayActiveKeyTangents 0\n                -displayInfinities 0\n                -displayValues 0\n                -autoFit 0\n                -snapTime \"none\" \n                -snapValue \"none\" \n                -initialized 0\n                -manageSequencer 0 \n                $editorName;\n\t\tif (!$useSceneConfig) {\n\t\t\tpanel -e -l $label $panelName;\n\t\t}\n\t}\n\n\n\t$panelName = `sceneUIReplacement -getNextScriptedPanel \"sequenceEditorPanel\" (localizedPanelLabel(\"Camera Sequencer\")) `;\n\tif (\"\" != $panelName) {\n\t\t$label = `panel -q -label $panelName`;\n"
		+ "\t\tscriptedPanel -edit -l (localizedPanelLabel(\"Camera Sequencer\")) -mbv $menusOkayInPanels  $panelName;\n\n\t\t\t$editorName = sequenceEditorNameFromPanel($panelName);\n            clipEditor -e \n                -displayKeys 0\n                -displayTangents 0\n                -displayActiveKeys 0\n                -displayActiveKeyTangents 0\n                -displayInfinities 0\n                -displayValues 0\n                -autoFit 0\n                -snapTime \"none\" \n                -snapValue \"none\" \n                -initialized 0\n                -manageSequencer 1 \n                $editorName;\n\t\tif (!$useSceneConfig) {\n\t\t\tpanel -e -l $label $panelName;\n\t\t}\n\t}\n\n\n\t$panelName = `sceneUIReplacement -getNextScriptedPanel \"hyperGraphPanel\" (localizedPanelLabel(\"Hypergraph Hierarchy\")) `;\n\tif (\"\" != $panelName) {\n\t\t$label = `panel -q -label $panelName`;\n\t\tscriptedPanel -edit -l (localizedPanelLabel(\"Hypergraph Hierarchy\")) -mbv $menusOkayInPanels  $panelName;\n\n\t\t\t$editorName = ($panelName+\"HyperGraphEd\");\n            hyperGraph -e \n"
		+ "                -graphLayoutStyle \"hierarchicalLayout\" \n                -orientation \"horiz\" \n                -mergeConnections 0\n                -zoom 1\n                -animateTransition 0\n                -showRelationships 1\n                -showShapes 0\n                -showDeformers 0\n                -showExpressions 0\n                -showConstraints 0\n                -showConnectionFromSelected 0\n                -showConnectionToSelected 0\n                -showConstraintLabels 0\n                -showUnderworld 0\n                -showInvisible 0\n                -transitionFrames 1\n                -opaqueContainers 0\n                -freeform 0\n                -imagePosition 0 0 \n                -imageScale 1\n                -imageEnabled 0\n                -graphType \"DAG\" \n                -heatMapDisplay 0\n                -updateSelection 1\n                -updateNodeAdded 1\n                -useDrawOverrideColor 0\n                -limitGraphTraversal -1\n                -range 0 0 \n                -iconSize \"smallIcons\" \n"
		+ "                -showCachedConnections 0\n                $editorName;\n\t\tif (!$useSceneConfig) {\n\t\t\tpanel -e -l $label $panelName;\n\t\t}\n\t}\n\n\n\t$panelName = `sceneUIReplacement -getNextScriptedPanel \"hyperShadePanel\" (localizedPanelLabel(\"Hypershade\")) `;\n\tif (\"\" != $panelName) {\n\t\t$label = `panel -q -label $panelName`;\n\t\tscriptedPanel -edit -l (localizedPanelLabel(\"Hypershade\")) -mbv $menusOkayInPanels  $panelName;\n\t\tif (!$useSceneConfig) {\n\t\t\tpanel -e -l $label $panelName;\n\t\t}\n\t}\n\n\n\t$panelName = `sceneUIReplacement -getNextScriptedPanel \"visorPanel\" (localizedPanelLabel(\"Visor\")) `;\n\tif (\"\" != $panelName) {\n\t\t$label = `panel -q -label $panelName`;\n\t\tscriptedPanel -edit -l (localizedPanelLabel(\"Visor\")) -mbv $menusOkayInPanels  $panelName;\n\t\tif (!$useSceneConfig) {\n\t\t\tpanel -e -l $label $panelName;\n\t\t}\n\t}\n\n\n\t$panelName = `sceneUIReplacement -getNextScriptedPanel \"nodeEditorPanel\" (localizedPanelLabel(\"Node Editor\")) `;\n\tif (\"\" != $panelName) {\n\t\t$label = `panel -q -label $panelName`;\n\t\tscriptedPanel -edit -l (localizedPanelLabel(\"Node Editor\")) -mbv $menusOkayInPanels  $panelName;\n"
		+ "\n\t\t\t$editorName = ($panelName+\"NodeEditorEd\");\n            nodeEditor -e \n                -allAttributes 0\n                -allNodes 0\n                -autoSizeNodes 1\n                -consistentNameSize 1\n                -createNodeCommand \"nodeEdCreateNodeCommand\" \n                -defaultPinnedState 0\n                -additiveGraphingMode 0\n                -settingsChangedCallback \"nodeEdSyncControls\" \n                -traversalDepthLimit -1\n                -keyPressCommand \"nodeEdKeyPressCommand\" \n                -nodeTitleMode \"name\" \n                -gridSnap 0\n                -gridVisibility 1\n                -popupMenuScript \"nodeEdBuildPanelMenus\" \n                -showNamespace 1\n                -showShapes 1\n                -showSGShapes 0\n                -showTransforms 1\n                -useAssets 1\n                -syncedSelection 1\n                -extendToShapes 1\n                -activeTab -1\n                -editorMode \"default\" \n                $editorName;\n\t\tif (!$useSceneConfig) {\n\t\t\tpanel -e -l $label $panelName;\n"
		+ "\t\t}\n\t}\n\n\n\t$panelName = `sceneUIReplacement -getNextScriptedPanel \"createNodePanel\" (localizedPanelLabel(\"Create Node\")) `;\n\tif (\"\" != $panelName) {\n\t\t$label = `panel -q -label $panelName`;\n\t\tscriptedPanel -edit -l (localizedPanelLabel(\"Create Node\")) -mbv $menusOkayInPanels  $panelName;\n\t\tif (!$useSceneConfig) {\n\t\t\tpanel -e -l $label $panelName;\n\t\t}\n\t}\n\n\n\t$panelName = `sceneUIReplacement -getNextScriptedPanel \"polyTexturePlacementPanel\" (localizedPanelLabel(\"UV Editor\")) `;\n\tif (\"\" != $panelName) {\n\t\t$label = `panel -q -label $panelName`;\n\t\tscriptedPanel -edit -l (localizedPanelLabel(\"UV Editor\")) -mbv $menusOkayInPanels  $panelName;\n\t\tif (!$useSceneConfig) {\n\t\t\tpanel -e -l $label $panelName;\n\t\t}\n\t}\n\n\n\t$panelName = `sceneUIReplacement -getNextScriptedPanel \"renderWindowPanel\" (localizedPanelLabel(\"Render View\")) `;\n\tif (\"\" != $panelName) {\n\t\t$label = `panel -q -label $panelName`;\n\t\tscriptedPanel -edit -l (localizedPanelLabel(\"Render View\")) -mbv $menusOkayInPanels  $panelName;\n\t\tif (!$useSceneConfig) {\n\t\t\tpanel -e -l $label $panelName;\n"
		+ "\t\t}\n\t}\n\n\n\t$panelName = `sceneUIReplacement -getNextPanel \"shapePanel\" (localizedPanelLabel(\"Shape Editor\")) `;\n\tif (\"\" != $panelName) {\n\t\t$label = `panel -q -label $panelName`;\n\t\tshapePanel -edit -l (localizedPanelLabel(\"Shape Editor\")) -mbv $menusOkayInPanels  $panelName;\n\t\tif (!$useSceneConfig) {\n\t\t\tpanel -e -l $label $panelName;\n\t\t}\n\t}\n\n\n\t$panelName = `sceneUIReplacement -getNextPanel \"posePanel\" (localizedPanelLabel(\"Pose Editor\")) `;\n\tif (\"\" != $panelName) {\n\t\t$label = `panel -q -label $panelName`;\n\t\tposePanel -edit -l (localizedPanelLabel(\"Pose Editor\")) -mbv $menusOkayInPanels  $panelName;\n\t\tif (!$useSceneConfig) {\n\t\t\tpanel -e -l $label $panelName;\n\t\t}\n\t}\n\n\n\t$panelName = `sceneUIReplacement -getNextScriptedPanel \"dynRelEdPanel\" (localizedPanelLabel(\"Dynamic Relationships\")) `;\n\tif (\"\" != $panelName) {\n\t\t$label = `panel -q -label $panelName`;\n\t\tscriptedPanel -edit -l (localizedPanelLabel(\"Dynamic Relationships\")) -mbv $menusOkayInPanels  $panelName;\n\t\tif (!$useSceneConfig) {\n\t\t\tpanel -e -l $label $panelName;\n"
		+ "\t\t}\n\t}\n\n\n\t$panelName = `sceneUIReplacement -getNextScriptedPanel \"relationshipPanel\" (localizedPanelLabel(\"Relationship Editor\")) `;\n\tif (\"\" != $panelName) {\n\t\t$label = `panel -q -label $panelName`;\n\t\tscriptedPanel -edit -l (localizedPanelLabel(\"Relationship Editor\")) -mbv $menusOkayInPanels  $panelName;\n\t\tif (!$useSceneConfig) {\n\t\t\tpanel -e -l $label $panelName;\n\t\t}\n\t}\n\n\n\t$panelName = `sceneUIReplacement -getNextScriptedPanel \"referenceEditorPanel\" (localizedPanelLabel(\"Reference Editor\")) `;\n\tif (\"\" != $panelName) {\n\t\t$label = `panel -q -label $panelName`;\n\t\tscriptedPanel -edit -l (localizedPanelLabel(\"Reference Editor\")) -mbv $menusOkayInPanels  $panelName;\n\t\tif (!$useSceneConfig) {\n\t\t\tpanel -e -l $label $panelName;\n\t\t}\n\t}\n\n\n\t$panelName = `sceneUIReplacement -getNextScriptedPanel \"componentEditorPanel\" (localizedPanelLabel(\"Component Editor\")) `;\n\tif (\"\" != $panelName) {\n\t\t$label = `panel -q -label $panelName`;\n\t\tscriptedPanel -edit -l (localizedPanelLabel(\"Component Editor\")) -mbv $menusOkayInPanels  $panelName;\n"
		+ "\t\tif (!$useSceneConfig) {\n\t\t\tpanel -e -l $label $panelName;\n\t\t}\n\t}\n\n\n\t$panelName = `sceneUIReplacement -getNextScriptedPanel \"dynPaintScriptedPanelType\" (localizedPanelLabel(\"Paint Effects\")) `;\n\tif (\"\" != $panelName) {\n\t\t$label = `panel -q -label $panelName`;\n\t\tscriptedPanel -edit -l (localizedPanelLabel(\"Paint Effects\")) -mbv $menusOkayInPanels  $panelName;\n\t\tif (!$useSceneConfig) {\n\t\t\tpanel -e -l $label $panelName;\n\t\t}\n\t}\n\n\n\t$panelName = `sceneUIReplacement -getNextScriptedPanel \"scriptEditorPanel\" (localizedPanelLabel(\"Script Editor\")) `;\n\tif (\"\" != $panelName) {\n\t\t$label = `panel -q -label $panelName`;\n\t\tscriptedPanel -edit -l (localizedPanelLabel(\"Script Editor\")) -mbv $menusOkayInPanels  $panelName;\n\t\tif (!$useSceneConfig) {\n\t\t\tpanel -e -l $label $panelName;\n\t\t}\n\t}\n\n\n\t$panelName = `sceneUIReplacement -getNextScriptedPanel \"profilerPanel\" (localizedPanelLabel(\"Profiler Tool\")) `;\n\tif (\"\" != $panelName) {\n\t\t$label = `panel -q -label $panelName`;\n\t\tscriptedPanel -edit -l (localizedPanelLabel(\"Profiler Tool\")) -mbv $menusOkayInPanels  $panelName;\n"
		+ "\t\tif (!$useSceneConfig) {\n\t\t\tpanel -e -l $label $panelName;\n\t\t}\n\t}\n\n\n\t$panelName = `sceneUIReplacement -getNextScriptedPanel \"contentBrowserPanel\" (localizedPanelLabel(\"Content Browser\")) `;\n\tif (\"\" != $panelName) {\n\t\t$label = `panel -q -label $panelName`;\n\t\tscriptedPanel -edit -l (localizedPanelLabel(\"Content Browser\")) -mbv $menusOkayInPanels  $panelName;\n\t\tif (!$useSceneConfig) {\n\t\t\tpanel -e -l $label $panelName;\n\t\t}\n\t}\n\n\n\tif ($useSceneConfig) {\n        string $configName = `getPanel -cwl (localizedPanelLabel(\"Current Layout\"))`;\n        if (\"\" != $configName) {\n\t\t\tpanelConfiguration -edit -label (localizedPanelLabel(\"Current Layout\")) \n\t\t\t\t-userCreated false\n\t\t\t\t-defaultImage \"vacantCell.xP:/\"\n\t\t\t\t-image \"\"\n\t\t\t\t-sc false\n\t\t\t\t-configString \"global string $gMainPane; paneLayout -e -cn \\\"single\\\" -ps 1 100 100 $gMainPane;\"\n\t\t\t\t-removeAllPanels\n\t\t\t\t-ap false\n\t\t\t\t\t(localizedPanelLabel(\"Persp View\")) \n\t\t\t\t\t\"modelPanel\"\n"
		+ "\t\t\t\t\t\"$panelName = `modelPanel -unParent -l (localizedPanelLabel(\\\"Persp View\\\")) -mbv $menusOkayInPanels `;\\n$editorName = $panelName;\\nmodelEditor -e \\n    -cam `findStartUpCamera persp` \\n    -useInteractiveMode 0\\n    -displayLights \\\"default\\\" \\n    -displayAppearance \\\"smoothShaded\\\" \\n    -activeOnly 0\\n    -ignorePanZoom 0\\n    -wireframeOnShaded 0\\n    -headsUpDisplay 1\\n    -holdOuts 1\\n    -selectionHiliteDisplay 1\\n    -useDefaultMaterial 0\\n    -bufferMode \\\"double\\\" \\n    -twoSidedLighting 0\\n    -backfaceCulling 0\\n    -xray 0\\n    -jointXray 0\\n    -activeComponentsXray 0\\n    -displayTextures 0\\n    -smoothWireframe 0\\n    -lineWidth 1\\n    -textureAnisotropic 0\\n    -textureHilight 1\\n    -textureSampling 2\\n    -textureDisplay \\\"modulate\\\" \\n    -textureMaxSize 16384\\n    -fogging 0\\n    -fogSource \\\"fragment\\\" \\n    -fogMode \\\"linear\\\" \\n    -fogStart 0\\n    -fogEnd 100\\n    -fogDensity 0.1\\n    -fogColor 0.5 0.5 0.5 1 \\n    -depthOfFieldPreview 1\\n    -maxConstantTransparency 1\\n    -rendererName \\\"vp2Renderer\\\" \\n    -objectFilterShowInHUD 1\\n    -isFiltered 0\\n    -colorResolution 256 256 \\n    -bumpResolution 512 512 \\n    -textureCompression 0\\n    -transparencyAlgorithm \\\"frontAndBackCull\\\" \\n    -transpInShadows 0\\n    -cullingOverride \\\"none\\\" \\n    -lowQualityLighting 0\\n    -maximumNumHardwareLights 1\\n    -occlusionCulling 0\\n    -shadingModel 0\\n    -useBaseRenderer 0\\n    -useReducedRenderer 0\\n    -smallObjectCulling 0\\n    -smallObjectThreshold -1 \\n    -interactiveDisableShadows 0\\n    -interactiveBackFaceCull 0\\n    -sortTransparent 1\\n    -nurbsCurves 1\\n    -nurbsSurfaces 1\\n    -polymeshes 1\\n    -subdivSurfaces 1\\n    -planes 1\\n    -lights 1\\n    -cameras 1\\n    -controlVertices 1\\n    -hulls 1\\n    -grid 1\\n    -imagePlane 1\\n    -joints 1\\n    -ikHandles 1\\n    -deformers 1\\n    -dynamics 1\\n    -particleInstancers 1\\n    -fluids 1\\n    -hairSystems 1\\n    -follicles 1\\n    -nCloths 1\\n    -nParticles 1\\n    -nRigids 1\\n    -dynamicConstraints 1\\n    -locators 1\\n    -manipulators 1\\n    -pluginShapes 1\\n    -dimensions 1\\n    -handles 1\\n    -pivots 1\\n    -textures 1\\n    -strokes 1\\n    -motionTrails 1\\n    -clipGhosts 1\\n    -greasePencils 1\\n    -shadows 0\\n    -captureSequenceNumber -1\\n    -width 1337\\n    -height 708\\n    -sceneRenderFilter 0\\n    $editorName;\\nmodelEditor -e -viewSelected 0 $editorName\"\n"
		+ "\t\t\t\t\t\"modelPanel -edit -l (localizedPanelLabel(\\\"Persp View\\\")) -mbv $menusOkayInPanels  $panelName;\\n$editorName = $panelName;\\nmodelEditor -e \\n    -cam `findStartUpCamera persp` \\n    -useInteractiveMode 0\\n    -displayLights \\\"default\\\" \\n    -displayAppearance \\\"smoothShaded\\\" \\n    -activeOnly 0\\n    -ignorePanZoom 0\\n    -wireframeOnShaded 0\\n    -headsUpDisplay 1\\n    -holdOuts 1\\n    -selectionHiliteDisplay 1\\n    -useDefaultMaterial 0\\n    -bufferMode \\\"double\\\" \\n    -twoSidedLighting 0\\n    -backfaceCulling 0\\n    -xray 0\\n    -jointXray 0\\n    -activeComponentsXray 0\\n    -displayTextures 0\\n    -smoothWireframe 0\\n    -lineWidth 1\\n    -textureAnisotropic 0\\n    -textureHilight 1\\n    -textureSampling 2\\n    -textureDisplay \\\"modulate\\\" \\n    -textureMaxSize 16384\\n    -fogging 0\\n    -fogSource \\\"fragment\\\" \\n    -fogMode \\\"linear\\\" \\n    -fogStart 0\\n    -fogEnd 100\\n    -fogDensity 0.1\\n    -fogColor 0.5 0.5 0.5 1 \\n    -depthOfFieldPreview 1\\n    -maxConstantTransparency 1\\n    -rendererName \\\"vp2Renderer\\\" \\n    -objectFilterShowInHUD 1\\n    -isFiltered 0\\n    -colorResolution 256 256 \\n    -bumpResolution 512 512 \\n    -textureCompression 0\\n    -transparencyAlgorithm \\\"frontAndBackCull\\\" \\n    -transpInShadows 0\\n    -cullingOverride \\\"none\\\" \\n    -lowQualityLighting 0\\n    -maximumNumHardwareLights 1\\n    -occlusionCulling 0\\n    -shadingModel 0\\n    -useBaseRenderer 0\\n    -useReducedRenderer 0\\n    -smallObjectCulling 0\\n    -smallObjectThreshold -1 \\n    -interactiveDisableShadows 0\\n    -interactiveBackFaceCull 0\\n    -sortTransparent 1\\n    -nurbsCurves 1\\n    -nurbsSurfaces 1\\n    -polymeshes 1\\n    -subdivSurfaces 1\\n    -planes 1\\n    -lights 1\\n    -cameras 1\\n    -controlVertices 1\\n    -hulls 1\\n    -grid 1\\n    -imagePlane 1\\n    -joints 1\\n    -ikHandles 1\\n    -deformers 1\\n    -dynamics 1\\n    -particleInstancers 1\\n    -fluids 1\\n    -hairSystems 1\\n    -follicles 1\\n    -nCloths 1\\n    -nParticles 1\\n    -nRigids 1\\n    -dynamicConstraints 1\\n    -locators 1\\n    -manipulators 1\\n    -pluginShapes 1\\n    -dimensions 1\\n    -handles 1\\n    -pivots 1\\n    -textures 1\\n    -strokes 1\\n    -motionTrails 1\\n    -clipGhosts 1\\n    -greasePencils 1\\n    -shadows 0\\n    -captureSequenceNumber -1\\n    -width 1337\\n    -height 708\\n    -sceneRenderFilter 0\\n    $editorName;\\nmodelEditor -e -viewSelected 0 $editorName\"\n"
		+ "\t\t\t\t$configName;\n\n            setNamedPanelLayout (localizedPanelLabel(\"Current Layout\"));\n        }\n\n        panelHistory -e -clear mainPanelHistory;\n        sceneUIReplacement -clear;\n\t}\n\n\ngrid -spacing 5 -size 12 -divisions 5 -displayAxes yes -displayGridLines yes -displayDivisionLines yes -displayPerspectiveLabels no -displayOrthographicLabels no -displayAxesBold yes -perspectiveLabelPosition axis -orthographicLabelPosition edge;\nviewManip -drawCompass 0 -compassAngle 0 -frontParameters \"\" -homeParameters \"\" -selectionLockParameters \"\";\n}\n");
	setAttr ".st" 3;
createNode script -n "sceneConfigurationScriptNode";
	rename -uid "5B527EB5-42A7-4A5B-2599-85A6AE6AC385";
	setAttr ".b" -type "string" "playbackOptions -min 1 -max 120 -ast 1 -aet 200 ";
	setAttr ".st" 6;
createNode polySplit -n "polySplit9";
	rename -uid "9AFAE3CB-482B-00A1-3C84-12B3EB5F945E";
	setAttr -s 9 ".e[0:8]"  0.51467299 0.54941601 0.395289 0.599392 0.51598501
		 0.460289 0.64035201 0.36890301 0.51467299;
	setAttr -s 9 ".d[0:8]"  -2147483599 -2147483600 -2147483584 -2147483583 -2147483626 -2147483625 
		-2147483629 -2147483630 -2147483599;
	setAttr ".sma" 180;
	setAttr ".m2015" yes;
createNode polySplitEdge -n "polySplitEdge1";
	rename -uid "8E42595B-4C8A-EDBF-9A1A-59AA7C63941F";
	setAttr ".uopa" yes;
	setAttr ".ics" -type "componentList" 1 "e[82:89]";
createNode polyBridgeEdge -n "polyBridgeEdge1";
	rename -uid "694C38A8-4D1E-8790-5C15-1E84211A9712";
	setAttr ".ics" -type "componentList" 2 "e[91]" "e[93]";
	setAttr ".ix" -type "matrix" 1 0 0 0 0 1 0 0 0 0 1.7754920057353665 0 0 0 0 1;
	setAttr ".c[0]"  0 1 1;
	setAttr ".dv" 0;
	setAttr ".sv1" 52;
	setAttr ".sv2" 55;
	setAttr ".d" 1;
	setAttr ".td" 1;
createNode polyTweak -n "polyTweak1";
	rename -uid "A105F714-4AA8-B683-165C-72975D2F96C5";
	setAttr ".uopa" yes;
	setAttr -s 33 ".tk";
	setAttr ".tk[0]" -type "float3" 0 0 0.18215306 ;
	setAttr ".tk[1]" -type "float3" 0 0 0.18215306 ;
	setAttr ".tk[4]" -type "float3" 0 0 0.18215306 ;
	setAttr ".tk[5]" -type "float3" 0 0 0.18215306 ;
	setAttr ".tk[8]" -type "float3" 0 0 0.18215306 ;
	setAttr ".tk[9]" -type "float3" 0 0 0.18215306 ;
	setAttr ".tk[10]" -type "float3" 0 0 0.18215306 ;
	setAttr ".tk[11]" -type "float3" 0 0 0.18215306 ;
	setAttr ".tk[14]" -type "float3" 0 0 0.18215306 ;
	setAttr ".tk[15]" -type "float3" 0 0 0.18215306 ;
	setAttr ".tk[16]" -type "float3" 0 0 0.18215306 ;
	setAttr ".tk[17]" -type "float3" 0 0 0.18215306 ;
	setAttr ".tk[24]" -type "float3" 0 0 0.18215306 ;
	setAttr ".tk[25]" -type "float3" 0 0 0.18215306 ;
	setAttr ".tk[26]" -type "float3" 0 0 0.18215306 ;
	setAttr ".tk[27]" -type "float3" 0 0 0.18215306 ;
	setAttr ".tk[31]" -type "float3" -1.8626451e-009 0 9.3132257e-010 ;
	setAttr ".tk[36]" -type "float3" 0 0 0.18215306 ;
	setAttr ".tk[37]" -type "float3" 0 0 0.18215306 ;
	setAttr ".tk[38]" -type "float3" 0 0 0.18215306 ;
	setAttr ".tk[39]" -type "float3" 0 0 0.18215306 ;
	setAttr ".tk[42]" -type "float3" 0 0 0.18215306 ;
	setAttr ".tk[43]" -type "float3" 0 0 0.18215306 ;
	setAttr ".tk[52]" -type "float3" 0 0 0.18215306 ;
	setAttr ".tk[53]" -type "float3" 0 0 0.18215306 ;
	setAttr ".tk[54]" -type "float3" 0 0 0.18215306 ;
	setAttr ".tk[55]" -type "float3" 0 0 0.18215306 ;
	setAttr ".tk[56]" -type "float3" 0 0 0.18215306 ;
	setAttr ".tk[57]" -type "float3" 0 0 0.18215306 ;
	setAttr ".tk[58]" -type "float3" 0 0 0.18215306 ;
	setAttr ".tk[59]" -type "float3" 0 0 0.18215306 ;
createNode polyBridgeEdge -n "polyBridgeEdge2";
	rename -uid "75406341-4A78-65AD-B267-B9A40A0BEC18";
	setAttr ".ics" -type "componentList" 2 "e[90]" "e[94]";
	setAttr ".ix" -type "matrix" 1 0 0 0 0 1 0 0 0 0 1.7754920057353665 0 0 0 0 1;
	setAttr ".c[0]"  0 1 1;
	setAttr ".dv" 0;
	setAttr ".sv1" 53;
	setAttr ".sv2" 56;
	setAttr ".d" 1;
	setAttr ".td" 1;
createNode polyBridgeEdge -n "polyBridgeEdge3";
	rename -uid "99F23D92-4BE8-1954-09CB-DF937808E551";
	setAttr ".ics" -type "componentList" 2 "e[95]" "e[97]";
	setAttr ".ix" -type "matrix" 1 0 0 0 0 1 0 0 0 0 1.7754920057353665 0 0 0 0 1;
	setAttr ".c[0]"  0 1 1;
	setAttr ".dv" 0;
	setAttr ".sv1" 57;
	setAttr ".sv2" 59;
	setAttr ".d" 1;
	setAttr ".td" 1;
createNode polyBridgeEdge -n "polyBridgeEdge4";
	rename -uid "8484E812-4916-B4F7-6FFE-92BB183F2C2C";
	setAttr ".ics" -type "componentList" 2 "e[85]" "e[89]";
	setAttr ".ix" -type "matrix" 1 0 0 0 0 1 0 0 0 0 1.7754920057353665 0 0 0 0 1;
	setAttr ".c[0]"  0 1 1;
	setAttr ".dv" 0;
	setAttr ".sv1" 47;
	setAttr ".sv2" 51;
	setAttr ".d" 1;
	setAttr ".td" 1;
createNode polyBridgeEdge -n "polyBridgeEdge5";
	rename -uid "297BEC58-4853-BD3F-D6AD-308A3F6326BE";
	setAttr ".ics" -type "componentList" 2 "e[82]" "e[84]";
	setAttr ".ix" -type "matrix" 1 0 0 0 0 1 0 0 0 0 1.7754920057353665 0 0 0 0 1;
	setAttr ".c[0]"  0 1 1;
	setAttr ".dv" 0;
	setAttr ".sv1" 44;
	setAttr ".sv2" 46;
	setAttr ".d" 1;
createNode polyBridgeEdge -n "polyBridgeEdge6";
	rename -uid "B74B900F-4208-6016-233A-0D81CD0B70E2";
	setAttr ".ics" -type "componentList" 2 "e[86]" "e[88]";
	setAttr ".ix" -type "matrix" 1 0 0 0 0 1 0 0 0 0 1.7754920057353665 0 0 0 0 1;
	setAttr ".c[0]"  0 1 1;
	setAttr ".dv" 0;
	setAttr ".sv1" 48;
	setAttr ".sv2" 50;
	setAttr ".d" 1;
	setAttr ".sd" 1;
	setAttr ".td" 1;
createNode polySplitRing -n "polySplitRing1";
	rename -uid "7B5D8B89-4880-FC49-D513-FE91533931DD";
	setAttr ".uopa" yes;
	setAttr ".ics" -type "componentList" 3 "e[83]" "e[87]" "e[100:101]";
	setAttr ".ix" -type "matrix" 1 0 0 0 0 1 0 0 0 0 1.7754920057353665 0 0 0 0 1;
	setAttr ".wt" 0.44221517443656921;
	setAttr ".re" 83;
	setAttr ".sma" 29.999999999999996;
	setAttr ".p[0]"  0 0 1;
	setAttr ".fq" yes;
createNode polyTweak -n "polyTweak2";
	rename -uid "E2FBD9E6-4DA8-E513-D7F1-4994BE4F6FDF";
	setAttr ".uopa" yes;
	setAttr -s 6 ".tk";
	setAttr ".tk[60]" -type "float3" 0 0 -0.012163667 ;
	setAttr ".tk[61]" -type "float3" 0 0 -0.012163667 ;
	setAttr ".tk[62]" -type "float3" 0 0 -0.012163667 ;
	setAttr ".tk[63]" -type "float3" 0 0 -0.012163667 ;
createNode polySplit -n "polySplit10";
	rename -uid "B6C4D41D-4C75-2652-35D4-C984595052C4";
	setAttr -s 5 ".e[0:4]"  0 0.46227399 0.46972701 0.51690698 0;
	setAttr -s 5 ".d[0:4]"  -2147483546 -2147483646 -2147483598 -2147483597 -2147483541;
	setAttr ".sma" 180;
	setAttr ".m2015" yes;
createNode polySeparate -n "polySeparate1";
	rename -uid "E0310286-4708-F2FD-719A-67A56AB54DF6";
	setAttr ".ic" 2;
createNode groupId -n "groupId1";
	rename -uid "94FDF6C2-409E-484D-4927-FEB0661CF33E";
	setAttr ".ihi" 0;
createNode groupParts -n "groupParts1";
	rename -uid "4F8F317F-4F45-D385-94C0-9C93AA275755";
	setAttr ".ihi" 0;
	setAttr ".ic" -type "componentList" 1 "f[0:52]";
createNode groupId -n "groupId2";
	rename -uid "49C7D7EF-465A-F302-B83C-F78304D8E648";
	setAttr ".ihi" 0;
createNode groupId -n "groupId3";
	rename -uid "C2715F4A-4FCC-EA00-6A09-13A7C21BB078";
	setAttr ".ihi" 0;
createNode groupParts -n "groupParts2";
	rename -uid "AB6B8DD3-4119-FC8F-821B-71AC5E2A667F";
	setAttr ".ihi" 0;
	setAttr ".ic" -type "componentList" 23 "f[0]" "f[1]" "f[2]" "f[3]" "f[4]" "f[5]" "f[6]" "f[7]" "f[8]" "f[9]" "f[10]" "f[11]" "f[12]" "f[13]" "f[14]" "f[15]" "f[16]" "f[17]" "f[18]" "f[19]" "f[20]" "f[21]" "f[22]";
select -ne :time1;
	setAttr ".o" 1;
	setAttr ".unw" 1;
select -ne :hardwareRenderingGlobals;
	setAttr ".otfna" -type "stringArray" 22 "NURBS Curves" "NURBS Surfaces" "Polygons" "Subdiv Surface" "Particles" "Particle Instance" "Fluids" "Strokes" "Image Planes" "UI" "Lights" "Cameras" "Locators" "Joints" "IK Handles" "Deformers" "Motion Trails" "Components" "Hair Systems" "Follicles" "Misc. UI" "Ornaments"  ;
	setAttr ".otfva" -type "Int32Array" 22 0 1 1 1 1 1
		 1 1 1 0 0 0 0 0 0 0 0 0
		 0 0 0 0 ;
	setAttr ".fprt" yes;
select -ne :renderPartition;
	setAttr -s 2 ".st";
select -ne :renderGlobalsList1;
select -ne :defaultShaderList1;
	setAttr -s 4 ".s";
select -ne :postProcessList1;
	setAttr -s 2 ".p";
select -ne :defaultRenderingList1;
select -ne :initialShadingGroup;
	setAttr -s 3 ".dsm";
	setAttr ".ro" yes;
	setAttr -s 3 ".gn";
select -ne :initialParticleSE;
	setAttr ".ro" yes;
select -ne :defaultResolution;
	setAttr ".pa" 1;
select -ne :hardwareRenderGlobals;
	setAttr ".ctrs" 256;
	setAttr ".btrs" 512;
connectAttr "groupParts2.og" "polySurfaceShape1.i";
connectAttr "groupId3.id" "polySurfaceShape1.iog.og[0].gid";
connectAttr ":initialShadingGroup.mwc" "polySurfaceShape1.iog.og[0].gco";
connectAttr "groupId1.id" "pCubeShape1.iog.og[0].gid";
connectAttr ":initialShadingGroup.mwc" "pCubeShape1.iog.og[0].gco";
connectAttr "groupParts1.og" "pCubeShape1.i";
connectAttr "groupId2.id" "pCubeShape1.ciog.cog[0].cgid";
relationship "link" ":lightLinker1" ":initialShadingGroup.message" ":defaultLightSet.message";
relationship "link" ":lightLinker1" ":initialParticleSE.message" ":defaultLightSet.message";
relationship "shadowLink" ":lightLinker1" ":initialShadingGroup.message" ":defaultLightSet.message";
relationship "shadowLink" ":lightLinker1" ":initialParticleSE.message" ":defaultLightSet.message";
connectAttr "layerManager.dli[0]" "defaultLayer.id";
connectAttr "renderLayerManager.rlmi[0]" "defaultRenderLayer.rlid";
connectAttr "polyCube1.out" "polyChamfer1.ip";
connectAttr "pCubeShape1.wm" "polyChamfer1.mp";
connectAttr "polyChamfer1.out" "deleteComponent1.ig";
connectAttr "deleteComponent1.og" "polyChamfer2.ip";
connectAttr "pCubeShape1.wm" "polyChamfer2.mp";
connectAttr "polyChamfer2.out" "deleteComponent2.ig";
connectAttr "deleteComponent2.og" "polySoftEdge1.ip";
connectAttr "pCubeShape1.wm" "polySoftEdge1.mp";
connectAttr "polySoftEdge1.out" "polyChamfer3.ip";
connectAttr "pCubeShape1.wm" "polyChamfer3.mp";
connectAttr "polyChamfer3.out" "deleteComponent3.ig";
connectAttr "deleteComponent3.og" "polySoftEdge2.ip";
connectAttr "pCubeShape1.wm" "polySoftEdge2.mp";
connectAttr "polySoftEdge2.out" "polyBevel1.ip";
connectAttr "pCubeShape1.wm" "polyBevel1.mp";
connectAttr "polyBevel1.out" "polyBevel2.ip";
connectAttr "pCubeShape1.wm" "polyBevel2.mp";
connectAttr "polyBevel2.out" "polyBevel3.ip";
connectAttr "pCubeShape1.wm" "polyBevel3.mp";
connectAttr "polyBevel3.out" "polySoftEdge3.ip";
connectAttr "pCubeShape1.wm" "polySoftEdge3.mp";
connectAttr "polySoftEdge3.out" "polySplit1.ip";
connectAttr "polySplit1.out" "polySplit2.ip";
connectAttr "polySplit2.out" "polySplit3.ip";
connectAttr "polySplit3.out" "polySplit4.ip";
connectAttr "polySplit4.out" "polySplit5.ip";
connectAttr "polySplit5.out" "polySplit6.ip";
connectAttr "polySplit6.out" "polySplit7.ip";
connectAttr "polySplit7.out" "polySplit8.ip";
connectAttr "polySplit8.out" "polySplit9.ip";
connectAttr "polySplit9.out" "polySplitEdge1.ip";
connectAttr "polyTweak1.out" "polyBridgeEdge1.ip";
connectAttr "pCubeShape1.wm" "polyBridgeEdge1.mp";
connectAttr "polySplitEdge1.out" "polyTweak1.ip";
connectAttr "polyBridgeEdge1.out" "polyBridgeEdge2.ip";
connectAttr "pCubeShape1.wm" "polyBridgeEdge2.mp";
connectAttr "polyBridgeEdge2.out" "polyBridgeEdge3.ip";
connectAttr "pCubeShape1.wm" "polyBridgeEdge3.mp";
connectAttr "polyBridgeEdge3.out" "polyBridgeEdge4.ip";
connectAttr "pCubeShape1.wm" "polyBridgeEdge4.mp";
connectAttr "polyBridgeEdge4.out" "polyBridgeEdge5.ip";
connectAttr "pCubeShape1.wm" "polyBridgeEdge5.mp";
connectAttr "polyBridgeEdge5.out" "polyBridgeEdge6.ip";
connectAttr "pCubeShape1.wm" "polyBridgeEdge6.mp";
connectAttr "polyBridgeEdge6.out" "polySplitRing1.ip";
connectAttr "pCubeShape1.wm" "polySplitRing1.mp";
connectAttr "polySplitRing1.out" "polyTweak2.ip";
connectAttr "polyTweak2.out" "polySplit10.ip";
connectAttr "pCubeShape1.o" "polySeparate1.ip";
connectAttr "polySplit10.out" "groupParts1.ig";
connectAttr "groupId1.id" "groupParts1.gi";
connectAttr "polySeparate1.out[0]" "groupParts2.ig";
connectAttr "groupId3.id" "groupParts2.gi";
connectAttr "defaultRenderLayer.msg" ":defaultRenderingList1.r" -na;
connectAttr "pCubeShape1.iog.og[0]" ":initialShadingGroup.dsm" -na;
connectAttr "pCubeShape1.ciog.cog[0]" ":initialShadingGroup.dsm" -na;
connectAttr "polySurfaceShape1.iog.og[0]" ":initialShadingGroup.dsm" -na;
connectAttr "groupId1.msg" ":initialShadingGroup.gn" -na;
connectAttr "groupId2.msg" ":initialShadingGroup.gn" -na;
connectAttr "groupId3.msg" ":initialShadingGroup.gn" -na;
// End of RuinBrickLargerHalf.ma
