//Maya ASCII 2017ff05 scene
//Name: Raft_model_001.ma
//Last modified: Thu, Dec 14, 2017 04:18:36 AM
//Codeset: 1252
requires maya "2017ff05";
currentUnit -l centimeter -a degree -t film;
fileInfo "application" "maya";
fileInfo "product" "Maya 2017";
fileInfo "version" "2017";
fileInfo "cutIdentifier" "201710312130-1018716";
fileInfo "osv" "Microsoft Windows 8 Home Premium Edition, 64-bit  (Build 9200)\n";
fileInfo "license" "student";
createNode transform -s -n "persp";
	rename -uid "6F689EC0-4CE7-EC47-685B-0188BD35FC57";
	setAttr ".v" no;
	setAttr ".t" -type "double3" -0.18573119172964303 4.6062796177526133 5.9820558768187366 ;
	setAttr ".r" -type "double3" -38.138352729693047 2.6000000000001244 -5.9696854022370871e-016 ;
createNode camera -s -n "perspShape" -p "persp";
	rename -uid "B4B5C0B9-4AF8-EC5E-0DE5-F08B69C35E68";
	setAttr -k off ".v" no;
	setAttr ".fl" 34.999999999999993;
	setAttr ".coi" 7.9276604765800842;
	setAttr ".imn" -type "string" "persp";
	setAttr ".den" -type "string" "persp_depth";
	setAttr ".man" -type "string" "persp_mask";
	setAttr ".tp" -type "double3" -0.034339606761932373 0.055441439151763916 -0.018561065196990967 ;
	setAttr ".hc" -type "string" "viewSet -p %camera";
createNode transform -s -n "top";
	rename -uid "C59F18F6-4E47-9043-8A16-D8B657D36663";
	setAttr ".v" no;
	setAttr ".t" -type "double3" 0 1000.1 0 ;
	setAttr ".r" -type "double3" -89.999999999999986 0 0 ;
createNode camera -s -n "topShape" -p "top";
	rename -uid "0EE0938E-42AD-2EB9-B768-6FB3FF8079EE";
	setAttr -k off ".v" no;
	setAttr ".rnd" no;
	setAttr ".coi" 1000.1;
	setAttr ".ow" 9.3925858789344936;
	setAttr ".imn" -type "string" "top";
	setAttr ".den" -type "string" "top_depth";
	setAttr ".man" -type "string" "top_mask";
	setAttr ".hc" -type "string" "viewSet -t %camera";
	setAttr ".o" yes;
createNode transform -s -n "front";
	rename -uid "AB82372D-4C36-DA81-772F-BA903E7CC2DA";
	setAttr ".v" no;
	setAttr ".t" -type "double3" 0 0 1000.1 ;
createNode camera -s -n "frontShape" -p "front";
	rename -uid "32DC9AD3-4BF1-539F-B434-D2BCF5D21EAC";
	setAttr -k off ".v" no;
	setAttr ".rnd" no;
	setAttr ".coi" 1000.1;
	setAttr ".ow" 9.4812386205073942;
	setAttr ".imn" -type "string" "front";
	setAttr ".den" -type "string" "front_depth";
	setAttr ".man" -type "string" "front_mask";
	setAttr ".hc" -type "string" "viewSet -f %camera";
	setAttr ".o" yes;
createNode transform -s -n "side";
	rename -uid "FCB527F5-4C32-2BE0-8A1F-F59DD753047D";
	setAttr ".t" -type "double3" 1000.1021822667942 0.15776051948212047 -0.72684018517042104 ;
	setAttr ".r" -type "double3" 0 89.999999999999986 0 ;
createNode camera -s -n "sideShape" -p "side";
	rename -uid "26B3ADE9-4178-400C-FED6-2AB7C7ACF5F3";
	setAttr -k off ".v";
	setAttr ".rnd" no;
	setAttr ".coi" 1000.102182266794;
	setAttr ".ow" 4.0775021835177876;
	setAttr ".imn" -type "string" "side";
	setAttr ".den" -type "string" "side_depth";
	setAttr ".man" -type "string" "side_mask";
	setAttr ".tp" -type "double3" 0 -0.87024497920118193 1.1596319451389598 ;
	setAttr ".hc" -type "string" "viewSet -s %camera";
	setAttr ".o" yes;
createNode transform -n "pCube6";
	rename -uid "89DC4E1F-4FFA-2C34-C67C-F7894604F4A1";
	setAttr ".rp" -type "double3" -0.020449161864372845 0.041543944639684138 -0.018561043779450222 ;
	setAttr ".sp" -type "double3" -0.020449161864372845 0.041543944639684138 -0.018561043779450222 ;
createNode mesh -n "pCube6Shape" -p "pCube6";
	rename -uid "7F48DE60-4BF9-EBAD-561E-B1B5AAC5ABBF";
	setAttr -k off ".v";
	setAttr -s 4 ".iog[0].og";
	setAttr ".iog[0].og[0].gcl" -type "componentList" 3 "f[0:5]" "f[27:36]" "f[146:151]";
	setAttr ".iog[0].og[1].gcl" -type "componentList" 4 "f[6:26]" "f[37:99]" "f[158:178]" "f[185:289]";
	setAttr ".iog[0].og[2].gcl" -type "componentList" 2 "f[152:157]" "f[179:184]";
	setAttr ".iog[0].og[3].gcl" -type "componentList" 1 "f[100:145]";
	setAttr ".vir" yes;
	setAttr ".vif" yes;
	setAttr ".pv" -type "double2" 0.49999998509883881 0.49999998509883881 ;
	setAttr ".uvst[0].uvsn" -type "string" "map1";
	setAttr -s 592 ".uvst[0].uvsp";
	setAttr ".uvst[0].uvsp[0:249]" -type "float2" 0.27409729 0.57637721 0.2957961
		 0.58132982 0.27980462 0.60035658 0.25669622 0.59025407 0.25669622 0.61251092 0.27409729
		 0.62638783 0.29579613 0.62143523 0.30545303 0.60138249 0.33333367 0.65595138 0.31163487
		 0.66090405 0.31734216 0.63487279 0.29423377 0.64702713 0.29423377 0.62477028 0.31163487
		 0.61089337 0.33333367 0.61584598 0.34299052 0.63589871 0.24406728 0.68397218 0.26576608
		 0.68892479 0.24977461 0.70795155 0.22666617 0.69784909 0.22666617 0.72010595 0.24406727
		 0.73398286 0.26576611 0.72903025 0.27542299 0.70897752 0.20945978 0.74078119 0.18776104
		 0.74573386 0.1934683 0.71970254 0.17035995 0.73185688 0.17035991 0.70960009 0.18776101
		 0.69572318 0.20945978 0.70067573 0.21911669 0.72072852 0.21028352 0.56054884 0.23198232
		 0.56550145 0.21599081 0.58452827 0.19288246 0.57442582 0.19288246 0.59668261 0.21028355
		 0.61055952 0.23198235 0.60560691 0.24163923 0.58555418 0.16066101 0.62251037 0.13896224
		 0.62746298 0.14466953 0.60143173 0.12156114 0.61358613 0.12156112 0.59132922 0.13896221
		 0.5774523 0.16066101 0.58240491 0.17031792 0.60245764 0.16523847 0.53199935 0.18693727
		 0.5369519 0.17094579 0.55597872 0.1478374 0.54587626 0.1478374 0.56813306 0.1652385
		 0.58200997 0.18693727 0.57705736 0.19659415 0.55700469 0.32207242 0.57602489 0.30037361
		 0.58097744 0.30608091 0.55494618 0.28297251 0.56710052 0.28297251 0.54484373 0.30037361
		 0.53096676 0.32207242 0.53591937 0.33172926 0.5559721 0.0089485645 0.23469597 0.25447431
		 0.23469597 0.25447431 0.25447428 0.0089485645 0.25447428 0.25447431 0.5 0.0089485645
		 0.5 0.25447431 0.51977825 0.0089485645 0.51977825 0.0089485645 0.74552572 0.25447431
		 0.74552572 0.25447431 0.99105144 0.0089485645 0.99105144 0.41918415 0.0089485347
		 0.3910684 0.0089485347 0.3910684 0.040032715 0.41918415 0.040032715 0.25447431 0.53995484
		 0.0089485645 0.53995484 0.44935152 0.040032715 0.0089485645 0.21451938 0.25447431
		 0.21451938 0.42123577 0.040032715 0.25447431 0.56265354 0.0089485645 0.56265354 0.42123577
		 0.0089485347 0.0089485645 0.19182068 0.25447431 0.19182068 0.44935152 0.0089485347
		 0.25447431 0.58535218 0.0089485347 0.58535218 0.29913867 0.29592675 0.0089485645
		 0.16912204 0.25447431 0.16912204 0.29088047 0.29592681 0.25447431 0.60973221 0.0089485645
		 0.60973221 0.31632107 0.32076412 0.0089485645 0.14474192 0.25447431 0.14474192 0.32457924
		 0.32076412 0.25447431 0.63663435 0.0089485645 0.63663435 0.30388495 0.29592681 0.0089485645
		 0.11783978 0.25447431 0.11783978 0.31214315 0.29592675 0.25447431 0.6618551 0.0089485645
		 0.6618551 0.33758369 0.32076412 0.0089485645 0.092619061 0.25447431 0.092619061 0.32932556
		 0.32076412 0.25447431 0.68623519 0.0089485645 0.68623519 0.28994554 0.26826441 0.0089485645
		 0.068239003 0.25447431 0.068239003 0.29820371 0.26826441 0.25447431 0.71061528 0.0089485645
		 0.71061528 0.28519922 0.26826441 0.0089485645 0.043858916 0.25447431 0.043858916
		 0.27694106 0.26826441 0.25447431 0.73247331 0.0089485645 0.73247331 0.27983099 0.23975965
		 0.0089485645 0.022000939 0.25447431 0.022000939 0.28808919 0.23975965 0.2750847 0.23975965
		 0.0089485645 0.0089485347 0.25447431 0.0089485347 0.26682651 0.23975965 0.087703377
		 0.2605918 0.12598523 0.2605918 0.12598523 0.2852208 0.087703377 0.2852208 0.12708083
		 0.2852208 0.16536269 0.2852208 0.16536269 0.2605918 0.12708083 0.2605918 0.99105144
		 0.085512251 0.99105144 0.12379402 0.99105114 0.16207582 0.0089485347 0.16207582 0.0089485347
		 0.18670481 0.99105114 0.18670481 0.11643967 0.62286276 0.1381385 0.62781537 0.12214702
		 0.64684212 0.099038601 0.63673961 0.099038631 0.65899646 0.1164397 0.67287338 0.1381385
		 0.66792077 0.14779538 0.64786804 0.22822857 0.69451404 0.20652977 0.69946665 0.21223706
		 0.67343539 0.18912867 0.68558979 0.18912867 0.66333294 0.20652977 0.64945602 0.22822857
		 0.65440863 0.23788545 0.67446131 0.0089485347 0.2605918 0.047230411 0.2605918 0.047230411
		 0.2852208 0.0089485347 0.2852208 0.048325956 0.2852208 0.086607836 0.2852208 0.086607836
		 0.2605918 0.048325956 0.2605918 0.0089485347 0.12379402 0.0089485347 0.085512251
		 0.0089485347 0.18670481 0.99105114 0.18670481 0.99105114 0.21133384 0.0089485347
		 0.21133384 0.3379111 0.56548303 0.3596099 0.57043558 0.34361842 0.5894624 0.32051
		 0.57935995 0.32051 0.60161674 0.3379111 0.61549366 0.35960993 0.61054105 0.36926684
		 0.59048837 0.20570606 0.6491037 0.18400726 0.65405631 0.18971455 0.628025 0.16660616
		 0.6401794 0.16660616 0.61792254 0.18400723 0.60404563 0.20570606 0.6089983 0.21536294
		 0.62905097 0.15773097 0.65244478 0.1794298 0.65739739 0.16343829 0.67642409 0.14032985
		 0.66632164 0.14032985 0.68857855 0.15773097 0.7024554 0.1794298 0.69750285 0.18908668
		 0.67745006 0.35960993 0.69944823 0.3379111 0.70440078 0.34361839 0.67836952 0.32051
		 0.69052386 0.32051 0.66826707 0.3379111 0.6543901 0.3596099 0.65934277 0.36926684
		 0.67939544 0.11643967 0.6820268 0.1381385 0.68697941 0.12214702 0.70600623 0.099038601
		 0.69590378 0.099038631 0.71816057 0.1164397 0.73203748 0.1381385 0.72708488 0.14779538
		 0.70703214 0.31831864 0.72903025 0.29661986 0.73398286 0.30232716 0.70795161 0.27921876
		 0.72010595 0.27921873 0.69784915 0.29661983 0.68397218 0.31831861 0.68892479 0.32797554
		 0.70897752 0.11643967 0.53204197 0.1381385 0.53699458 0.12214702 0.55602133 0.099038601
		 0.54591888 0.099038631 0.56817567 0.1164397 0.58205265 0.1381385 0.57709998 0.14779538
		 0.55704731 0.27327362 0.57602489 0.25157481 0.58097744 0.25728208 0.55494618 0.23417376
		 0.56710052 0.23417372 0.54484373 0.25157478 0.53096676 0.27327359 0.53591937 0.28293052
		 0.5559721 0.23280607 0.6059593 0.25450483 0.61091185 0.23851332 0.6299386 0.21540497
		 0.61983609;
	setAttr ".uvst[0].uvsp[250:499]" 0.21540497 0.642093 0.23280607 0.65596986
		 0.25450486 0.65101731 0.26416174 0.63096452 0.29204237 0.68553346 0.27034357 0.69048613
		 0.27605087 0.66445482 0.25294247 0.67660916 0.25294247 0.65435237 0.27034357 0.64047545
		 0.29204237 0.64542806 0.30169925 0.66548079 0.19292906 0.83067906 0.16481321 0.83067906
		 0.16481321 0.0089485347 0.19292906 0.0089485347 0.2230964 0.0089485347 0.19498058
		 0.0089485347 0.19498058 0.83067906 0.2230964 0.83067906 0.25326377 0.83067906 0.22514795
		 0.83067906 0.22514795 0.0089485347 0.25326377 0.0089485347 0.28343114 0.0089485347
		 0.25531527 0.0089485347 0.25531527 0.83067906 0.28343114 0.83067906 0.83067852 0.86671484
		 0.0089485347 0.86671484 0.0089485347 0.89779896 0.83067852 0.89779896 0.0089485347
		 0.89779896 0.83067852 0.89779896 0.83067852 0.92888319 0.0089485347 0.92888319 0.83067918
		 0.92888319 0.0089485347 0.92888319 0.0089485347 0.95996732 0.83067918 0.95996732
		 0.0089485347 0.95996732 0.83067918 0.95996732 0.83067918 0.99105144 0.0089485347
		 0.99105144 0.27291965 0.21125495 0.28117782 0.21125495 0.26817337 0.21125495 0.25991517
		 0.21125495 0.27024212 0.18063873 0.27850029 0.18063873 0.26549584 0.18063873 0.25723764
		 0.18063873 0.26903823 0.14685532 0.27695626 0.14685532 0.26395178 0.14685532 0.25603375
		 0.14685532 0.27138779 0.11518341 0.27964595 0.11518341 0.2666415 0.11518341 0.2583833
		 0.11518341 0.28171784 0.084567189 0.289976 0.084567189 0.27697149 0.084567189 0.26871333
		 0.084567189 0.29222476 0.051626176 0.30048293 0.051626176 0.28747845 0.051626176
		 0.27922028 0.051626176 0.30739272 0.028826803 0.31627041 0.028826803 0.30326593 0.028826803
		 0.29438823 0.028826803 0.32696766 0.0089485347 0.33563665 0.0089485347 0.32263216
		 0.0089485347 0.31396317 0.0089485347 0.35884947 0.0089485347 0.33073369 0.0089485347
		 0.33073369 0.040032715 0.35884947 0.040032715 0.38901684 0.040032715 0.36090106 0.040032715
		 0.36090106 0.0089485347 0.38901684 0.0089485347 0.0089485347 0.12379402 0.0089485347
		 0.16207582 0.99105144 0.16207582 0.99105144 0.12379402 0.99104995 0.0089485347 0.99104995
		 0.047230393 0.0089485347 0.047230393 0.0089485347 0.0089485347 0.0089485347 0.047230393
		 0.0089485347 0.085512251 0.99104995 0.085512251 0.99104995 0.047230393 0.99105114
		 0.21133384 0.0089485347 0.21133384 0.0089485347 0.23596281 0.99105114 0.23596281
		 0.0089485347 0.23596281 0.99105114 0.23596281 0.99105114 0.2605918 0.0089485347 0.2605918
		 0.28548265 0.034517825 0.29379061 0.0089485347 0.30723318 0.027450651 0.32067579
		 0.0089485347 0.32898375 0.034517825 0.30723318 0.050320506 0.042016711 0.0089485347
		 0.071788713 0.0089485347 0.071788713 0.86671484 0.042016711 0.86671484 0.10002091
		 0.0089485347 0.10002091 0.86671484 0.12979293 0.86671484 0.0089485347 0.0089485347
		 0.0089485347 0.86671484 0.12979293 0.0089485347 0.16286111 0.0089485347 0.16286111
		 0.86671484 0.3522861 0.53071851 0.32659701 0.53071851 0.32659701 0.0089485347 0.3522861
		 0.0089485347 0.30924875 0.53071851 0.30924875 0.0089485347 0.36697158 0.53071851
		 0.36697158 0.0089485347 0.36930883 0.0089485347 0.38973808 0.0089485347 0.38973808
		 0.48468152 0.36930883 0.48468152 0.41151461 0.0089485347 0.41151461 0.48468152 0.88753754
		 0.48775247 0.86480415 0.48775247 0.86480415 0.0089485347 0.88753754 0.0089485347
		 0.90673935 0.48775247 0.90673935 0.0089485347 0.68462408 0.0089485347 0.70817053
		 0.0089485347 0.70817053 0.49339357 0.68462408 0.49339357 0.72607082 0.0089485347
		 0.72607082 0.49339357 0.57175243 0.48584968 0.54948896 0.48584968 0.54948896 0.0089485347
		 0.57175243 0.0089485347 0.59159136 0.48584968 0.59159136 0.0089485347 0.14265049
		 0.0089485347 0.1682767 0.0089485347 0.1682767 0.53200018 0.14265049 0.53200018 0.18664998
		 0.0089485347 0.18664998 0.53200018 0.12906864 0.0089485347 0.12906864 0.53200018
		 0.05117023 0.53021967 0.025456637 0.53021967 0.025456637 0.0089485347 0.05117023
		 0.0089485347 0.0089485347 0.53021967 0.0089485347 0.0089485347 0.066726595 0.53021967
		 0.066726595 0.0089485347 0.45939887 0.48490876 0.4802812 0.48490876 0.4802812 0.96018696
		 0.45939887 0.96018696 0.50164503 0.48490876 0.50164503 0.96018696 0.45645273 0.96327692
		 0.43417728 0.96327692 0.43417728 0.48633659 0.45645273 0.48633659 0.41435391 0.96327692
		 0.41435391 0.48633659 0.087407917 0.0089485347 0.11303207 0.0089485347 0.11303207
		 0.53204286 0.087407917 0.53204286 0.12658525 0.0089485347 0.12658525 0.53204286 0.069008529
		 0.0089485347 0.069008529 0.53204286 0.77162808 0.48748022 0.74895078 0.48748022 0.74895078
		 0.0089485347 0.77162808 0.0089485347 0.72966909 0.48748022 0.72966909 0.0089485347
		 0.52225566 0.0089485347 0.54585135 0.0089485347 0.54585135 0.49385434 0.52225566
		 0.49385434 0.50444394 0.0089485347 0.50444394 0.49385434 0.84249258 0.96327627 0.81975913
		 0.96327627 0.81975913 0.4844726 0.84249258 0.4844726 0.86169434 0.96327627 0.86169434
		 0.4844726 0.59453404 0.0089485347 0.61808044 0.0089485347 0.61808044 0.49339354 0.59453404
		 0.49339354 0.63598078 0.0089485347 0.63598078 0.49339354 0.29247022 0.53096771 0.26679343
		 0.53096771 0.26679343 0.0089485347 0.29247022 0.0089485347 0.24918869 0.53096771
		 0.24918869 0.0089485347 0.30688393 0.53096771 0.30688393 0.0089485347 0.47968444
		 0.0089485347 0.50158453 0.0089485347 0.50158453 0.48490882 0.47968444 0.48490882
		 0.45939887 0.0089485347 0.45939887 0.48490882 0.45641333 0.48633656 0.43400815 0.48633656
		 0.43400815 0.0089485347 0.45641333 0.0089485347 0.41435385 0.48633656 0.41435385
		 0.0089485347 0.20780826 0.0089485347 0.23340827 0.0089485347 0.23340827 0.53253382
		 0.20780826 0.53253382 0.24665138 0.0089485347 0.24665138 0.53253382 0.18912867 0.0089485347
		 0.18912867 0.53253382 0.7974475 0.96327662 0.77471411 0.96327662 0.77471411 0.48447278
		 0.7974475 0.48447278 0.81664926 0.96327662 0.81664926 0.48447278 0.63957906 0.0089485347
		 0.66312551 0.0089485347;
	setAttr ".uvst[0].uvsp[500:591]" 0.66312551 0.49339354 0.63957906 0.49339354
		 0.6810258 0.0089485347 0.6810258 0.49339354 0.68462408 0.49339357 0.70674145 0.49339357
		 0.70674145 0.94730473 0.68462408 0.94730473 0.030733794 0.99105144 0.0089485347 0.99105144
		 0.0089485347 0.53021967 0.030733794 0.53021967 0.90984923 0.0089485347 0.93148309
		 0.0089485347 0.93148309 0.48447257 0.90984923 0.48447257 0.95207363 0.0089485347
		 0.95207363 0.48447257 0.09875825 0.9834075 0.076516092 0.9834075 0.076516092 0.53204286
		 0.09875825 0.53204286 0.93204421 0.9367972 0.90984923 0.9367972 0.90984923 0.48447257
		 0.93204421 0.48447257 0.50444388 0.49385434 0.52604121 0.49385434 0.52604121 0.95869708
		 0.50444388 0.95869708 0.93237174 0.48447257 0.954404 0.48447257 0.954404 0.94013882
		 0.93237174 0.94013882 0.57140249 0.94398427 0.54948896 0.94398427 0.54948896 0.48584968
		 0.57140249 0.48584968 0.63864857 0.95834887 0.61705655 0.95834887 0.61705655 0.49339357
		 0.63864857 0.49339357 0.053993553 0.53204286 0.076190084 0.53204286 0.076190084 0.98433524
		 0.053993553 0.98433524 0.63957906 0.49339357 0.66181713 0.49339357 0.66181713 0.94483978
		 0.63957906 0.94483978 0.41152549 0.96029198 0.39100641 0.96029198 0.39100641 0.48468152
		 0.41152549 0.48468152 0.36930877 0.96029198 0.36930877 0.48468152 0.81975913 0.0089485347
		 0.84139311 0.0089485347 0.84139311 0.4844726 0.81975913 0.4844726 0.86198348 0.0089485347
		 0.86198348 0.4844726 0.68434381 0.94475764 0.66210157 0.94475764 0.66210157 0.49339357
		 0.68434381 0.49339357 0.031471044 0.53021967 0.053610653 0.53021967 0.053610653 0.98367608
		 0.031471044 0.98367608 0.88654584 0.94950992 0.86480415 0.94950992 0.86480415 0.48775247
		 0.88654584 0.48775247 0.59354562 0.95205534 0.57201147 0.95205534 0.57201147 0.48584968
		 0.59354562 0.48584968 0.59453404 0.49339357 0.61674637 0.49339357 0.61674637 0.94536519
		 0.59453404 0.94536519 0.77471411 0.0089485347 0.79634804 0.0089485347 0.79634804
		 0.48447281 0.77471411 0.48447281 0.81693846 0.0089485347 0.81693846 0.48447281 0.75191128
		 0.93884498 0.72966909 0.93884498 0.72966909 0.48748022 0.75191128 0.48748022;
	setAttr ".cuvs" -type "string" "map1";
	setAttr ".dcc" -type "string" "Ambient+Diffuse";
	setAttr ".covm[0]"  0 1 1;
	setAttr ".cdvm[0]"  0 1 1;
	setAttr -s 251 ".vt";
	setAttr ".vt[0:165]"  -0.61977023 0.83037686 -0.82155955 -0.67471999 0.83037686 -0.82155955
		 -0.61977023 0.89112794 -0.82155955 -0.67471999 0.89112794 -0.82155955 -0.61977023 0.89112794 0.78443742
		 -0.67471999 0.89112794 0.78443742 -0.61977023 0.83037686 0.78443742 -0.67471999 0.83037686 0.78443742
		 0.27014399 -0.80322361 -0.79344028 0.20899296 -0.8456912 -0.79344028 0.20406842 -0.91997916 -0.79344028
		 0.25907865 -0.97014707 -0.79344028 0.33259985 -0.95841753 -0.79344028 0.36926904 -0.89362311 -0.79344028
		 0.34147355 -0.82455528 -0.79344028 0.27014399 -0.80322361 0.71541983 0.20899296 -0.8456912 0.71541983
		 0.20406842 -0.91997916 0.71541983 0.25907865 -0.97014707 0.71541983 0.33259985 -0.95841753 0.71541983
		 0.36926904 -0.89362311 0.71541983 0.34147355 -0.82455528 0.71541983 0.28366092 -0.88794816 -0.79344028
		 0.28366092 -0.88794816 0.71541983 -0.64894307 -0.83493072 -0.034847893 -0.63270593 -0.83493072 0.015124932
		 -0.58016139 -0.83493072 0.015124932 -0.56392419 -0.83493072 -0.034847885 -0.60643363 -0.83493072 -0.065732785
		 -0.64894307 1.08451426 -0.034847893 -0.63270593 1.08451426 0.015124932 -0.58016139 1.08451426 0.015124932
		 -0.56392419 1.08451426 -0.034847885 -0.60643363 1.08451426 -0.065732785 -0.60643363 1.08451426 -0.02103574
		 0.74584764 -0.81265801 -0.79344028 0.70247233 -0.87316859 -0.79344028 0.72273737 -0.94480848 -0.79344028
		 0.79138273 -0.97363138 -0.79344028 0.85671711 -0.93793309 -0.79344028 0.8695423 -0.86459506 -0.79344028
		 0.82020074 -0.80884242 -0.79344028 0.74584764 -0.81265801 0.71541983 0.70247233 -0.87316859 0.71541983
		 0.72273737 -0.94480848 0.71541983 0.79138273 -0.97363138 0.71541983 0.85671711 -0.93793309 0.71541983
		 0.8695423 -0.86459506 0.71541983 0.82020074 -0.80884242 0.71541983 0.78698575 -0.88794816 -0.79344028
		 0.78698575 -0.88794816 0.71541983 0.48032343 -0.80716163 -0.79344028 0.40628552 -0.81499338 -0.79344028
		 0.36624673 -0.87776154 -0.79344028 0.39035711 -0.94820046 -0.79344028 0.46046105 -0.97326815 -0.79344028
		 0.52376884 -0.93408811 -0.79344028 0.53260845 -0.86016381 -0.79344028 0.48032343 -0.80716163 0.71541983
		 0.40628552 -0.81499338 0.71541983 0.36624673 -0.87776154 0.71541983 0.39035711 -0.94820046 0.71541983
		 0.46046105 -0.97326815 0.71541983 0.52376884 -0.93408811 0.71541983 0.53260845 -0.86016381 0.71541983
		 0.45143586 -0.88794816 -0.79344028 0.45143586 -0.88794816 0.71541983 0.54281384 -0.84890389 -0.79344028
		 0.54105204 -0.92333406 -0.79344028 0.59814548 -0.97111791 -0.79344028 0.67110151 -0.9562732 -0.79344028
		 0.70498282 -0.88997835 -0.79344028 0.67427611 -0.82215476 -0.79344028 0.60210407 -0.80387491 -0.79344028
		 0.54281384 -0.84890389 0.71541983 0.54105204 -0.92333406 0.71541983 0.59814548 -0.97111791 0.71541983
		 0.67110151 -0.9562732 0.71541983 0.70498282 -0.88997835 0.71541983 0.67427611 -0.82215476 0.71541983
		 0.60210407 -0.80387491 0.71541983 0.61921084 -0.88794816 -0.79344028 0.61921084 -0.88794816 0.71541983
		 -0.64062381 -0.53403693 0.74136972 -0.64062381 -0.53403693 -0.78415513 -0.63192308 0.85932368 0.74136972
		 -0.63192308 0.85932368 -0.78415513 -0.66882509 0.85932368 0.74136972 -0.66882509 0.85932368 -0.78415513
		 -0.67936146 -0.53403693 0.74136972 -0.67936146 -0.53403693 -0.78415513 -0.78250748 0.74833703 -0.78415513
		 -0.78250748 0.74833703 0.74136972 -0.74560547 0.74833697 0.74136972 -0.74560547 0.74833697 -0.78415513
		 -0.84479636 0.62472659 -0.78415513 -0.84479636 0.62472659 0.74136972 -0.80789435 0.62472653 0.74136972
		 -0.80789435 0.62472653 -0.78415513 -0.88999349 0.497352 -0.78415513 -0.88999349 0.497352 0.74136972
		 -0.85309148 0.497352 0.74136972 -0.85309148 0.497352 -0.78415513 -0.92087716 0.36997747 -0.78415513
		 -0.92087716 0.36997747 0.74136972 -0.88397515 0.36997747 0.74136972 -0.88397515 0.36997747 -0.78415513
		 -0.93284184 0.23316774 -0.78415513 -0.93284184 0.23316774 0.74136972 -0.89593977 0.23316772 0.74136972
		 -0.89593977 0.23316772 -0.78415513 -0.93822151 0.082205243 -0.78415513 -0.93822151 0.082205243 0.74136972
		 -0.90283936 0.082205214 0.74136972 -0.90283936 0.082205214 -0.78415513 -0.92772251 -0.059322059 -0.78415513
		 -0.92772251 -0.059322059 0.74136972 -0.89082044 -0.059322089 0.74136972 -0.89082044 -0.059322089 -0.78415513
		 -0.88156217 -0.19613181 -0.78415513 -0.88156217 -0.19613181 0.74136972 -0.84466022 -0.19613184 0.74136972
		 -0.84466022 -0.19613184 -0.78415513 -0.83461148 -0.34333014 -0.78415513 -0.83461148 -0.34333014 0.74136972
		 -0.79770947 -0.34333014 0.74136972 -0.79770947 -0.34333014 -0.78415513 -0.76683301 -0.44521004 -0.78415513
		 -0.76683301 -0.44521004 0.74136972 -0.72716242 -0.44521004 0.74136972 -0.72716242 -0.44521004 -0.78415513
		 -0.61977023 -0.56042951 -0.82155955 -0.67471999 -0.56042951 -0.82155955 -0.61977023 -0.49967843 -0.82155955
		 -0.67471999 -0.49967843 -0.82155955 -0.61977023 -0.49967843 0.78443742 -0.67471999 -0.49967843 0.78443742
		 -0.61977023 -0.56042951 0.78443742 -0.67471999 -0.56042951 0.78443742 0.82375515 -0.84318918 -0.6522817
		 0.82375515 -0.84318918 -0.71488267 0.82375515 -0.8029142 -0.6522817 0.82375515 -0.8029142 -0.71488267
		 -0.78224182 -0.8029142 -0.6522817 -0.78224182 -0.8029142 -0.71488267 -0.78224182 -0.84318918 -0.6522817
		 -0.78224182 -0.84318918 -0.71488267 -0.65361089 -0.84171039 -0.79344028 -0.71697164 -0.80261606 -0.79344028
		 -0.7870416 -0.82777852 -0.79344028 -0.81105667 -0.89824992 -0.79344028 -0.77093303 -0.9609639 -0.79344028
		 -0.69688463 -0.96869552 -0.79344028 -0.64467132 -0.91562271 -0.79344028 -0.65361089 -0.84171039 0.71541983
		 -0.71697164 -0.80261606 0.71541983 -0.7870416 -0.82777852 0.71541983 -0.81105667 -0.89824992 0.71541983
		 -0.77093303 -0.9609639 0.71541983 -0.69688463 -0.96869552 0.71541983 -0.64467132 -0.91562271 0.71541983
		 -0.7258814 -0.88794816 -0.79344028 -0.7258814 -0.88794816 0.71541983 0.82375515 -0.84318918 0.61437225
		 0.82375515 -0.84318918 0.55177128 0.82375515 -0.8029142 0.61437225;
	setAttr ".vt[166:250]" 0.82375515 -0.8029142 0.55177128 -0.78224182 -0.8029142 0.61437225
		 -0.78224182 -0.8029142 0.55177128 -0.78224182 -0.84318918 0.61437225 -0.78224182 -0.84318918 0.55177128
		 -0.11720494 -0.83066267 -0.79344028 -0.13794494 -0.90216655 -0.79344028 -0.094972171 -0.96296364 -0.79344028
		 -0.020645984 -0.96727258 -0.79344028 0.02906448 -0.91184855 -0.79344028 0.016726222 -0.83842707 -0.79344028
		 -0.048369799 -0.80229598 -0.79344028 -0.11720494 -0.83066267 0.71541983 -0.13794494 -0.90216655 0.71541983
		 -0.094972171 -0.96296364 0.71541983 -0.020645984 -0.96727258 0.71541983 0.02906448 -0.91184855 0.71541983
		 0.016726222 -0.83842707 0.71541983 -0.048369799 -0.80229598 0.71541983 -0.053335305 -0.88794816 -0.79344028
		 -0.053335305 -0.88794816 0.71541983 0.07474786 -0.81265801 -0.79344028 0.031372555 -0.87316859 -0.79344028
		 0.051637597 -0.94480848 -0.79344028 0.12028298 -0.97363138 -0.79344028 0.18561734 -0.93793309 -0.79344028
		 0.19844256 -0.86459506 -0.79344028 0.149101 -0.80884242 -0.79344028 0.07474786 -0.81265801 0.71541983
		 0.031372555 -0.87316859 0.71541983 0.051637597 -0.94480848 0.71541983 0.12028298 -0.97363138 0.71541983
		 0.18561734 -0.93793309 0.71541983 0.19844256 -0.86459506 0.71541983 0.149101 -0.80884242 0.71541983
		 0.11588598 -0.88794816 -0.79344028 0.11588598 -0.88794816 0.71541983 -0.63221395 -0.84471577 -0.79344028
		 -0.63811213 -0.9189328 -0.79344028 -0.58376443 -0.9698177 -0.79344028 -0.51009578 -0.95905322 -0.79344028
		 -0.47258016 -0.89474517 -0.79344028 -0.49946761 -0.82531881 -0.79344028 -0.57051134 -0.80305368 -0.79344028
		 -0.63221395 -0.84471577 0.71541983 -0.63811213 -0.9189328 0.71541983 -0.58376443 -0.9698177 0.71541983
		 -0.51009578 -0.95905322 0.71541983 -0.47258016 -0.89474517 0.71541983 -0.49946761 -0.82531881 0.71541983
		 -0.57051134 -0.80305368 0.71541983 -0.55810648 -0.88794816 -0.79344028 -0.55810648 -0.88794816 0.71541983
		 -0.38267025 -0.80249488 -0.79344028 -0.45236486 -0.82867908 -0.79344028 -0.4753471 -0.89949411 -0.79344028
		 -0.43431088 -0.96161479 -0.79344028 -0.36015731 -0.96826297 -0.79344028 -0.30872557 -0.91443247 -0.79344028
		 -0.31874475 -0.84065872 -0.79344028 -0.38267025 -0.80249488 0.71541983 -0.45236486 -0.82867908 0.71541983
		 -0.4753471 -0.89949411 0.71541983 -0.43431088 -0.96161479 0.71541983 -0.36015731 -0.96826297 0.71541983
		 -0.30872557 -0.91443247 0.71541983 -0.31874475 -0.84065872 0.71541983 -0.39033154 -0.88794816 -0.79344028
		 -0.39033154 -0.88794816 0.71541983 -0.2636947 -0.81265801 -0.79344028 -0.30707002 -0.87316859 -0.79344028
		 -0.28680497 -0.94480848 -0.79344028 -0.21815959 -0.97363138 -0.79344028 -0.15282522 -0.93793309 -0.79344028
		 -0.14 -0.86459506 -0.79344028 -0.18934156 -0.80884242 -0.79344028 -0.2636947 -0.81265801 0.71541983
		 -0.30707002 -0.87316859 0.71541983 -0.28680497 -0.94480848 0.71541983 -0.21815959 -0.97363138 0.71541983
		 -0.15282522 -0.93793309 0.71541983 -0.14 -0.86459506 0.71541983 -0.18934156 -0.80884242 0.71541983
		 -0.22255658 -0.88794816 -0.79344028 -0.22255658 -0.88794816 0.71541983;
	setAttr -s 510 ".ed";
	setAttr ".ed[0:165]"  0 1 0 2 3 0 4 5 0 6 7 0 0 2 0 1 3 0 2 4 0 3 5 0 4 6 0
		 5 7 0 6 0 0 7 1 0 8 9 0 9 10 0 10 11 0 11 12 0 12 13 0 13 14 0 14 8 0 15 16 0 16 17 0
		 17 18 0 18 19 0 19 20 0 20 21 0 21 15 0 8 15 1 9 16 1 10 17 1 11 18 1 12 19 1 13 20 1
		 14 21 1 22 8 1 22 9 1 22 10 1 22 11 1 22 12 1 22 13 1 22 14 1 15 23 1 16 23 1 17 23 1
		 18 23 1 19 23 1 20 23 1 21 23 1 24 25 0 25 26 0 26 27 0 27 28 0 28 24 0 29 30 0 30 31 0
		 31 32 0 32 33 0 33 29 0 24 29 0 25 30 0 26 31 0 27 32 0 28 33 0 29 34 1 30 34 1 31 34 1
		 32 34 1 33 34 1 35 36 0 36 37 0 37 38 0 38 39 0 39 40 0 40 41 0 41 35 0 42 43 0 43 44 0
		 44 45 0 45 46 0 46 47 0 47 48 0 48 42 0 35 42 1 36 43 1 37 44 1 38 45 1 39 46 1 40 47 1
		 41 48 1 49 35 1 49 36 1 49 37 1 49 38 1 49 39 1 49 40 1 49 41 1 42 50 1 43 50 1 44 50 1
		 45 50 1 46 50 1 47 50 1 48 50 1 51 52 0 52 53 0 53 54 0 54 55 0 55 56 0 56 57 0 57 51 0
		 58 59 0 59 60 0 60 61 0 61 62 0 62 63 0 63 64 0 64 58 0 51 58 1 52 59 1 53 60 1 54 61 1
		 55 62 1 56 63 1 57 64 1 65 51 1 65 52 1 65 53 1 65 54 1 65 55 1 65 56 1 65 57 1 58 66 1
		 59 66 1 60 66 1 61 66 1 62 66 1 63 66 1 64 66 1 67 68 0 68 69 0 69 70 0 70 71 0 71 72 0
		 72 73 0 73 67 0 74 75 0 75 76 0 76 77 0 77 78 0 78 79 0 79 80 0 80 74 0 67 74 1 68 75 1
		 69 76 1 70 77 1 71 78 1 72 79 1 73 80 1 81 67 1 81 68 1 81 69 1 81 70 1 81 71 1 81 72 1
		 81 73 1 74 82 1;
	setAttr ".ed[166:331]" 75 82 1 76 82 1 77 82 1 78 82 1 79 82 1 80 82 1 83 84 0
		 85 86 0 87 88 0 89 90 0 83 129 0 84 130 0 85 87 0 86 88 0 87 92 0 88 91 0 89 83 0
		 90 84 0 91 95 0 92 96 0 91 92 1 93 85 0 92 93 1 94 86 0 93 94 1 94 91 1 95 99 0 96 100 0
		 95 96 1 97 93 0 96 97 1 98 94 0 97 98 1 98 95 1 99 103 0 100 104 0 99 100 1 101 97 0
		 100 101 1 102 98 0 101 102 1 102 99 1 103 107 0 104 108 0 103 104 1 105 101 0 104 105 1
		 106 102 0 105 106 1 106 103 1 107 111 0 108 112 0 107 108 1 109 105 0 108 109 1 110 106 0
		 109 110 1 110 107 1 111 115 0 112 116 0 111 112 1 113 109 0 112 113 1 114 110 0 113 114 1
		 114 111 1 115 119 0 116 120 0 115 116 1 117 113 0 116 117 1 118 114 0 117 118 1 118 115 1
		 119 123 0 120 124 0 119 120 1 121 117 0 120 121 1 122 118 0 121 122 1 122 119 1 123 127 0
		 124 128 0 123 124 1 125 121 0 124 125 1 126 122 0 125 126 1 126 123 1 127 90 0 128 89 0
		 127 128 1 129 125 0 128 129 1 130 126 0 129 130 1 130 127 1 131 132 0 133 134 0 135 136 0
		 137 138 0 131 133 0 132 134 0 133 135 0 134 136 0 135 137 0 136 138 0 137 131 0 138 132 0
		 139 140 0 141 142 0 143 144 0 145 146 0 139 141 0 140 142 0 141 143 0 142 144 0 143 145 0
		 144 146 0 145 139 0 146 140 0 147 148 0 148 149 0 149 150 0 150 151 0 151 152 0 152 153 0
		 153 147 0 154 155 0 155 156 0 156 157 0 157 158 0 158 159 0 159 160 0 160 154 0 147 154 1
		 148 155 1 149 156 1 150 157 1 151 158 1 152 159 1 153 160 1 161 147 1 161 148 1 161 149 1
		 161 150 1 161 151 1 161 152 1 161 153 1 154 162 1 155 162 1 156 162 1 157 162 1 158 162 1
		 159 162 1 160 162 1 163 164 0 165 166 0 167 168 0 169 170 0 163 165 0 164 166 0 165 167 0
		 166 168 0 167 169 0;
	setAttr ".ed[332:497]" 168 170 0 169 163 0 170 164 0 171 172 0 172 173 0 173 174 0
		 174 175 0 175 176 0 176 177 0 177 171 0 178 179 0 179 180 0 180 181 0 181 182 0 182 183 0
		 183 184 0 184 178 0 171 178 1 172 179 1 173 180 1 174 181 1 175 182 1 176 183 1 177 184 1
		 185 171 1 185 172 1 185 173 1 185 174 1 185 175 1 185 176 1 185 177 1 178 186 1 179 186 1
		 180 186 1 181 186 1 182 186 1 183 186 1 184 186 1 187 188 0 188 189 0 189 190 0 190 191 0
		 191 192 0 192 193 0 193 187 0 194 195 0 195 196 0 196 197 0 197 198 0 198 199 0 199 200 0
		 200 194 0 187 194 1 188 195 1 189 196 1 190 197 1 191 198 1 192 199 1 193 200 1 201 187 1
		 201 188 1 201 189 1 201 190 1 201 191 1 201 192 1 201 193 1 194 202 1 195 202 1 196 202 1
		 197 202 1 198 202 1 199 202 1 200 202 1 203 204 0 204 205 0 205 206 0 206 207 0 207 208 0
		 208 209 0 209 203 0 210 211 0 211 212 0 212 213 0 213 214 0 214 215 0 215 216 0 216 210 0
		 203 210 1 204 211 1 205 212 1 206 213 1 207 214 1 208 215 1 209 216 1 217 203 1 217 204 1
		 217 205 1 217 206 1 217 207 1 217 208 1 217 209 1 210 218 1 211 218 1 212 218 1 213 218 1
		 214 218 1 215 218 1 216 218 1 219 220 0 220 221 0 221 222 0 222 223 0 223 224 0 224 225 0
		 225 219 0 226 227 0 227 228 0 228 229 0 229 230 0 230 231 0 231 232 0 232 226 0 219 226 1
		 220 227 1 221 228 1 222 229 1 223 230 1 224 231 1 225 232 1 233 219 1 233 220 1 233 221 1
		 233 222 1 233 223 1 233 224 1 233 225 1 226 234 1 227 234 1 228 234 1 229 234 1 230 234 1
		 231 234 1 232 234 1 235 236 0 236 237 0 237 238 0 238 239 0 239 240 0 240 241 0 241 235 0
		 242 243 0 243 244 0 244 245 0 245 246 0 246 247 0 247 248 0 248 242 0 235 242 1 236 243 1
		 237 244 1 238 245 1 239 246 1 240 247 1 241 248 1 249 235 1 249 236 1;
	setAttr ".ed[498:509]" 249 237 1 249 238 1 249 239 1 249 240 1 249 241 1 242 250 1
		 243 250 1 244 250 1 245 250 1 246 250 1 247 250 1 248 250 1;
	setAttr -s 290 -ch 1015 ".fc[0:289]" -type "polyFaces" 
		f 4 0 5 -2 -5
		mu 0 4 76 77 78 79
		f 4 1 7 -3 -7
		mu 0 4 262 263 264 265
		f 4 2 9 -4 -9
		mu 0 4 82 85 88 91
		f 4 3 11 -1 -11
		mu 0 4 266 267 268 269
		f 4 -12 -10 -8 -6
		mu 0 4 278 279 280 281
		f 4 10 4 6 8
		mu 0 4 282 283 284 285
		f 4 12 27 -20 -27
		mu 0 4 378 372 375 379
		f 4 13 28 -21 -28
		mu 0 4 372 373 374 375
		f 4 14 29 -22 -29
		mu 0 4 373 376 377 374
		f 4 15 30 -23 -30
		mu 0 4 504 505 506 507
		f 4 16 31 -24 -31
		mu 0 4 380 381 382 383
		f 4 17 32 -25 -32
		mu 0 4 381 384 385 382
		f 4 18 26 -26 -33
		mu 0 4 508 509 510 511
		f 3 -13 -34 34
		mu 0 3 0 1 2
		f 3 -14 -35 35
		mu 0 3 3 0 2
		f 3 -15 -36 36
		mu 0 3 4 3 2
		f 3 -16 -37 37
		mu 0 3 5 4 2
		f 3 -17 -38 38
		mu 0 3 6 5 2
		f 3 -18 -39 39
		mu 0 3 7 6 2
		f 3 -19 -40 33
		mu 0 3 1 7 2
		f 3 19 41 -41
		mu 0 3 8 9 10
		f 3 20 42 -42
		mu 0 3 9 11 10
		f 3 21 43 -43
		mu 0 3 11 12 10
		f 3 22 44 -44
		mu 0 3 12 13 10
		f 3 23 45 -45
		mu 0 3 13 14 10
		f 3 24 46 -46
		mu 0 3 14 15 10
		f 3 25 40 -47
		mu 0 3 15 8 10
		f 4 47 58 -53 -58
		mu 0 4 360 361 362 363
		f 4 48 59 -54 -59
		mu 0 4 361 364 365 362
		f 4 49 60 -55 -60
		mu 0 4 364 369 366 365
		f 4 50 61 -56 -61
		mu 0 4 369 370 371 366
		f 4 51 57 -57 -62
		mu 0 4 367 360 363 368
		f 3 52 63 -63
		mu 0 3 354 355 356
		f 3 53 64 -64
		mu 0 3 355 357 356
		f 3 54 65 -65
		mu 0 3 357 358 356
		f 3 55 66 -66
		mu 0 3 358 359 356
		f 3 56 62 -67
		mu 0 3 359 354 356
		f 4 67 82 -75 -82
		mu 0 4 390 386 389 391
		f 4 68 83 -76 -83
		mu 0 4 386 387 388 389
		f 4 69 84 -77 -84
		mu 0 4 512 513 514 515
		f 4 70 85 -78 -85
		mu 0 4 513 516 517 514
		f 4 71 86 -79 -86
		mu 0 4 392 393 394 395
		f 4 72 87 -80 -87
		mu 0 4 393 396 397 394
		f 4 73 81 -81 -88
		mu 0 4 518 519 520 521
		f 3 -68 -89 89
		mu 0 3 16 17 18
		f 3 -69 -90 90
		mu 0 3 19 16 18
		f 3 -70 -91 91
		mu 0 3 20 19 18
		f 3 -71 -92 92
		mu 0 3 21 20 18
		f 3 -72 -93 93
		mu 0 3 22 21 18
		f 3 -73 -94 94
		mu 0 3 23 22 18
		f 3 -74 -95 88
		mu 0 3 17 23 18
		f 3 74 96 -96
		mu 0 3 24 25 26
		f 3 75 97 -97
		mu 0 3 25 27 26
		f 3 76 98 -98
		mu 0 3 27 28 26
		f 3 77 99 -99
		mu 0 3 28 29 26
		f 3 78 100 -100
		mu 0 3 29 30 26
		f 3 79 101 -101
		mu 0 3 30 31 26
		f 3 80 95 -102
		mu 0 3 31 24 26
		f 4 102 117 -110 -117
		mu 0 4 522 523 524 525
		f 4 103 118 -111 -118
		mu 0 4 402 398 401 403
		f 4 104 119 -112 -119
		mu 0 4 398 399 400 401
		f 4 105 120 -113 -120
		mu 0 4 526 527 528 529
		f 4 106 121 -114 -121
		mu 0 4 410 404 407 411
		f 4 107 122 -115 -122
		mu 0 4 404 405 406 407
		f 4 108 116 -116 -123
		mu 0 4 405 408 409 406
		f 3 -103 -124 124
		mu 0 3 32 33 34
		f 3 -104 -125 125
		mu 0 3 35 32 34
		f 3 -105 -126 126
		mu 0 3 36 35 34
		f 3 -106 -127 127
		mu 0 3 37 36 34
		f 3 -107 -128 128
		mu 0 3 38 37 34
		f 3 -108 -129 129
		mu 0 3 39 38 34
		f 3 -109 -130 123
		mu 0 3 33 39 34
		f 3 109 131 -131
		mu 0 3 40 41 42
		f 3 110 132 -132
		mu 0 3 41 43 42
		f 3 111 133 -133
		mu 0 3 43 44 42
		f 3 112 134 -134
		mu 0 3 44 45 42
		f 3 113 135 -135
		mu 0 3 45 46 42
		f 3 114 136 -136
		mu 0 3 46 47 42
		f 3 115 130 -137
		mu 0 3 47 40 42
		f 4 137 152 -145 -152
		mu 0 4 412 413 414 415
		f 4 138 153 -146 -153
		mu 0 4 413 416 417 414
		f 4 139 154 -147 -154
		mu 0 4 530 531 532 533
		f 4 140 155 -148 -155
		mu 0 4 420 421 422 423
		f 4 141 156 -149 -156
		mu 0 4 421 424 425 422
		f 4 142 157 -150 -157
		mu 0 4 534 535 536 537
		f 4 143 151 -151 -158
		mu 0 4 418 412 415 419
		f 3 -138 -159 159
		mu 0 3 48 49 50
		f 3 -139 -160 160
		mu 0 3 51 48 50
		f 3 -140 -161 161
		mu 0 3 52 51 50
		f 3 -141 -162 162
		mu 0 3 53 52 50
		f 3 -142 -163 163
		mu 0 3 54 53 50
		f 3 -143 -164 164
		mu 0 3 55 54 50
		f 3 -144 -165 158
		mu 0 3 49 55 50
		f 3 144 166 -166
		mu 0 3 56 57 58
		f 3 145 167 -167
		mu 0 3 57 59 58
		f 3 146 168 -168
		mu 0 3 59 60 58
		f 3 147 169 -169
		mu 0 3 60 61 58
		f 3 148 170 -170
		mu 0 3 61 62 58
		f 3 149 171 -171
		mu 0 3 62 63 58
		f 3 150 165 -172
		mu 0 3 63 56 58
		f 4 190 189 -174 -188
		mu 0 4 64 65 66 67
		f 4 173 179 -175 -179
		mu 0 4 67 66 68 69
		f 4 174 181 186 -181
		mu 0 4 69 68 70 71
		f 4 175 183 -173 -183
		mu 0 4 72 73 74 75
		f 4 191 -182 -180 -190
		mu 0 4 94 97 100 103
		f 4 188 187 178 180
		mu 0 4 106 109 112 115
		f 4 -187 184 194 -186
		mu 0 4 71 70 80 81
		f 4 196 195 -189 185
		mu 0 4 118 121 109 106
		f 4 198 197 -191 -196
		mu 0 4 83 84 65 64
		f 4 199 -185 -192 -198
		mu 0 4 124 127 97 94
		f 4 -195 192 202 -194
		mu 0 4 81 80 86 87
		f 4 204 203 -197 193
		mu 0 4 130 133 121 118
		f 4 206 205 -199 -204
		mu 0 4 89 90 84 83
		f 4 207 -193 -200 -206
		mu 0 4 134 137 127 124
		f 4 -203 200 210 -202
		mu 0 4 87 86 92 93
		f 4 212 211 -205 201
		mu 0 4 294 295 133 130
		f 4 214 213 -207 -212
		mu 0 4 95 96 90 89
		f 4 215 -201 -208 -214
		mu 0 4 296 297 137 134
		f 4 -211 208 218 -210
		mu 0 4 93 92 98 99
		f 4 220 219 -213 209
		mu 0 4 298 299 295 294
		f 4 222 221 -215 -220
		mu 0 4 101 102 96 95
		f 4 223 -209 -216 -222
		mu 0 4 300 301 297 296
		f 4 -219 216 226 -218
		mu 0 4 99 98 104 105
		f 4 228 227 -221 217
		mu 0 4 302 303 299 298
		f 4 230 229 -223 -228
		mu 0 4 107 108 102 101
		f 4 231 -217 -224 -230
		mu 0 4 304 305 301 300
		f 4 -227 224 234 -226
		mu 0 4 105 104 110 111
		f 4 236 235 -229 225
		mu 0 4 306 307 303 302
		f 4 238 237 -231 -236
		mu 0 4 113 114 108 107
		f 4 239 -225 -232 -238
		mu 0 4 308 309 305 304
		f 4 -235 232 242 -234
		mu 0 4 111 110 116 117
		f 4 244 243 -237 233
		mu 0 4 310 311 307 306
		f 4 246 245 -239 -244
		mu 0 4 119 120 114 113
		f 4 247 -233 -240 -246
		mu 0 4 312 313 309 308
		f 4 -243 240 250 -242
		mu 0 4 117 116 122 123
		f 4 252 251 -245 241
		mu 0 4 314 315 311 310
		f 4 254 253 -247 -252
		mu 0 4 125 126 120 119
		f 4 255 -241 -248 -254
		mu 0 4 316 317 313 312
		f 4 -251 248 258 -250
		mu 0 4 123 122 128 129
		f 4 260 259 -253 249
		mu 0 4 318 319 315 314
		f 4 262 261 -255 -260
		mu 0 4 131 132 126 125
		f 4 263 -249 -256 -262
		mu 0 4 320 321 317 316
		f 4 -259 256 -176 -258
		mu 0 4 129 128 73 72
		f 4 182 176 -261 257
		mu 0 4 322 323 319 318
		f 4 172 177 -263 -177
		mu 0 4 135 136 132 131
		f 4 -184 -257 -264 -178
		mu 0 4 324 325 321 320
		f 4 264 269 -266 -269
		mu 0 4 326 327 328 329
		f 4 265 271 -267 -271
		mu 0 4 270 271 272 273
		f 4 266 273 -268 -273
		mu 0 4 330 331 332 333
		f 4 267 275 -265 -275
		mu 0 4 274 275 276 277
		f 4 -276 -274 -272 -270
		mu 0 4 286 287 288 289
		f 4 274 268 270 272
		mu 0 4 290 291 292 293
		f 4 276 281 -278 -281
		mu 0 4 138 139 140 141
		f 4 277 283 -279 -283
		mu 0 4 146 147 176 177
		f 4 278 285 -280 -285
		mu 0 4 142 143 144 145
		f 4 279 287 -277 -287
		mu 0 4 334 335 336 337
		f 4 -288 -286 -284 -282
		mu 0 4 148 149 150 151
		f 4 286 280 282 284
		mu 0 4 178 179 180 181
		f 4 288 303 -296 -303
		mu 0 4 433 436 437 434
		f 4 289 304 -297 -304
		mu 0 4 538 539 540 541
		f 4 290 305 -298 -305
		mu 0 4 426 427 428 429
		f 4 291 306 -299 -306
		mu 0 4 427 430 431 428
		f 4 292 307 -300 -307
		mu 0 4 542 543 544 545
		f 4 293 308 -301 -308
		mu 0 4 438 432 435 439
		f 4 294 302 -302 -309
		mu 0 4 432 433 434 435
		f 3 -289 -310 310
		mu 0 3 152 153 154
		f 3 -290 -311 311
		mu 0 3 155 152 154
		f 3 -291 -312 312
		mu 0 3 156 155 154
		f 3 -292 -313 313
		mu 0 3 157 156 154
		f 3 -293 -314 314
		mu 0 3 158 157 154
		f 3 -294 -315 315
		mu 0 3 159 158 154
		f 3 -295 -316 309
		mu 0 3 153 159 154
		f 3 295 317 -317
		mu 0 3 160 161 162
		f 3 296 318 -318
		mu 0 3 161 163 162
		f 3 297 319 -319
		mu 0 3 163 164 162
		f 3 298 320 -320
		mu 0 3 164 165 162
		f 3 299 321 -321
		mu 0 3 165 166 162
		f 3 300 322 -322
		mu 0 3 166 167 162
		f 3 301 316 -323
		mu 0 3 167 160 162
		f 4 323 328 -325 -328
		mu 0 4 168 169 170 171
		f 4 324 330 -326 -330
		mu 0 4 338 339 340 341
		f 4 325 332 -327 -332
		mu 0 4 172 173 174 175
		f 4 326 334 -324 -334
		mu 0 4 342 343 344 345
		f 4 -335 -333 -331 -329
		mu 0 4 346 347 348 349
		f 4 333 327 329 331
		mu 0 4 350 351 352 353
		f 4 335 350 -343 -350
		mu 0 4 440 441 442 443
		f 4 336 351 -344 -351
		mu 0 4 441 444 445 442
		f 4 337 352 -345 -352
		mu 0 4 546 547 548 549
		f 4 338 353 -346 -353
		mu 0 4 450 446 449 451
		f 4 339 354 -347 -354
		mu 0 4 446 447 448 449
		f 4 340 355 -348 -355
		mu 0 4 550 551 552 553
		f 4 341 349 -349 -356
		mu 0 4 551 554 555 552
		f 3 -336 -357 357
		mu 0 3 182 183 184
		f 3 -337 -358 358
		mu 0 3 185 182 184
		f 3 -338 -359 359
		mu 0 3 186 185 184
		f 3 -339 -360 360
		mu 0 3 187 186 184
		f 3 -340 -361 361
		mu 0 3 188 187 184
		f 3 -341 -362 362
		mu 0 3 189 188 184
		f 3 -342 -363 356
		mu 0 3 183 189 184
		f 3 342 364 -364
		mu 0 3 190 191 192
		f 3 343 365 -365
		mu 0 3 191 193 192
		f 3 344 366 -366
		mu 0 3 193 194 192
		f 3 345 367 -367
		mu 0 3 194 195 192
		f 3 346 368 -368
		mu 0 3 195 196 192
		f 3 347 369 -369
		mu 0 3 196 197 192
		f 3 348 363 -370
		mu 0 3 197 190 192
		f 4 370 385 -378 -385
		mu 0 4 456 452 455 457
		f 4 371 386 -379 -386
		mu 0 4 452 453 454 455
		f 4 372 387 -380 -387
		mu 0 4 556 557 558 559
		f 4 373 388 -381 -388
		mu 0 4 557 560 561 558
		f 4 374 389 -382 -389
		mu 0 4 458 459 460 461
		f 4 375 390 -383 -390
		mu 0 4 459 462 463 460
		f 4 376 384 -384 -391
		mu 0 4 562 563 564 565
		f 3 -371 -392 392
		mu 0 3 198 199 200
		f 3 -372 -393 393
		mu 0 3 201 198 200
		f 3 -373 -394 394
		mu 0 3 202 201 200
		f 3 -374 -395 395
		mu 0 3 203 202 200
		f 3 -375 -396 396
		mu 0 3 204 203 200
		f 3 -376 -397 397
		mu 0 3 205 204 200
		f 3 -377 -398 391
		mu 0 3 199 205 200
		f 3 377 399 -399
		mu 0 3 206 207 208
		f 3 378 400 -400
		mu 0 3 207 209 208
		f 3 379 401 -401
		mu 0 3 209 210 208
		f 3 380 402 -402
		mu 0 3 210 211 208
		f 3 381 403 -403
		mu 0 3 211 212 208
		f 3 382 404 -404
		mu 0 3 212 213 208
		f 3 383 398 -405
		mu 0 3 213 206 208
		f 4 405 420 -413 -420
		mu 0 4 464 465 466 467
		f 4 406 421 -414 -421
		mu 0 4 465 468 469 466
		f 4 407 422 -415 -422
		mu 0 4 566 567 568 569
		f 4 408 423 -416 -423
		mu 0 4 476 472 475 477
		f 4 409 424 -417 -424
		mu 0 4 472 473 474 475
		f 4 410 425 -418 -425
		mu 0 4 570 571 572 573
		f 4 411 419 -419 -426
		mu 0 4 470 464 467 471
		f 3 -406 -427 427
		mu 0 3 214 215 216
		f 3 -407 -428 428
		mu 0 3 217 214 216
		f 3 -408 -429 429
		mu 0 3 218 217 216
		f 3 -409 -430 430
		mu 0 3 219 218 216
		f 3 -410 -431 431
		mu 0 3 220 219 216
		f 3 -411 -432 432
		mu 0 3 221 220 216
		f 3 -412 -433 426
		mu 0 3 215 221 216
		f 3 412 434 -434
		mu 0 3 222 223 224
		f 3 413 435 -435
		mu 0 3 223 225 224
		f 3 414 436 -436
		mu 0 3 225 226 224
		f 3 415 437 -437
		mu 0 3 226 227 224
		f 3 416 438 -438
		mu 0 3 227 228 224
		f 3 417 439 -439
		mu 0 3 228 229 224
		f 3 418 433 -440
		mu 0 3 229 222 224
		f 4 440 455 -448 -455
		mu 0 4 574 575 576 577
		f 4 441 456 -449 -456
		mu 0 4 478 479 480 481
		f 4 442 457 -450 -457
		mu 0 4 479 482 483 480
		f 4 443 458 -451 -458
		mu 0 4 578 579 580 581
		f 4 444 459 -452 -459
		mu 0 4 490 484 487 491
		f 4 445 460 -453 -460
		mu 0 4 484 485 486 487
		f 4 446 454 -454 -461
		mu 0 4 485 488 489 486
		f 3 -441 -462 462
		mu 0 3 230 231 232
		f 3 -442 -463 463
		mu 0 3 233 230 232
		f 3 -443 -464 464
		mu 0 3 234 233 232
		f 3 -444 -465 465
		mu 0 3 235 234 232
		f 3 -445 -466 466
		mu 0 3 236 235 232
		f 3 -446 -467 467
		mu 0 3 237 236 232
		f 3 -447 -468 461
		mu 0 3 231 237 232
		f 3 447 469 -469
		mu 0 3 238 239 240
		f 3 448 470 -470
		mu 0 3 239 241 240
		f 3 449 471 -471
		mu 0 3 241 242 240
		f 3 450 472 -472
		mu 0 3 242 243 240
		f 3 451 473 -473
		mu 0 3 243 244 240
		f 3 452 474 -474
		mu 0 3 244 245 240
		f 3 453 468 -475
		mu 0 3 245 238 240
		f 4 475 490 -483 -490
		mu 0 4 496 492 495 497
		f 4 476 491 -484 -491
		mu 0 4 492 493 494 495
		f 4 477 492 -485 -492
		mu 0 4 582 583 584 585
		f 4 478 493 -486 -493
		mu 0 4 583 586 587 584
		f 4 479 494 -487 -494
		mu 0 4 498 499 500 501
		f 4 480 495 -488 -495
		mu 0 4 499 502 503 500
		f 4 481 489 -489 -496
		mu 0 4 588 589 590 591
		f 3 -476 -497 497
		mu 0 3 246 247 248
		f 3 -477 -498 498
		mu 0 3 249 246 248
		f 3 -478 -499 499
		mu 0 3 250 249 248
		f 3 -479 -500 500
		mu 0 3 251 250 248
		f 3 -480 -501 501
		mu 0 3 252 251 248
		f 3 -481 -502 502
		mu 0 3 253 252 248
		f 3 -482 -503 496
		mu 0 3 247 253 248
		f 3 482 504 -504
		mu 0 3 254 255 256
		f 3 483 505 -505
		mu 0 3 255 257 256
		f 3 484 506 -506
		mu 0 3 257 258 256
		f 3 485 507 -507
		mu 0 3 258 259 256
		f 3 486 508 -508
		mu 0 3 259 260 256
		f 3 487 509 -509
		mu 0 3 260 261 256
		f 3 488 503 -510
		mu 0 3 261 254 256;
	setAttr ".cd" -type "dataPolyComponent" Index_Data Edge 0 ;
	setAttr ".cvd" -type "dataPolyComponent" Index_Data Vertex 0 ;
	setAttr ".pd[0]" -type "dataPolyComponent" Index_Data UV 0 ;
	setAttr ".hfd" -type "dataPolyComponent" Index_Data Face 0 ;
createNode lightLinker -s -n "lightLinker1";
	rename -uid "34DDAE93-4448-60DB-89A4-B29695919A86";
	setAttr -s 6 ".lnk";
	setAttr -s 6 ".slnk";
createNode shapeEditorManager -n "shapeEditorManager";
	rename -uid "1CDF258A-41FA-AC5A-D7E3-FAB837A07876";
createNode poseInterpolatorManager -n "poseInterpolatorManager";
	rename -uid "75BD440B-48C8-F8DA-15CF-4C90FC30B56D";
createNode displayLayerManager -n "layerManager";
	rename -uid "622696C7-43BF-6ED5-7D79-DDA12115B739";
createNode displayLayer -n "defaultLayer";
	rename -uid "2C7CE011-43BF-F203-D43C-58888796B3E7";
createNode renderLayerManager -n "renderLayerManager";
	rename -uid "649F3C0C-4AF0-8865-7CE8-8C9E49B133B2";
createNode renderLayer -n "defaultRenderLayer";
	rename -uid "2595DE66-4555-A98E-D34A-26ACCE19E1D4";
	setAttr ".g" yes;
createNode script -n "uiConfigurationScriptNode";
	rename -uid "788B2588-4DE5-7D15-0128-2A877AFC5F9D";
	setAttr ".b" -type "string" (
		"// Maya Mel UI Configuration File.\n//\n//  This script is machine generated.  Edit at your own risk.\n//\n//\n\nglobal string $gMainPane;\nif (`paneLayout -exists $gMainPane`) {\n\n\tglobal int $gUseScenePanelConfig;\n\tint    $useSceneConfig = $gUseScenePanelConfig;\n\tint    $menusOkayInPanels = `optionVar -q allowMenusInPanels`;\tint    $nVisPanes = `paneLayout -q -nvp $gMainPane`;\n\tint    $nPanes = 0;\n\tstring $editorName;\n\tstring $panelName;\n\tstring $itemFilterName;\n\tstring $panelConfig;\n\n\t//\n\t//  get current state of the UI\n\t//\n\tsceneUIReplacement -update $gMainPane;\n\n\t$panelName = `sceneUIReplacement -getNextPanel \"modelPanel\" (localizedPanelLabel(\"Top View\")) `;\n\tif (\"\" != $panelName) {\n\t\t$label = `panel -q -label $panelName`;\n\t\tmodelPanel -edit -l (localizedPanelLabel(\"Top View\")) -mbv $menusOkayInPanels  $panelName;\n\t\t$editorName = $panelName;\n        modelEditor -e \n            -camera \"top\" \n            -useInteractiveMode 0\n            -displayLights \"default\" \n            -displayAppearance \"smoothShaded\" \n            -activeOnly 0\n"
		+ "            -ignorePanZoom 0\n            -wireframeOnShaded 0\n            -headsUpDisplay 1\n            -holdOuts 1\n            -selectionHiliteDisplay 1\n            -useDefaultMaterial 0\n            -bufferMode \"double\" \n            -twoSidedLighting 0\n            -backfaceCulling 0\n            -xray 0\n            -jointXray 0\n            -activeComponentsXray 0\n            -displayTextures 0\n            -smoothWireframe 0\n            -lineWidth 1\n            -textureAnisotropic 0\n            -textureHilight 1\n            -textureSampling 2\n            -textureDisplay \"modulate\" \n            -textureMaxSize 16384\n            -fogging 0\n            -fogSource \"fragment\" \n            -fogMode \"linear\" \n            -fogStart 0\n            -fogEnd 100\n            -fogDensity 0.1\n            -fogColor 0.5 0.5 0.5 1 \n            -depthOfFieldPreview 1\n            -maxConstantTransparency 1\n            -rendererName \"vp2Renderer\" \n            -objectFilterShowInHUD 1\n            -isFiltered 0\n            -colorResolution 256 256 \n"
		+ "            -bumpResolution 512 512 \n            -textureCompression 0\n            -transparencyAlgorithm \"frontAndBackCull\" \n            -transpInShadows 0\n            -cullingOverride \"none\" \n            -lowQualityLighting 0\n            -maximumNumHardwareLights 1\n            -occlusionCulling 0\n            -shadingModel 0\n            -useBaseRenderer 0\n            -useReducedRenderer 0\n            -smallObjectCulling 0\n            -smallObjectThreshold -1 \n            -interactiveDisableShadows 0\n            -interactiveBackFaceCull 0\n            -sortTransparent 1\n            -nurbsCurves 1\n            -nurbsSurfaces 1\n            -polymeshes 1\n            -subdivSurfaces 1\n            -planes 1\n            -lights 1\n            -cameras 1\n            -controlVertices 1\n            -hulls 1\n            -grid 1\n            -imagePlane 1\n            -joints 1\n            -ikHandles 1\n            -deformers 1\n            -dynamics 1\n            -particleInstancers 1\n            -fluids 1\n            -hairSystems 1\n"
		+ "            -follicles 1\n            -nCloths 1\n            -nParticles 1\n            -nRigids 1\n            -dynamicConstraints 1\n            -locators 1\n            -manipulators 1\n            -pluginShapes 1\n            -dimensions 1\n            -handles 1\n            -pivots 1\n            -textures 1\n            -strokes 1\n            -motionTrails 1\n            -clipGhosts 1\n            -greasePencils 1\n            -shadows 0\n            -captureSequenceNumber -1\n            -width 388\n            -height 384\n            -sceneRenderFilter 0\n            $editorName;\n        modelEditor -e -viewSelected 0 $editorName;\n\t\tif (!$useSceneConfig) {\n\t\t\tpanel -e -l $label $panelName;\n\t\t}\n\t}\n\n\n\t$panelName = `sceneUIReplacement -getNextPanel \"modelPanel\" (localizedPanelLabel(\"Side View\")) `;\n\tif (\"\" != $panelName) {\n\t\t$label = `panel -q -label $panelName`;\n\t\tmodelPanel -edit -l (localizedPanelLabel(\"Side View\")) -mbv $menusOkayInPanels  $panelName;\n\t\t$editorName = $panelName;\n        modelEditor -e \n            -camera \"side\" \n"
		+ "            -useInteractiveMode 0\n            -displayLights \"default\" \n            -displayAppearance \"wireframe\" \n            -activeOnly 0\n            -ignorePanZoom 0\n            -wireframeOnShaded 0\n            -headsUpDisplay 1\n            -holdOuts 1\n            -selectionHiliteDisplay 1\n            -useDefaultMaterial 0\n            -bufferMode \"double\" \n            -twoSidedLighting 0\n            -backfaceCulling 0\n            -xray 0\n            -jointXray 0\n            -activeComponentsXray 0\n            -displayTextures 0\n            -smoothWireframe 0\n            -lineWidth 1\n            -textureAnisotropic 0\n            -textureHilight 1\n            -textureSampling 2\n            -textureDisplay \"modulate\" \n            -textureMaxSize 16384\n            -fogging 0\n            -fogSource \"fragment\" \n            -fogMode \"linear\" \n            -fogStart 0\n            -fogEnd 100\n            -fogDensity 0.1\n            -fogColor 0.5 0.5 0.5 1 \n            -depthOfFieldPreview 1\n            -maxConstantTransparency 1\n"
		+ "            -rendererName \"vp2Renderer\" \n            -objectFilterShowInHUD 1\n            -isFiltered 0\n            -colorResolution 256 256 \n            -bumpResolution 512 512 \n            -textureCompression 0\n            -transparencyAlgorithm \"frontAndBackCull\" \n            -transpInShadows 0\n            -cullingOverride \"none\" \n            -lowQualityLighting 0\n            -maximumNumHardwareLights 1\n            -occlusionCulling 0\n            -shadingModel 0\n            -useBaseRenderer 0\n            -useReducedRenderer 0\n            -smallObjectCulling 0\n            -smallObjectThreshold -1 \n            -interactiveDisableShadows 0\n            -interactiveBackFaceCull 0\n            -sortTransparent 1\n            -nurbsCurves 1\n            -nurbsSurfaces 1\n            -polymeshes 1\n            -subdivSurfaces 1\n            -planes 1\n            -lights 1\n            -cameras 1\n            -controlVertices 1\n            -hulls 1\n            -grid 1\n            -imagePlane 1\n            -joints 1\n            -ikHandles 1\n"
		+ "            -deformers 1\n            -dynamics 1\n            -particleInstancers 1\n            -fluids 1\n            -hairSystems 1\n            -follicles 1\n            -nCloths 1\n            -nParticles 1\n            -nRigids 1\n            -dynamicConstraints 1\n            -locators 1\n            -manipulators 1\n            -pluginShapes 1\n            -dimensions 1\n            -handles 1\n            -pivots 1\n            -textures 1\n            -strokes 1\n            -motionTrails 1\n            -clipGhosts 1\n            -greasePencils 1\n            -shadows 0\n            -captureSequenceNumber -1\n            -width 387\n            -height 383\n            -sceneRenderFilter 0\n            $editorName;\n        modelEditor -e -viewSelected 0 $editorName;\n\t\tif (!$useSceneConfig) {\n\t\t\tpanel -e -l $label $panelName;\n\t\t}\n\t}\n\n\n\t$panelName = `sceneUIReplacement -getNextPanel \"modelPanel\" (localizedPanelLabel(\"Front View\")) `;\n\tif (\"\" != $panelName) {\n\t\t$label = `panel -q -label $panelName`;\n\t\tmodelPanel -edit -l (localizedPanelLabel(\"Front View\")) -mbv $menusOkayInPanels  $panelName;\n"
		+ "\t\t$editorName = $panelName;\n        modelEditor -e \n            -camera \"front\" \n            -useInteractiveMode 0\n            -displayLights \"default\" \n            -displayAppearance \"smoothShaded\" \n            -activeOnly 0\n            -ignorePanZoom 0\n            -wireframeOnShaded 0\n            -headsUpDisplay 1\n            -holdOuts 1\n            -selectionHiliteDisplay 1\n            -useDefaultMaterial 0\n            -bufferMode \"double\" \n            -twoSidedLighting 0\n            -backfaceCulling 0\n            -xray 0\n            -jointXray 0\n            -activeComponentsXray 0\n            -displayTextures 0\n            -smoothWireframe 0\n            -lineWidth 1\n            -textureAnisotropic 0\n            -textureHilight 1\n            -textureSampling 2\n            -textureDisplay \"modulate\" \n            -textureMaxSize 16384\n            -fogging 0\n            -fogSource \"fragment\" \n            -fogMode \"linear\" \n            -fogStart 0\n            -fogEnd 100\n            -fogDensity 0.1\n            -fogColor 0.5 0.5 0.5 1 \n"
		+ "            -depthOfFieldPreview 1\n            -maxConstantTransparency 1\n            -rendererName \"vp2Renderer\" \n            -objectFilterShowInHUD 1\n            -isFiltered 0\n            -colorResolution 256 256 \n            -bumpResolution 512 512 \n            -textureCompression 0\n            -transparencyAlgorithm \"frontAndBackCull\" \n            -transpInShadows 0\n            -cullingOverride \"none\" \n            -lowQualityLighting 0\n            -maximumNumHardwareLights 1\n            -occlusionCulling 0\n            -shadingModel 0\n            -useBaseRenderer 0\n            -useReducedRenderer 0\n            -smallObjectCulling 0\n            -smallObjectThreshold -1 \n            -interactiveDisableShadows 0\n            -interactiveBackFaceCull 0\n            -sortTransparent 1\n            -nurbsCurves 1\n            -nurbsSurfaces 1\n            -polymeshes 1\n            -subdivSurfaces 1\n            -planes 1\n            -lights 1\n            -cameras 1\n            -controlVertices 1\n            -hulls 1\n            -grid 1\n"
		+ "            -imagePlane 1\n            -joints 1\n            -ikHandles 1\n            -deformers 1\n            -dynamics 1\n            -particleInstancers 1\n            -fluids 1\n            -hairSystems 1\n            -follicles 1\n            -nCloths 1\n            -nParticles 1\n            -nRigids 1\n            -dynamicConstraints 1\n            -locators 1\n            -manipulators 1\n            -pluginShapes 1\n            -dimensions 1\n            -handles 1\n            -pivots 1\n            -textures 1\n            -strokes 1\n            -motionTrails 1\n            -clipGhosts 1\n            -greasePencils 1\n            -shadows 0\n            -captureSequenceNumber -1\n            -width 388\n            -height 383\n            -sceneRenderFilter 0\n            $editorName;\n        modelEditor -e -viewSelected 0 $editorName;\n\t\tif (!$useSceneConfig) {\n\t\t\tpanel -e -l $label $panelName;\n\t\t}\n\t}\n\n\n\t$panelName = `sceneUIReplacement -getNextPanel \"modelPanel\" (localizedPanelLabel(\"Persp View\")) `;\n\tif (\"\" != $panelName) {\n"
		+ "\t\t$label = `panel -q -label $panelName`;\n\t\tmodelPanel -edit -l (localizedPanelLabel(\"Persp View\")) -mbv $menusOkayInPanels  $panelName;\n\t\t$editorName = $panelName;\n        modelEditor -e \n            -camera \"persp\" \n            -useInteractiveMode 0\n            -displayLights \"default\" \n            -displayAppearance \"smoothShaded\" \n            -activeOnly 0\n            -ignorePanZoom 0\n            -wireframeOnShaded 0\n            -headsUpDisplay 1\n            -holdOuts 1\n            -selectionHiliteDisplay 1\n            -useDefaultMaterial 0\n            -bufferMode \"double\" \n            -twoSidedLighting 0\n            -backfaceCulling 0\n            -xray 0\n            -jointXray 0\n            -activeComponentsXray 0\n            -displayTextures 0\n            -smoothWireframe 0\n            -lineWidth 1\n            -textureAnisotropic 0\n            -textureHilight 1\n            -textureSampling 2\n            -textureDisplay \"modulate\" \n            -textureMaxSize 16384\n            -fogging 0\n            -fogSource \"fragment\" \n"
		+ "            -fogMode \"linear\" \n            -fogStart 0\n            -fogEnd 100\n            -fogDensity 0.1\n            -fogColor 0.5 0.5 0.5 1 \n            -depthOfFieldPreview 1\n            -maxConstantTransparency 1\n            -rendererName \"vp2Renderer\" \n            -objectFilterShowInHUD 1\n            -isFiltered 0\n            -colorResolution 256 256 \n            -bumpResolution 512 512 \n            -textureCompression 0\n            -transparencyAlgorithm \"frontAndBackCull\" \n            -transpInShadows 0\n            -cullingOverride \"none\" \n            -lowQualityLighting 0\n            -maximumNumHardwareLights 1\n            -occlusionCulling 0\n            -shadingModel 0\n            -useBaseRenderer 0\n            -useReducedRenderer 0\n            -smallObjectCulling 0\n            -smallObjectThreshold -1 \n            -interactiveDisableShadows 0\n            -interactiveBackFaceCull 0\n            -sortTransparent 1\n            -nurbsCurves 1\n            -nurbsSurfaces 1\n            -polymeshes 1\n            -subdivSurfaces 1\n"
		+ "            -planes 1\n            -lights 1\n            -cameras 1\n            -controlVertices 1\n            -hulls 1\n            -grid 1\n            -imagePlane 1\n            -joints 1\n            -ikHandles 1\n            -deformers 1\n            -dynamics 1\n            -particleInstancers 1\n            -fluids 1\n            -hairSystems 1\n            -follicles 1\n            -nCloths 1\n            -nParticles 1\n            -nRigids 1\n            -dynamicConstraints 1\n            -locators 1\n            -manipulators 1\n            -pluginShapes 1\n            -dimensions 1\n            -handles 1\n            -pivots 1\n            -textures 1\n            -strokes 1\n            -motionTrails 1\n            -clipGhosts 1\n            -greasePencils 1\n            -shadows 0\n            -captureSequenceNumber -1\n            -width 1003\n            -height 811\n            -sceneRenderFilter 0\n            $editorName;\n        modelEditor -e -viewSelected 0 $editorName;\n\t\tif (!$useSceneConfig) {\n\t\t\tpanel -e -l $label $panelName;\n"
		+ "\t\t}\n\t}\n\n\n\t$panelName = `sceneUIReplacement -getNextPanel \"outlinerPanel\" (localizedPanelLabel(\"ToggledOutliner\")) `;\n\tif (\"\" != $panelName) {\n\t\t$label = `panel -q -label $panelName`;\n\t\toutlinerPanel -edit -l (localizedPanelLabel(\"ToggledOutliner\")) -mbv $menusOkayInPanels  $panelName;\n\t\t$editorName = $panelName;\n        outlinerEditor -e \n            -docTag \"isolOutln_fromSeln\" \n            -showShapes 0\n            -showAssignedMaterials 0\n            -showTimeEditor 1\n            -showReferenceNodes 0\n            -showReferenceMembers 0\n            -showAttributes 0\n            -showConnected 0\n            -showAnimCurvesOnly 0\n            -showMuteInfo 0\n            -organizeByLayer 1\n            -showAnimLayerWeight 1\n            -autoExpandLayers 1\n            -autoExpand 0\n            -showDagOnly 1\n            -showAssets 1\n            -showContainedOnly 1\n            -showPublishedAsConnected 0\n            -showContainerContents 1\n            -ignoreDagHierarchy 0\n            -expandConnections 0\n            -showUpstreamCurves 1\n"
		+ "            -showUnitlessCurves 1\n            -showCompounds 1\n            -showLeafs 1\n            -showNumericAttrsOnly 0\n            -highlightActive 1\n            -autoSelectNewObjects 0\n            -doNotSelectNewObjects 0\n            -dropIsParent 1\n            -transmitFilters 0\n            -setFilter \"defaultSetFilter\" \n            -showSetMembers 1\n            -allowMultiSelection 1\n            -alwaysToggleSelect 0\n            -directSelect 0\n            -isSet 0\n            -isSetMember 0\n            -displayMode \"DAG\" \n            -expandObjects 0\n            -setsIgnoreFilters 1\n            -containersIgnoreFilters 0\n            -editAttrName 0\n            -showAttrValues 0\n            -highlightSecondary 0\n            -showUVAttrsOnly 0\n            -showTextureNodesOnly 0\n            -attrAlphaOrder \"default\" \n            -animLayerFilterOptions \"allAffecting\" \n            -sortOrder \"none\" \n            -longNames 0\n            -niceNames 1\n            -showNamespace 1\n            -showPinIcons 0\n"
		+ "            -mapMotionTrails 0\n            -ignoreHiddenAttribute 0\n            -ignoreOutlinerColor 0\n            -renderFilterVisible 0\n            -renderFilterIndex 0\n            -selectionOrder \"chronological\" \n            -expandAttribute 0\n            $editorName;\n\t\tif (!$useSceneConfig) {\n\t\t\tpanel -e -l $label $panelName;\n\t\t}\n\t}\n\n\n\t$panelName = `sceneUIReplacement -getNextPanel \"outlinerPanel\" (localizedPanelLabel(\"Outliner\")) `;\n\tif (\"\" != $panelName) {\n\t\t$label = `panel -q -label $panelName`;\n\t\toutlinerPanel -edit -l (localizedPanelLabel(\"Outliner\")) -mbv $menusOkayInPanels  $panelName;\n\t\t$editorName = $panelName;\n        outlinerEditor -e \n            -docTag \"isolOutln_fromSeln\" \n            -showShapes 0\n            -showAssignedMaterials 0\n            -showTimeEditor 1\n            -showReferenceNodes 0\n            -showReferenceMembers 0\n            -showAttributes 0\n            -showConnected 0\n            -showAnimCurvesOnly 0\n            -showMuteInfo 0\n            -organizeByLayer 1\n            -showAnimLayerWeight 1\n"
		+ "            -autoExpandLayers 1\n            -autoExpand 0\n            -showDagOnly 1\n            -showAssets 1\n            -showContainedOnly 1\n            -showPublishedAsConnected 0\n            -showContainerContents 1\n            -ignoreDagHierarchy 0\n            -expandConnections 0\n            -showUpstreamCurves 1\n            -showUnitlessCurves 1\n            -showCompounds 1\n            -showLeafs 1\n            -showNumericAttrsOnly 0\n            -highlightActive 1\n            -autoSelectNewObjects 0\n            -doNotSelectNewObjects 0\n            -dropIsParent 1\n            -transmitFilters 0\n            -setFilter \"defaultSetFilter\" \n            -showSetMembers 1\n            -allowMultiSelection 1\n            -alwaysToggleSelect 0\n            -directSelect 0\n            -displayMode \"DAG\" \n            -expandObjects 0\n            -setsIgnoreFilters 1\n            -containersIgnoreFilters 0\n            -editAttrName 0\n            -showAttrValues 0\n            -highlightSecondary 0\n            -showUVAttrsOnly 0\n"
		+ "            -showTextureNodesOnly 0\n            -attrAlphaOrder \"default\" \n            -animLayerFilterOptions \"allAffecting\" \n            -sortOrder \"none\" \n            -longNames 0\n            -niceNames 1\n            -showNamespace 1\n            -showPinIcons 0\n            -mapMotionTrails 0\n            -ignoreHiddenAttribute 0\n            -ignoreOutlinerColor 0\n            -renderFilterVisible 0\n            $editorName;\n\t\tif (!$useSceneConfig) {\n\t\t\tpanel -e -l $label $panelName;\n\t\t}\n\t}\n\n\n\t$panelName = `sceneUIReplacement -getNextScriptedPanel \"graphEditor\" (localizedPanelLabel(\"Graph Editor\")) `;\n\tif (\"\" != $panelName) {\n\t\t$label = `panel -q -label $panelName`;\n\t\tscriptedPanel -edit -l (localizedPanelLabel(\"Graph Editor\")) -mbv $menusOkayInPanels  $panelName;\n\n\t\t\t$editorName = ($panelName+\"OutlineEd\");\n            outlinerEditor -e \n                -showShapes 1\n                -showAssignedMaterials 0\n                -showTimeEditor 1\n                -showReferenceNodes 0\n                -showReferenceMembers 0\n"
		+ "                -showAttributes 1\n                -showConnected 1\n                -showAnimCurvesOnly 1\n                -showMuteInfo 0\n                -organizeByLayer 1\n                -showAnimLayerWeight 1\n                -autoExpandLayers 1\n                -autoExpand 1\n                -showDagOnly 0\n                -showAssets 1\n                -showContainedOnly 0\n                -showPublishedAsConnected 0\n                -showContainerContents 0\n                -ignoreDagHierarchy 0\n                -expandConnections 1\n                -showUpstreamCurves 1\n                -showUnitlessCurves 1\n                -showCompounds 0\n                -showLeafs 1\n                -showNumericAttrsOnly 1\n                -highlightActive 0\n                -autoSelectNewObjects 1\n                -doNotSelectNewObjects 0\n                -dropIsParent 1\n                -transmitFilters 1\n                -setFilter \"0\" \n                -showSetMembers 0\n                -allowMultiSelection 1\n                -alwaysToggleSelect 0\n"
		+ "                -directSelect 0\n                -displayMode \"DAG\" \n                -expandObjects 0\n                -setsIgnoreFilters 1\n                -containersIgnoreFilters 0\n                -editAttrName 0\n                -showAttrValues 0\n                -highlightSecondary 0\n                -showUVAttrsOnly 0\n                -showTextureNodesOnly 0\n                -attrAlphaOrder \"default\" \n                -animLayerFilterOptions \"allAffecting\" \n                -sortOrder \"none\" \n                -longNames 0\n                -niceNames 1\n                -showNamespace 1\n                -showPinIcons 1\n                -mapMotionTrails 1\n                -ignoreHiddenAttribute 0\n                -ignoreOutlinerColor 0\n                -renderFilterVisible 0\n                $editorName;\n\n\t\t\t$editorName = ($panelName+\"GraphEd\");\n            animCurveEditor -e \n                -displayKeys 1\n                -displayTangents 0\n                -displayActiveKeys 0\n                -displayActiveKeyTangents 1\n                -displayInfinities 0\n"
		+ "                -displayValues 0\n                -autoFit 1\n                -snapTime \"integer\" \n                -snapValue \"none\" \n                -showResults \"off\" \n                -showBufferCurves \"off\" \n                -smoothness \"fine\" \n                -resultSamples 1\n                -resultScreenSamples 0\n                -resultUpdate \"delayed\" \n                -showUpstreamCurves 1\n                -showCurveNames 0\n                -showActiveCurveNames 0\n                -stackedCurves 0\n                -stackedCurvesMin -1\n                -stackedCurvesMax 1\n                -stackedCurvesSpace 0.2\n                -displayNormalized 0\n                -preSelectionHighlight 0\n                -constrainDrag 0\n                -classicMode 1\n                -valueLinesToggle 1\n                $editorName;\n\t\tif (!$useSceneConfig) {\n\t\t\tpanel -e -l $label $panelName;\n\t\t}\n\t}\n\n\n\t$panelName = `sceneUIReplacement -getNextScriptedPanel \"dopeSheetPanel\" (localizedPanelLabel(\"Dope Sheet\")) `;\n\tif (\"\" != $panelName) {\n"
		+ "\t\t$label = `panel -q -label $panelName`;\n\t\tscriptedPanel -edit -l (localizedPanelLabel(\"Dope Sheet\")) -mbv $menusOkayInPanels  $panelName;\n\n\t\t\t$editorName = ($panelName+\"OutlineEd\");\n            outlinerEditor -e \n                -showShapes 1\n                -showAssignedMaterials 0\n                -showTimeEditor 1\n                -showReferenceNodes 0\n                -showReferenceMembers 0\n                -showAttributes 1\n                -showConnected 1\n                -showAnimCurvesOnly 1\n                -showMuteInfo 0\n                -organizeByLayer 1\n                -showAnimLayerWeight 1\n                -autoExpandLayers 1\n                -autoExpand 0\n                -showDagOnly 0\n                -showAssets 1\n                -showContainedOnly 0\n                -showPublishedAsConnected 0\n                -showContainerContents 0\n                -ignoreDagHierarchy 0\n                -expandConnections 1\n                -showUpstreamCurves 1\n                -showUnitlessCurves 0\n                -showCompounds 1\n"
		+ "                -showLeafs 1\n                -showNumericAttrsOnly 1\n                -highlightActive 0\n                -autoSelectNewObjects 0\n                -doNotSelectNewObjects 1\n                -dropIsParent 1\n                -transmitFilters 0\n                -setFilter \"0\" \n                -showSetMembers 0\n                -allowMultiSelection 1\n                -alwaysToggleSelect 0\n                -directSelect 0\n                -displayMode \"DAG\" \n                -expandObjects 0\n                -setsIgnoreFilters 1\n                -containersIgnoreFilters 0\n                -editAttrName 0\n                -showAttrValues 0\n                -highlightSecondary 0\n                -showUVAttrsOnly 0\n                -showTextureNodesOnly 0\n                -attrAlphaOrder \"default\" \n                -animLayerFilterOptions \"allAffecting\" \n                -sortOrder \"none\" \n                -longNames 0\n                -niceNames 1\n                -showNamespace 1\n                -showPinIcons 0\n                -mapMotionTrails 1\n"
		+ "                -ignoreHiddenAttribute 0\n                -ignoreOutlinerColor 0\n                -renderFilterVisible 0\n                $editorName;\n\n\t\t\t$editorName = ($panelName+\"DopeSheetEd\");\n            dopeSheetEditor -e \n                -displayKeys 1\n                -displayTangents 0\n                -displayActiveKeys 0\n                -displayActiveKeyTangents 0\n                -displayInfinities 0\n                -displayValues 0\n                -autoFit 0\n                -snapTime \"integer\" \n                -snapValue \"none\" \n                -outliner \"dopeSheetPanel1OutlineEd\" \n                -showSummary 1\n                -showScene 0\n                -hierarchyBelow 0\n                -showTicks 1\n                -selectionWindow 0 0 0 0 \n                $editorName;\n\t\tif (!$useSceneConfig) {\n\t\t\tpanel -e -l $label $panelName;\n\t\t}\n\t}\n\n\n\t$panelName = `sceneUIReplacement -getNextScriptedPanel \"timeEditorPanel\" (localizedPanelLabel(\"Time Editor\")) `;\n\tif (\"\" != $panelName) {\n\t\t$label = `panel -q -label $panelName`;\n"
		+ "\t\tscriptedPanel -edit -l (localizedPanelLabel(\"Time Editor\")) -mbv $menusOkayInPanels  $panelName;\n\t\tif (!$useSceneConfig) {\n\t\t\tpanel -e -l $label $panelName;\n\t\t}\n\t}\n\n\n\t$panelName = `sceneUIReplacement -getNextScriptedPanel \"clipEditorPanel\" (localizedPanelLabel(\"Trax Editor\")) `;\n\tif (\"\" != $panelName) {\n\t\t$label = `panel -q -label $panelName`;\n\t\tscriptedPanel -edit -l (localizedPanelLabel(\"Trax Editor\")) -mbv $menusOkayInPanels  $panelName;\n\n\t\t\t$editorName = clipEditorNameFromPanel($panelName);\n            clipEditor -e \n                -displayKeys 0\n                -displayTangents 0\n                -displayActiveKeys 0\n                -displayActiveKeyTangents 0\n                -displayInfinities 0\n                -displayValues 0\n                -autoFit 0\n                -snapTime \"none\" \n                -snapValue \"none\" \n                -initialized 0\n                -manageSequencer 0 \n                $editorName;\n\t\tif (!$useSceneConfig) {\n\t\t\tpanel -e -l $label $panelName;\n\t\t}\n\t}\n\n\n\t$panelName = `sceneUIReplacement -getNextScriptedPanel \"sequenceEditorPanel\" (localizedPanelLabel(\"Camera Sequencer\")) `;\n"
		+ "\tif (\"\" != $panelName) {\n\t\t$label = `panel -q -label $panelName`;\n\t\tscriptedPanel -edit -l (localizedPanelLabel(\"Camera Sequencer\")) -mbv $menusOkayInPanels  $panelName;\n\n\t\t\t$editorName = sequenceEditorNameFromPanel($panelName);\n            clipEditor -e \n                -displayKeys 0\n                -displayTangents 0\n                -displayActiveKeys 0\n                -displayActiveKeyTangents 0\n                -displayInfinities 0\n                -displayValues 0\n                -autoFit 0\n                -snapTime \"none\" \n                -snapValue \"none\" \n                -initialized 0\n                -manageSequencer 1 \n                $editorName;\n\t\tif (!$useSceneConfig) {\n\t\t\tpanel -e -l $label $panelName;\n\t\t}\n\t}\n\n\n\t$panelName = `sceneUIReplacement -getNextScriptedPanel \"hyperGraphPanel\" (localizedPanelLabel(\"Hypergraph Hierarchy\")) `;\n\tif (\"\" != $panelName) {\n\t\t$label = `panel -q -label $panelName`;\n\t\tscriptedPanel -edit -l (localizedPanelLabel(\"Hypergraph Hierarchy\")) -mbv $menusOkayInPanels  $panelName;\n"
		+ "\n\t\t\t$editorName = ($panelName+\"HyperGraphEd\");\n            hyperGraph -e \n                -graphLayoutStyle \"hierarchicalLayout\" \n                -orientation \"horiz\" \n                -mergeConnections 0\n                -zoom 1\n                -animateTransition 0\n                -showRelationships 1\n                -showShapes 0\n                -showDeformers 0\n                -showExpressions 0\n                -showConstraints 0\n                -showConnectionFromSelected 0\n                -showConnectionToSelected 0\n                -showConstraintLabels 0\n                -showUnderworld 0\n                -showInvisible 0\n                -transitionFrames 1\n                -opaqueContainers 0\n                -freeform 0\n                -imagePosition 0 0 \n                -imageScale 1\n                -imageEnabled 0\n                -graphType \"DAG\" \n                -heatMapDisplay 0\n                -updateSelection 1\n                -updateNodeAdded 1\n                -useDrawOverrideColor 0\n                -limitGraphTraversal -1\n"
		+ "                -range 0 0 \n                -iconSize \"smallIcons\" \n                -showCachedConnections 0\n                $editorName;\n\t\tif (!$useSceneConfig) {\n\t\t\tpanel -e -l $label $panelName;\n\t\t}\n\t}\n\n\n\t$panelName = `sceneUIReplacement -getNextScriptedPanel \"visorPanel\" (localizedPanelLabel(\"Visor\")) `;\n\tif (\"\" != $panelName) {\n\t\t$label = `panel -q -label $panelName`;\n\t\tscriptedPanel -edit -l (localizedPanelLabel(\"Visor\")) -mbv $menusOkayInPanels  $panelName;\n\t\tif (!$useSceneConfig) {\n\t\t\tpanel -e -l $label $panelName;\n\t\t}\n\t}\n\n\n\t$panelName = `sceneUIReplacement -getNextScriptedPanel \"createNodePanel\" (localizedPanelLabel(\"Create Node\")) `;\n\tif (\"\" != $panelName) {\n\t\t$label = `panel -q -label $panelName`;\n\t\tscriptedPanel -edit -l (localizedPanelLabel(\"Create Node\")) -mbv $menusOkayInPanels  $panelName;\n\t\tif (!$useSceneConfig) {\n\t\t\tpanel -e -l $label $panelName;\n\t\t}\n\t}\n\n\n\t$panelName = `sceneUIReplacement -getNextScriptedPanel \"polyTexturePlacementPanel\" (localizedPanelLabel(\"UV Editor\")) `;\n\tif (\"\" != $panelName) {\n"
		+ "\t\t$label = `panel -q -label $panelName`;\n\t\tscriptedPanel -edit -l (localizedPanelLabel(\"UV Editor\")) -mbv $menusOkayInPanels  $panelName;\n\t\tif (!$useSceneConfig) {\n\t\t\tpanel -e -l $label $panelName;\n\t\t}\n\t}\n\n\n\t$panelName = `sceneUIReplacement -getNextScriptedPanel \"renderWindowPanel\" (localizedPanelLabel(\"Render View\")) `;\n\tif (\"\" != $panelName) {\n\t\t$label = `panel -q -label $panelName`;\n\t\tscriptedPanel -edit -l (localizedPanelLabel(\"Render View\")) -mbv $menusOkayInPanels  $panelName;\n\t\tif (!$useSceneConfig) {\n\t\t\tpanel -e -l $label $panelName;\n\t\t}\n\t}\n\n\n\t$panelName = `sceneUIReplacement -getNextPanel \"shapePanel\" (localizedPanelLabel(\"Shape Editor\")) `;\n\tif (\"\" != $panelName) {\n\t\t$label = `panel -q -label $panelName`;\n\t\tshapePanel -edit -l (localizedPanelLabel(\"Shape Editor\")) -mbv $menusOkayInPanels  $panelName;\n\t\tif (!$useSceneConfig) {\n\t\t\tpanel -e -l $label $panelName;\n\t\t}\n\t}\n\n\n\t$panelName = `sceneUIReplacement -getNextPanel \"posePanel\" (localizedPanelLabel(\"Pose Editor\")) `;\n\tif (\"\" != $panelName) {\n\t\t$label = `panel -q -label $panelName`;\n"
		+ "\t\tposePanel -edit -l (localizedPanelLabel(\"Pose Editor\")) -mbv $menusOkayInPanels  $panelName;\n\t\tif (!$useSceneConfig) {\n\t\t\tpanel -e -l $label $panelName;\n\t\t}\n\t}\n\n\n\t$panelName = `sceneUIReplacement -getNextScriptedPanel \"dynRelEdPanel\" (localizedPanelLabel(\"Dynamic Relationships\")) `;\n\tif (\"\" != $panelName) {\n\t\t$label = `panel -q -label $panelName`;\n\t\tscriptedPanel -edit -l (localizedPanelLabel(\"Dynamic Relationships\")) -mbv $menusOkayInPanels  $panelName;\n\t\tif (!$useSceneConfig) {\n\t\t\tpanel -e -l $label $panelName;\n\t\t}\n\t}\n\n\n\t$panelName = `sceneUIReplacement -getNextScriptedPanel \"relationshipPanel\" (localizedPanelLabel(\"Relationship Editor\")) `;\n\tif (\"\" != $panelName) {\n\t\t$label = `panel -q -label $panelName`;\n\t\tscriptedPanel -edit -l (localizedPanelLabel(\"Relationship Editor\")) -mbv $menusOkayInPanels  $panelName;\n\t\tif (!$useSceneConfig) {\n\t\t\tpanel -e -l $label $panelName;\n\t\t}\n\t}\n\n\n\t$panelName = `sceneUIReplacement -getNextScriptedPanel \"referenceEditorPanel\" (localizedPanelLabel(\"Reference Editor\")) `;\n\tif (\"\" != $panelName) {\n"
		+ "\t\t$label = `panel -q -label $panelName`;\n\t\tscriptedPanel -edit -l (localizedPanelLabel(\"Reference Editor\")) -mbv $menusOkayInPanels  $panelName;\n\t\tif (!$useSceneConfig) {\n\t\t\tpanel -e -l $label $panelName;\n\t\t}\n\t}\n\n\n\t$panelName = `sceneUIReplacement -getNextScriptedPanel \"componentEditorPanel\" (localizedPanelLabel(\"Component Editor\")) `;\n\tif (\"\" != $panelName) {\n\t\t$label = `panel -q -label $panelName`;\n\t\tscriptedPanel -edit -l (localizedPanelLabel(\"Component Editor\")) -mbv $menusOkayInPanels  $panelName;\n\t\tif (!$useSceneConfig) {\n\t\t\tpanel -e -l $label $panelName;\n\t\t}\n\t}\n\n\n\t$panelName = `sceneUIReplacement -getNextScriptedPanel \"dynPaintScriptedPanelType\" (localizedPanelLabel(\"Paint Effects\")) `;\n\tif (\"\" != $panelName) {\n\t\t$label = `panel -q -label $panelName`;\n\t\tscriptedPanel -edit -l (localizedPanelLabel(\"Paint Effects\")) -mbv $menusOkayInPanels  $panelName;\n\t\tif (!$useSceneConfig) {\n\t\t\tpanel -e -l $label $panelName;\n\t\t}\n\t}\n\n\n\t$panelName = `sceneUIReplacement -getNextScriptedPanel \"scriptEditorPanel\" (localizedPanelLabel(\"Script Editor\")) `;\n"
		+ "\tif (\"\" != $panelName) {\n\t\t$label = `panel -q -label $panelName`;\n\t\tscriptedPanel -edit -l (localizedPanelLabel(\"Script Editor\")) -mbv $menusOkayInPanels  $panelName;\n\t\tif (!$useSceneConfig) {\n\t\t\tpanel -e -l $label $panelName;\n\t\t}\n\t}\n\n\n\t$panelName = `sceneUIReplacement -getNextScriptedPanel \"profilerPanel\" (localizedPanelLabel(\"Profiler Tool\")) `;\n\tif (\"\" != $panelName) {\n\t\t$label = `panel -q -label $panelName`;\n\t\tscriptedPanel -edit -l (localizedPanelLabel(\"Profiler Tool\")) -mbv $menusOkayInPanels  $panelName;\n\t\tif (!$useSceneConfig) {\n\t\t\tpanel -e -l $label $panelName;\n\t\t}\n\t}\n\n\n\t$panelName = `sceneUIReplacement -getNextScriptedPanel \"contentBrowserPanel\" (localizedPanelLabel(\"Content Browser\")) `;\n\tif (\"\" != $panelName) {\n\t\t$label = `panel -q -label $panelName`;\n\t\tscriptedPanel -edit -l (localizedPanelLabel(\"Content Browser\")) -mbv $menusOkayInPanels  $panelName;\n\t\tif (!$useSceneConfig) {\n\t\t\tpanel -e -l $label $panelName;\n\t\t}\n\t}\n\n\n\t$panelName = `sceneUIReplacement -getNextScriptedPanel \"hyperShadePanel\" (localizedPanelLabel(\"Hypershade\")) `;\n"
		+ "\tif (\"\" != $panelName) {\n\t\t$label = `panel -q -label $panelName`;\n\t\tscriptedPanel -edit -l (localizedPanelLabel(\"Hypershade\")) -mbv $menusOkayInPanels  $panelName;\n\t\tif (!$useSceneConfig) {\n\t\t\tpanel -e -l $label $panelName;\n\t\t}\n\t}\n\n\n\t$panelName = `sceneUIReplacement -getNextScriptedPanel \"nodeEditorPanel\" (localizedPanelLabel(\"Node Editor\")) `;\n\tif (\"\" != $panelName) {\n\t\t$label = `panel -q -label $panelName`;\n\t\tscriptedPanel -edit -l (localizedPanelLabel(\"Node Editor\")) -mbv $menusOkayInPanels  $panelName;\n\n\t\t\t$editorName = ($panelName+\"NodeEditorEd\");\n            nodeEditor -e \n                -allAttributes 0\n                -allNodes 0\n                -autoSizeNodes 1\n                -consistentNameSize 1\n                -createNodeCommand \"nodeEdCreateNodeCommand\" \n                -defaultPinnedState 0\n                -additiveGraphingMode 0\n                -settingsChangedCallback \"nodeEdSyncControls\" \n                -traversalDepthLimit -1\n                -keyPressCommand \"nodeEdKeyPressCommand\" \n                -nodeTitleMode \"name\" \n"
		+ "                -gridSnap 0\n                -gridVisibility 1\n                -popupMenuScript \"nodeEdBuildPanelMenus\" \n                -showNamespace 1\n                -showShapes 1\n                -showSGShapes 0\n                -showTransforms 1\n                -useAssets 1\n                -syncedSelection 1\n                -extendToShapes 1\n                -activeTab -1\n                -editorMode \"default\" \n                $editorName;\n\t\tif (!$useSceneConfig) {\n\t\t\tpanel -e -l $label $panelName;\n\t\t}\n\t}\n\n\n\tif ($useSceneConfig) {\n        string $configName = `getPanel -cwl (localizedPanelLabel(\"Current Layout\"))`;\n        if (\"\" != $configName) {\n\t\t\tpanelConfiguration -edit -label (localizedPanelLabel(\"Current Layout\")) \n\t\t\t\t-userCreated false\n\t\t\t\t-defaultImage \"vacantCell.xP:/\"\n\t\t\t\t-image \"\"\n\t\t\t\t-sc false\n\t\t\t\t-configString \"global string $gMainPane; paneLayout -e -cn \\\"single\\\" -ps 1 100 100 $gMainPane;\"\n\t\t\t\t-removeAllPanels\n\t\t\t\t-ap false\n\t\t\t\t\t(localizedPanelLabel(\"Persp View\")) \n\t\t\t\t\t\"modelPanel\"\n"
		+ "\t\t\t\t\t\"$panelName = `modelPanel -unParent -l (localizedPanelLabel(\\\"Persp View\\\")) -mbv $menusOkayInPanels `;\\n$editorName = $panelName;\\nmodelEditor -e \\n    -cam `findStartUpCamera persp` \\n    -useInteractiveMode 0\\n    -displayLights \\\"default\\\" \\n    -displayAppearance \\\"smoothShaded\\\" \\n    -activeOnly 0\\n    -ignorePanZoom 0\\n    -wireframeOnShaded 0\\n    -headsUpDisplay 1\\n    -holdOuts 1\\n    -selectionHiliteDisplay 1\\n    -useDefaultMaterial 0\\n    -bufferMode \\\"double\\\" \\n    -twoSidedLighting 0\\n    -backfaceCulling 0\\n    -xray 0\\n    -jointXray 0\\n    -activeComponentsXray 0\\n    -displayTextures 0\\n    -smoothWireframe 0\\n    -lineWidth 1\\n    -textureAnisotropic 0\\n    -textureHilight 1\\n    -textureSampling 2\\n    -textureDisplay \\\"modulate\\\" \\n    -textureMaxSize 16384\\n    -fogging 0\\n    -fogSource \\\"fragment\\\" \\n    -fogMode \\\"linear\\\" \\n    -fogStart 0\\n    -fogEnd 100\\n    -fogDensity 0.1\\n    -fogColor 0.5 0.5 0.5 1 \\n    -depthOfFieldPreview 1\\n    -maxConstantTransparency 1\\n    -rendererName \\\"vp2Renderer\\\" \\n    -objectFilterShowInHUD 1\\n    -isFiltered 0\\n    -colorResolution 256 256 \\n    -bumpResolution 512 512 \\n    -textureCompression 0\\n    -transparencyAlgorithm \\\"frontAndBackCull\\\" \\n    -transpInShadows 0\\n    -cullingOverride \\\"none\\\" \\n    -lowQualityLighting 0\\n    -maximumNumHardwareLights 1\\n    -occlusionCulling 0\\n    -shadingModel 0\\n    -useBaseRenderer 0\\n    -useReducedRenderer 0\\n    -smallObjectCulling 0\\n    -smallObjectThreshold -1 \\n    -interactiveDisableShadows 0\\n    -interactiveBackFaceCull 0\\n    -sortTransparent 1\\n    -nurbsCurves 1\\n    -nurbsSurfaces 1\\n    -polymeshes 1\\n    -subdivSurfaces 1\\n    -planes 1\\n    -lights 1\\n    -cameras 1\\n    -controlVertices 1\\n    -hulls 1\\n    -grid 1\\n    -imagePlane 1\\n    -joints 1\\n    -ikHandles 1\\n    -deformers 1\\n    -dynamics 1\\n    -particleInstancers 1\\n    -fluids 1\\n    -hairSystems 1\\n    -follicles 1\\n    -nCloths 1\\n    -nParticles 1\\n    -nRigids 1\\n    -dynamicConstraints 1\\n    -locators 1\\n    -manipulators 1\\n    -pluginShapes 1\\n    -dimensions 1\\n    -handles 1\\n    -pivots 1\\n    -textures 1\\n    -strokes 1\\n    -motionTrails 1\\n    -clipGhosts 1\\n    -greasePencils 1\\n    -shadows 0\\n    -captureSequenceNumber -1\\n    -width 1003\\n    -height 811\\n    -sceneRenderFilter 0\\n    $editorName;\\nmodelEditor -e -viewSelected 0 $editorName\"\n"
		+ "\t\t\t\t\t\"modelPanel -edit -l (localizedPanelLabel(\\\"Persp View\\\")) -mbv $menusOkayInPanels  $panelName;\\n$editorName = $panelName;\\nmodelEditor -e \\n    -cam `findStartUpCamera persp` \\n    -useInteractiveMode 0\\n    -displayLights \\\"default\\\" \\n    -displayAppearance \\\"smoothShaded\\\" \\n    -activeOnly 0\\n    -ignorePanZoom 0\\n    -wireframeOnShaded 0\\n    -headsUpDisplay 1\\n    -holdOuts 1\\n    -selectionHiliteDisplay 1\\n    -useDefaultMaterial 0\\n    -bufferMode \\\"double\\\" \\n    -twoSidedLighting 0\\n    -backfaceCulling 0\\n    -xray 0\\n    -jointXray 0\\n    -activeComponentsXray 0\\n    -displayTextures 0\\n    -smoothWireframe 0\\n    -lineWidth 1\\n    -textureAnisotropic 0\\n    -textureHilight 1\\n    -textureSampling 2\\n    -textureDisplay \\\"modulate\\\" \\n    -textureMaxSize 16384\\n    -fogging 0\\n    -fogSource \\\"fragment\\\" \\n    -fogMode \\\"linear\\\" \\n    -fogStart 0\\n    -fogEnd 100\\n    -fogDensity 0.1\\n    -fogColor 0.5 0.5 0.5 1 \\n    -depthOfFieldPreview 1\\n    -maxConstantTransparency 1\\n    -rendererName \\\"vp2Renderer\\\" \\n    -objectFilterShowInHUD 1\\n    -isFiltered 0\\n    -colorResolution 256 256 \\n    -bumpResolution 512 512 \\n    -textureCompression 0\\n    -transparencyAlgorithm \\\"frontAndBackCull\\\" \\n    -transpInShadows 0\\n    -cullingOverride \\\"none\\\" \\n    -lowQualityLighting 0\\n    -maximumNumHardwareLights 1\\n    -occlusionCulling 0\\n    -shadingModel 0\\n    -useBaseRenderer 0\\n    -useReducedRenderer 0\\n    -smallObjectCulling 0\\n    -smallObjectThreshold -1 \\n    -interactiveDisableShadows 0\\n    -interactiveBackFaceCull 0\\n    -sortTransparent 1\\n    -nurbsCurves 1\\n    -nurbsSurfaces 1\\n    -polymeshes 1\\n    -subdivSurfaces 1\\n    -planes 1\\n    -lights 1\\n    -cameras 1\\n    -controlVertices 1\\n    -hulls 1\\n    -grid 1\\n    -imagePlane 1\\n    -joints 1\\n    -ikHandles 1\\n    -deformers 1\\n    -dynamics 1\\n    -particleInstancers 1\\n    -fluids 1\\n    -hairSystems 1\\n    -follicles 1\\n    -nCloths 1\\n    -nParticles 1\\n    -nRigids 1\\n    -dynamicConstraints 1\\n    -locators 1\\n    -manipulators 1\\n    -pluginShapes 1\\n    -dimensions 1\\n    -handles 1\\n    -pivots 1\\n    -textures 1\\n    -strokes 1\\n    -motionTrails 1\\n    -clipGhosts 1\\n    -greasePencils 1\\n    -shadows 0\\n    -captureSequenceNumber -1\\n    -width 1003\\n    -height 811\\n    -sceneRenderFilter 0\\n    $editorName;\\nmodelEditor -e -viewSelected 0 $editorName\"\n"
		+ "\t\t\t\t$configName;\n\n            setNamedPanelLayout (localizedPanelLabel(\"Current Layout\"));\n        }\n\n        panelHistory -e -clear mainPanelHistory;\n        sceneUIReplacement -clear;\n\t}\n\n\ngrid -spacing 5 -size 12 -divisions 5 -displayAxes yes -displayGridLines yes -displayDivisionLines yes -displayPerspectiveLabels no -displayOrthographicLabels no -displayAxesBold yes -perspectiveLabelPosition axis -orthographicLabelPosition edge;\nviewManip -drawCompass 0 -compassAngle 0 -frontParameters \"\" -homeParameters \"\" -selectionLockParameters \"\";\n}\n");
	setAttr ".st" 3;
createNode script -n "sceneConfigurationScriptNode";
	rename -uid "952B9C3B-4BEA-1047-A828-B6BC36470578";
	setAttr ".b" -type "string" "playbackOptions -min 1 -max 120 -ast 1 -aet 200 ";
	setAttr ".st" 6;
createNode lambert -n "RaftLogs";
	rename -uid "6E220FFD-46A3-A729-4322-32AA85FAA52D";
	setAttr ".c" -type "float3" 1 1 1 ;
createNode shadingEngine -n "lambert2SG";
	rename -uid "DA4683A5-4A75-68F6-809E-0B811525D015";
	setAttr ".ihi" 0;
	setAttr ".ro" yes;
createNode materialInfo -n "materialInfo1";
	rename -uid "6072B4DF-4277-8B8F-9F67-7BA0F3CE839D";
createNode lambert -n "RaftTies";
	rename -uid "D2F433FF-4FC8-4189-4356-698B019FACBD";
	setAttr ".c" -type "float3" 1 1 1 ;
createNode shadingEngine -n "lambert3SG";
	rename -uid "04B1F2F4-4B02-102B-7CC5-96873891B5C5";
	setAttr ".ihi" 0;
	setAttr ".ro" yes;
createNode materialInfo -n "materialInfo2";
	rename -uid "B09CBD81-450B-6EB6-79F3-8192E48CB8DE";
createNode lambert -n "RaftSail";
	rename -uid "EFE7272C-4665-7CD3-05C9-6587D37FF18B";
	setAttr ".c" -type "float3" 1 1 1 ;
createNode shadingEngine -n "lambert4SG";
	rename -uid "4F1DEAA9-4043-0345-3049-0195B5E13911";
	setAttr ".ihi" 0;
	setAttr ".ro" yes;
createNode materialInfo -n "materialInfo3";
	rename -uid "DCD25165-4DC7-27A6-2F68-21A23AF3F8C1";
createNode lambert -n "RaftPost";
	rename -uid "3AB6ED3B-475A-7542-398A-32B229A61B32";
	setAttr ".c" -type "float3" 1 1 1 ;
createNode shadingEngine -n "lambert5SG";
	rename -uid "970C9FA0-45A6-745A-000C-49BAAC1AF108";
	setAttr ".ihi" 0;
	setAttr ".ro" yes;
createNode materialInfo -n "materialInfo4";
	rename -uid "64D7121E-41D2-B848-51AB-BFA4ADD2140F";
createNode groupId -n "groupId1";
	rename -uid "0A6CA693-45AA-718C-786E-829B20C9302F";
	setAttr ".ihi" 0;
createNode groupId -n "groupId2";
	rename -uid "945C34CE-4292-6BCC-A26E-238679A46D9C";
	setAttr ".ihi" 0;
createNode groupId -n "groupId3";
	rename -uid "2AE12A6A-482E-0080-9053-1EA8475F65F3";
	setAttr ".ihi" 0;
createNode groupId -n "groupId4";
	rename -uid "B7BC1580-4158-1E9B-2104-B7BFD1B9167C";
	setAttr ".ihi" 0;
select -ne :time1;
	setAttr ".o" 1;
	setAttr ".unw" 1;
select -ne :hardwareRenderingGlobals;
	setAttr ".otfna" -type "stringArray" 22 "NURBS Curves" "NURBS Surfaces" "Polygons" "Subdiv Surface" "Particles" "Particle Instance" "Fluids" "Strokes" "Image Planes" "UI" "Lights" "Cameras" "Locators" "Joints" "IK Handles" "Deformers" "Motion Trails" "Components" "Hair Systems" "Follicles" "Misc. UI" "Ornaments"  ;
	setAttr ".otfva" -type "Int32Array" 22 0 1 1 1 1 1
		 1 1 1 0 0 0 0 0 0 0 0 0
		 0 0 0 0 ;
	setAttr ".fprt" yes;
select -ne :renderPartition;
	setAttr -s 6 ".st";
select -ne :renderGlobalsList1;
select -ne :defaultShaderList1;
	setAttr -s 8 ".s";
select -ne :postProcessList1;
	setAttr -s 2 ".p";
select -ne :defaultRenderingList1;
select -ne :initialShadingGroup;
	setAttr ".ro" yes;
select -ne :initialParticleSE;
	setAttr ".ro" yes;
select -ne :defaultResolution;
	setAttr ".pa" 1;
select -ne :hardwareRenderGlobals;
	setAttr ".ctrs" 256;
	setAttr ".btrs" 512;
connectAttr "groupId1.id" "pCube6Shape.iog.og[0].gid";
connectAttr "lambert5SG.mwc" "pCube6Shape.iog.og[0].gco";
connectAttr "groupId2.id" "pCube6Shape.iog.og[1].gid";
connectAttr "lambert2SG.mwc" "pCube6Shape.iog.og[1].gco";
connectAttr "groupId3.id" "pCube6Shape.iog.og[2].gid";
connectAttr "lambert3SG.mwc" "pCube6Shape.iog.og[2].gco";
connectAttr "groupId4.id" "pCube6Shape.iog.og[3].gid";
connectAttr "lambert4SG.mwc" "pCube6Shape.iog.og[3].gco";
relationship "link" ":lightLinker1" ":initialShadingGroup.message" ":defaultLightSet.message";
relationship "link" ":lightLinker1" ":initialParticleSE.message" ":defaultLightSet.message";
relationship "link" ":lightLinker1" "lambert2SG.message" ":defaultLightSet.message";
relationship "link" ":lightLinker1" "lambert3SG.message" ":defaultLightSet.message";
relationship "link" ":lightLinker1" "lambert4SG.message" ":defaultLightSet.message";
relationship "link" ":lightLinker1" "lambert5SG.message" ":defaultLightSet.message";
relationship "shadowLink" ":lightLinker1" ":initialShadingGroup.message" ":defaultLightSet.message";
relationship "shadowLink" ":lightLinker1" ":initialParticleSE.message" ":defaultLightSet.message";
relationship "shadowLink" ":lightLinker1" "lambert2SG.message" ":defaultLightSet.message";
relationship "shadowLink" ":lightLinker1" "lambert3SG.message" ":defaultLightSet.message";
relationship "shadowLink" ":lightLinker1" "lambert4SG.message" ":defaultLightSet.message";
relationship "shadowLink" ":lightLinker1" "lambert5SG.message" ":defaultLightSet.message";
connectAttr "layerManager.dli[0]" "defaultLayer.id";
connectAttr "renderLayerManager.rlmi[0]" "defaultRenderLayer.rlid";
connectAttr "RaftLogs.oc" "lambert2SG.ss";
connectAttr "groupId2.msg" "lambert2SG.gn" -na;
connectAttr "pCube6Shape.iog.og[1]" "lambert2SG.dsm" -na;
connectAttr "lambert2SG.msg" "materialInfo1.sg";
connectAttr "RaftLogs.msg" "materialInfo1.m";
connectAttr "RaftTies.oc" "lambert3SG.ss";
connectAttr "groupId3.msg" "lambert3SG.gn" -na;
connectAttr "pCube6Shape.iog.og[2]" "lambert3SG.dsm" -na;
connectAttr "lambert3SG.msg" "materialInfo2.sg";
connectAttr "RaftTies.msg" "materialInfo2.m";
connectAttr "RaftSail.oc" "lambert4SG.ss";
connectAttr "groupId4.msg" "lambert4SG.gn" -na;
connectAttr "pCube6Shape.iog.og[3]" "lambert4SG.dsm" -na;
connectAttr "lambert4SG.msg" "materialInfo3.sg";
connectAttr "RaftSail.msg" "materialInfo3.m";
connectAttr "RaftPost.oc" "lambert5SG.ss";
connectAttr "pCube6Shape.iog.og[0]" "lambert5SG.dsm" -na;
connectAttr "groupId1.msg" "lambert5SG.gn" -na;
connectAttr "lambert5SG.msg" "materialInfo4.sg";
connectAttr "RaftPost.msg" "materialInfo4.m";
connectAttr "lambert2SG.pa" ":renderPartition.st" -na;
connectAttr "lambert3SG.pa" ":renderPartition.st" -na;
connectAttr "lambert4SG.pa" ":renderPartition.st" -na;
connectAttr "lambert5SG.pa" ":renderPartition.st" -na;
connectAttr "RaftLogs.msg" ":defaultShaderList1.s" -na;
connectAttr "RaftTies.msg" ":defaultShaderList1.s" -na;
connectAttr "RaftSail.msg" ":defaultShaderList1.s" -na;
connectAttr "RaftPost.msg" ":defaultShaderList1.s" -na;
connectAttr "defaultRenderLayer.msg" ":defaultRenderingList1.r" -na;
// End of Raft_model_001.ma
